\relax 
\catcode`"\active
\select@language{ukrainian}
\@writefile{toc}{\select@language{ukrainian}}
\@writefile{lof}{\select@language{ukrainian}}
\@writefile{lot}{\select@language{ukrainian}}
\@writefile{toc}{\contentsline {section}{\numberline {1}\IeC {\CYRL }\IeC {\cyra }\IeC {\cyrb }\IeC {\cyro }\IeC {\cyrr }\IeC {\cyra }\IeC {\cyrt }\IeC {\cyro }\IeC {\cyrr }\IeC {\cyrn }\IeC {\cyra } \IeC {\cyrr }\IeC {\cyro }\IeC {\cyrb }\IeC {\cyro }\IeC {\cyrt }\IeC {\cyra } \IeC {\textnumero }2. Domain name servers}{2}}
\@writefile{toc}{\contentsline {subsection}{\numberline {1.1}\IeC {\CYRV }\IeC {\cyra }\IeC {\cyrr }\IeC {\cyrii }\IeC {\cyra }\IeC {\cyrn }\IeC {\cyrt }}{2}}
\@writefile{toc}{\contentsline {subsection}{\numberline {1.2}\IeC {\CYRN }\IeC {\cyra }\IeC {\cyrl }\IeC {\cyra }\IeC {\cyrsh }\IeC {\cyrt }\IeC {\cyru }\IeC {\cyrv }\IeC {\cyra }\IeC {\cyrn }\IeC {\cyrn }\IeC {\cyrya } \IeC {\cyrv }\IeC {\cyrii }\IeC {\cyrd }\IeC {\cyrp }\IeC {\cyro }\IeC {\cyrv }\IeC {\cyrii }\IeC {\cyrd }\IeC {\cyrn }\IeC {\cyri }\IeC {\cyrh } \IeC {\cyrf }\IeC {\cyra }\IeC {\cyrishrt }\IeC {\cyrl }\IeC {\cyrii }\IeC {\cyrv }}{2}}
\ttl@finishall
