\relax 
\catcode`"\active
\select@language{ukrainian}
\@writefile{toc}{\select@language{ukrainian}}
\@writefile{lof}{\select@language{ukrainian}}
\@writefile{lot}{\select@language{ukrainian}}
\@writefile{toc}{\contentsline {section}{\IeC {\CYRV }\IeC {\cyrs }\IeC {\cyrt }\IeC {\cyru }\IeC {\cyrp }}{2}}
\@writefile{toc}{\contentsline {section}{\numberline {1}\IeC {\CYRP }\IeC {\cyro }\IeC {\cyrs }\IeC {\cyrt }\IeC {\cyra }\IeC {\cyrn }\IeC {\cyro }\IeC {\cyrv }\IeC {\cyrk }\IeC {\cyra } \IeC {\cyrz }\IeC {\cyra }\IeC {\cyrd }\IeC {\cyra }\IeC {\cyrch }\IeC {\cyrii }}{2}}
\@writefile{toc}{\contentsline {section}{\numberline {2}\IeC {\CYRK }\IeC {\cyrii }\IeC {\cyrn }\IeC {\cyrc }\IeC {\cyre }\IeC {\cyrv }\IeC {\cyro }-\IeC {\cyrr }\IeC {\cyrii }\IeC {\cyrz }\IeC {\cyrn }\IeC {\cyri }\IeC {\cyrch }\IeC {\cyrn }\IeC {\cyrii } \IeC {\cyrs }\IeC {\cyrii }\IeC {\cyrt }\IeC {\cyrk }\IeC {\cyri }}{3}}
\providecommand*\caption@xref[2]{\@setref\relax\@undefined{#1}}
\newlabel{fig:onedim_grid}{{\caption@xref {fig:onedim_grid}{ on input line 67}}{3}}
\@writefile{lof}{\contentsline {figure}{\numberline {1}{\ignorespaces \IeC {\CYRO }\IeC {\cyrd }\IeC {\cyrn }\IeC {\cyro }\IeC {\cyrv }\IeC {\cyri }\IeC {\cyrm }\IeC {\cyrii }\IeC {\cyrr }\IeC {\cyrn }\IeC {\cyra } \IeC {\cyrs }\IeC {\cyrii }\IeC {\cyrt }\IeC {\cyrk }\IeC {\cyra }\relax }}{3}}
\newlabel{fig:twodim_grid}{{\caption@xref {fig:twodim_grid}{ on input line 72}}{4}}
\@writefile{lof}{\contentsline {figure}{\numberline {2}{\ignorespaces \IeC {\CYRD }\IeC {\cyrv }\IeC {\cyro }\IeC {\cyrv }\IeC {\cyri }\IeC {\cyrm }\IeC {\cyrii }\IeC {\cyrr }\IeC {\cyrn }\IeC {\cyra } \IeC {\cyrs }\IeC {\cyrii }\IeC {\cyrt }\IeC {\cyrk }\IeC {\cyra }\relax }}{4}}
\@writefile{toc}{\contentsline {paragraph}{\IeC {\CYRS }\IeC {\cyrii }\IeC {\cyrt }\IeC {\cyrk }\IeC {\cyro }\IeC {\cyrv }\IeC {\cyrii } \IeC {\cyrf }\IeC {\cyru }\IeC {\cyrn }\IeC {\cyrk }\IeC {\cyrc }\IeC {\cyrii }\IeC {\cyryi }, \IeC {\cyrk }\IeC {\cyrii }\IeC {\cyrn }\IeC {\cyrc }\IeC {\cyre }\IeC {\cyrv }\IeC {\cyrii } \IeC {\cyrr }\IeC {\cyrii }\IeC {\cyrz }\IeC {\cyrn }\IeC {\cyri }\IeC {\cyrc }\IeC {\cyrii }}{4}}
\@writefile{toc}{\contentsline {section}{\numberline {3}\IeC {\CYRM }\IeC {\cyre }\IeC {\cyrt }\IeC {\cyro }\IeC {\cyrd }\IeC {\cyri } \IeC {\cyrch }\IeC {\cyri }\IeC {\cyrs }\IeC {\cyre }\IeC {\cyrl }\IeC {\cyrsftsn }\IeC {\cyrn }\IeC {\cyro }\IeC {\cyrg }\IeC {\cyro } \IeC {\cyrr }\IeC {\cyro }\IeC {\cyrz }\IeC {\cyrv }'\IeC {\cyrya }\IeC {\cyrz }\IeC {\cyrk }\IeC {\cyru }}{6}}
\newlabel{eq1}{{4}{7}}
\@writefile{toc}{\contentsline {section}{\numberline {4}\IeC {\CYRM }\IeC {\cyre }\IeC {\cyrt }\IeC {\cyro }\IeC {\cyrd } \IeC {\cyrr }\IeC {\cyre }\IeC {\cyrl }\IeC {\cyra }\IeC {\cyrk }\IeC {\cyrs }\IeC {\cyra }\IeC {\cyrc }\IeC {\cyri }\IeC {\cyrishrt }}{7}}
\newlabel{eq2}{{5}{7}}
\newlabel{eq3}{{6}{8}}
\@writefile{toc}{\contentsline {section}{\numberline {5}\IeC {\CYRA }\IeC {\cyrn }\IeC {\cyra }\IeC {\cyrl }\IeC {\cyrii }\IeC {\cyrz } \IeC {\cyrr }\IeC {\cyre }\IeC {\cyra }\IeC {\cyrl }\IeC {\cyrii }\IeC {\cyrz }\IeC {\cyra }\IeC {\cyrc }\IeC {\cyrii }\IeC {\cyryi }}{8}}
\newlabel{fig:struct}{{\caption@xref {fig:struct}{ on input line 200}}{9}}
\@writefile{lof}{\contentsline {figure}{\numberline {3}{\ignorespaces \IeC {\CYRS }\IeC {\cyrt }\IeC {\cyrr }\IeC {\cyru }\IeC {\cyrk }\IeC {\cyrt }\IeC {\cyru }\IeC {\cyrr }\IeC {\cyra } \IeC {\cyro }\IeC {\cyrb }\IeC {\cyrch }\IeC {\cyri }\IeC {\cyrs }\IeC {\cyrl }\IeC {\cyryu }\IeC {\cyrv }\IeC {\cyra }\IeC {\cyrl }\IeC {\cyrsftsn }\IeC {\cyrn }\IeC {\cyro }\IeC {\cyryi } \IeC {\cyrm }\IeC {\cyro }\IeC {\cyrd }\IeC {\cyre }\IeC {\cyrl }\IeC {\cyrii }\relax }}{9}}
\bibcite{bib:1}{1}
\bibcite{bib:2}{2}
\bibcite{bib:3}{3}
\bibcite{bib:4}{4}
\bibcite{bib:5}{5}
\@writefile{toc}{\contentsline {section}{{\Ukrainian  \CYRP \cyre \cyrr \cyre \cyrl \cyrii \cyrk \ \cyrp \cyro \cyrs \cyri \cyrl \cyra \cyrn \cyrsftsn }}{11}}
\@writefile{toc}{\contentsline {section}{\IeC {\CYRD }\IeC {\cyro }\IeC {\cyrd }\IeC {\cyra }\IeC {\cyrt }\IeC {\cyro }\IeC {\cyrk } 1. \IeC {\CYRV }\IeC {\cyri }\IeC {\cyrh }\IeC {\cyrii }\IeC {\cyrd }\IeC {\cyrn }\IeC {\cyri }\IeC {\cyrishrt } \IeC {\cyrk }\IeC {\cyro }\IeC {\cyrd } \IeC {\cyrp }\IeC {\cyrr }\IeC {\cyro }\IeC {\cyrg }\IeC {\cyrr }\IeC {\cyra }\IeC {\cyrm }\IeC {\cyri }}{12}}
\@writefile{lol}{\contentsline {lstlisting}{\numberline {1}Main.cpp}{12}}
\newlabel{LastPage}{{}{26}}
\ttl@finishall
