\select@language {ukrainian}
\contentsline {section}{\IeC {\CYRV }\IeC {\cyrs }\IeC {\cyrt }\IeC {\cyru }\IeC {\cyrp }}{2}
\contentsline {section}{\numberline {1}\IeC {\CYRP }\IeC {\cyro }\IeC {\cyrs }\IeC {\cyrt }\IeC {\cyra }\IeC {\cyrn }\IeC {\cyro }\IeC {\cyrv }\IeC {\cyrk }\IeC {\cyra } \IeC {\cyrz }\IeC {\cyra }\IeC {\cyrd }\IeC {\cyra }\IeC {\cyrch }\IeC {\cyrii }}{2}
\contentsline {section}{\numberline {2}\IeC {\CYRK }\IeC {\cyrii }\IeC {\cyrn }\IeC {\cyrc }\IeC {\cyre }\IeC {\cyrv }\IeC {\cyro }-\IeC {\cyrr }\IeC {\cyrii }\IeC {\cyrz }\IeC {\cyrn }\IeC {\cyri }\IeC {\cyrch }\IeC {\cyrn }\IeC {\cyrii } \IeC {\cyrs }\IeC {\cyrii }\IeC {\cyrt }\IeC {\cyrk }\IeC {\cyri }}{3}
\contentsline {paragraph}{\IeC {\CYRS }\IeC {\cyrii }\IeC {\cyrt }\IeC {\cyrk }\IeC {\cyro }\IeC {\cyrv }\IeC {\cyrii } \IeC {\cyrf }\IeC {\cyru }\IeC {\cyrn }\IeC {\cyrk }\IeC {\cyrc }\IeC {\cyrii }\IeC {\cyryi }, \IeC {\cyrk }\IeC {\cyrii }\IeC {\cyrn }\IeC {\cyrc }\IeC {\cyre }\IeC {\cyrv }\IeC {\cyrii } \IeC {\cyrr }\IeC {\cyrii }\IeC {\cyrz }\IeC {\cyrn }\IeC {\cyri }\IeC {\cyrc }\IeC {\cyrii }}{4}
\contentsline {section}{\numberline {3}\IeC {\CYRM }\IeC {\cyre }\IeC {\cyrt }\IeC {\cyro }\IeC {\cyrd }\IeC {\cyri } \IeC {\cyrch }\IeC {\cyri }\IeC {\cyrs }\IeC {\cyre }\IeC {\cyrl }\IeC {\cyrsftsn }\IeC {\cyrn }\IeC {\cyro }\IeC {\cyrg }\IeC {\cyro } \IeC {\cyrr }\IeC {\cyro }\IeC {\cyrz }\IeC {\cyrv }'\IeC {\cyrya }\IeC {\cyrz }\IeC {\cyrk }\IeC {\cyru }}{6}
\contentsline {section}{\numberline {4}\IeC {\CYRM }\IeC {\cyre }\IeC {\cyrt }\IeC {\cyro }\IeC {\cyrd } \IeC {\cyrr }\IeC {\cyre }\IeC {\cyrl }\IeC {\cyra }\IeC {\cyrk }\IeC {\cyrs }\IeC {\cyra }\IeC {\cyrc }\IeC {\cyri }\IeC {\cyrishrt }}{7}
\contentsline {section}{\numberline {5}\IeC {\CYRA }\IeC {\cyrn }\IeC {\cyra }\IeC {\cyrl }\IeC {\cyrii }\IeC {\cyrz } \IeC {\cyrr }\IeC {\cyre }\IeC {\cyra }\IeC {\cyrl }\IeC {\cyrii }\IeC {\cyrz }\IeC {\cyra }\IeC {\cyrc }\IeC {\cyrii }\IeC {\cyryi }}{8}
\contentsline {section}{{\Ukrainian \CYRP \cyre \cyrr \cyre \cyrl \cyrii \cyrk \ \cyrp \cyro \cyrs \cyri \cyrl \cyra \cyrn \cyrsftsn }}{11}
\contentsline {section}{\IeC {\CYRD }\IeC {\cyro }\IeC {\cyrd }\IeC {\cyra }\IeC {\cyrt }\IeC {\cyro }\IeC {\cyrk } 1. \IeC {\CYRV }\IeC {\cyri }\IeC {\cyrh }\IeC {\cyrii }\IeC {\cyrd }\IeC {\cyrn }\IeC {\cyri }\IeC {\cyrishrt } \IeC {\cyrk }\IeC {\cyro }\IeC {\cyrd } \IeC {\cyrp }\IeC {\cyrr }\IeC {\cyro }\IeC {\cyrg }\IeC {\cyrr }\IeC {\cyra }\IeC {\cyrm }\IeC {\cyri }}{12}
\contentsfinish 
