\select@language {ukrainian}
\contentsline {section}{\numberline {1}\IeC {\CYRS }\IeC {\cyrf }\IeC {\cyre }\IeC {\cyrr }\IeC {\cyra } \IeC {\cyrz }\IeC {\cyra }\IeC {\cyrs }\IeC {\cyrt }\IeC {\cyro }\IeC {\cyrs }\IeC {\cyru }\IeC {\cyrv }\IeC {\cyra }\IeC {\cyrn }\IeC {\cyrn }\IeC {\cyrya }}{2}
\contentsline {section}{\numberline {2}\IeC {\CYRP }\IeC {\cyrii }\IeC {\cyrd }\IeC {\cyrs }\IeC {\cyrt }\IeC {\cyra }\IeC {\cyrv }\IeC {\cyri } \IeC {\cyrd }\IeC {\cyrl }\IeC {\cyrya } \IeC {\cyrr }\IeC {\cyro }\IeC {\cyrz }\IeC {\cyrr }\IeC {\cyro }\IeC {\cyrb }\IeC {\cyrk }\IeC {\cyri }}{2}
\contentsline {section}{\numberline {3}\IeC {\CYRP }\IeC {\cyrr }\IeC {\cyri }\IeC {\cyrz }\IeC {\cyrn }\IeC {\cyra }\IeC {\cyrch }\IeC {\cyre }\IeC {\cyrn }\IeC {\cyrn }\IeC {\cyrya } \IeC {\cyrr }\IeC {\cyro }\IeC {\cyrz }\IeC {\cyrr }\IeC {\cyro }\IeC {\cyrb }\IeC {\cyrk }\IeC {\cyri }}{2}
\contentsline {section}{\numberline {4}\IeC {\CYRV }\IeC {\cyri }\IeC {\cyrm }\IeC {\cyro }\IeC {\cyrg }\IeC {\cyri } \IeC {\cyrd }\IeC {\cyro } \IeC {\cyrp }\IeC {\cyrr }\IeC {\cyro }\IeC {\cyrg }\IeC {\cyrr }\IeC {\cyra }\IeC {\cyrm }\IeC {\cyri }}{2}
\contentsline {subsection}{\numberline {4.1}\IeC {\CYRV }\IeC {\cyri }\IeC {\cyrm }\IeC {\cyro }\IeC {\cyrg }\IeC {\cyri } \IeC {\cyrd }\IeC {\cyro } \IeC {\cyrf }\IeC {\cyru }\IeC {\cyrn }\IeC {\cyrk }\IeC {\cyrc }\IeC {\cyrii }\IeC {\cyro }\IeC {\cyrn }\IeC {\cyra }\IeC {\cyrl }\IeC {\cyrsftsn }\IeC {\cyrn }\IeC {\cyri }\IeC {\cyrh } \IeC {\cyrh }\IeC {\cyra }\IeC {\cyrr }\IeC {\cyra }\IeC {\cyrk }\IeC {\cyrt }\IeC {\cyre }\IeC {\cyrr }\IeC {\cyri }\IeC {\cyrs }\IeC {\cyrt }\IeC {\cyri }\IeC {\cyrk }}{2}
\contentsline {subsection}{\numberline {4.2}\IeC {\CYRV }\IeC {\cyri }\IeC {\cyrm }\IeC {\cyro }\IeC {\cyrg }\IeC {\cyri } \IeC {\cyrz }\IeC {\cyra } \IeC {\cyrs }\IeC {\cyrk }\IeC {\cyrl }\IeC {\cyra }\IeC {\cyrd }\IeC {\cyro }\IeC {\cyrm } \IeC {\cyrt }\IeC {\cyra } \IeC {\cyrp }\IeC {\cyra }\IeC {\cyrr }\IeC {\cyra }\IeC {\cyrm }\IeC {\cyre }\IeC {\cyrt }\IeC {\cyrr }\IeC {\cyra }\IeC {\cyrm }\IeC {\cyri } \IeC {\cyrt }\IeC {\cyre }\IeC {\cyrh }\IeC {\cyrn }\IeC {\cyrii }\IeC {\cyrch }\IeC {\cyrn }\IeC {\cyri }\IeC {\cyrh } \IeC {\cyrz }\IeC {\cyra }\IeC {\cyrs }\IeC {\cyro }\IeC {\cyrb }\IeC {\cyrii }\IeC {\cyrv }}{3}
\contentsline {subsection}{\numberline {4.3}\IeC {\CYRV }\IeC {\cyri }\IeC {\cyrm }\IeC {\cyro }\IeC {\cyrg }\IeC {\cyri } \IeC {\cyrd }\IeC {\cyro } \IeC {\cyrn }\IeC {\cyra }\IeC {\cyrd }\IeC {\cyrii }\IeC {\cyrishrt }\IeC {\cyrn }\IeC {\cyro }\IeC {\cyrs }\IeC {\cyrt }\IeC {\cyrii }}{3}
\contentsline {subsection}{\numberline {4.4}\IeC {\CYRU }\IeC {\cyrm }\IeC {\cyro }\IeC {\cyrv }\IeC {\cyri } \IeC {\cyre }\IeC {\cyrk }\IeC {\cyrs }\IeC {\cyrp }\IeC {\cyrl }\IeC {\cyru }\IeC {\cyra }\IeC {\cyrt }\IeC {\cyra }\IeC {\cyrc }\IeC {\cyrii }\IeC {\cyryi }}{3}
\contentsline {subsection}{\numberline {4.5}\IeC {\CYRV }\IeC {\cyri }\IeC {\cyrm }\IeC {\cyro }\IeC {\cyrg }\IeC {\cyri } \IeC {\cyrd }\IeC {\cyro } \IeC {\cyrii }\IeC {\cyrn }\IeC {\cyrf }\IeC {\cyro }\IeC {\cyrr }\IeC {\cyrm }\IeC {\cyra }\IeC {\cyrc }\IeC {\cyrii }\IeC {\cyrishrt }\IeC {\cyrn }\IeC {\cyro }\IeC {\cyryi } \IeC {\cyrt }\IeC {\cyra } \IeC {\cyrp }\IeC {\cyrr }\IeC {\cyro }\IeC {\cyrg }\IeC {\cyrr }\IeC {\cyra }\IeC {\cyrm }\IeC {\cyrn }\IeC {\cyro }\IeC {\cyryi } \IeC {\cyrs }\IeC {\cyru }\IeC {\cyrm }\IeC {\cyrii }\IeC {\cyrs }\IeC {\cyrn }\IeC {\cyro }\IeC {\cyrs }\IeC {\cyrt }\IeC {\cyrii }}{3}
\contentsline {subsection}{\numberline {4.6}\IeC {\CYRS }\IeC {\cyrp }\IeC {\cyre }\IeC {\cyrc }\IeC {\cyrii }\IeC {\cyra }\IeC {\cyrl }\IeC {\cyrsftsn }\IeC {\cyrn }\IeC {\cyrii } \IeC {\cyrv }\IeC {\cyri }\IeC {\cyrm }\IeC {\cyro }\IeC {\cyrg }\IeC {\cyri }}{4}
