\relax 
\catcode`"\active
\select@language{ukrainian}
\@writefile{toc}{\select@language{ukrainian}}
\@writefile{lof}{\select@language{ukrainian}}
\@writefile{lot}{\select@language{ukrainian}}
\@writefile{toc}{\contentsline {section}{\numberline {1}\IeC {\CYRT }\IeC {\cyre }\IeC {\cyro }\IeC {\cyrr }\IeC {\cyre }\IeC {\cyrt }\IeC {\cyri }\IeC {\cyrch }\IeC {\cyre }\IeC {\cyrs }\IeC {\cyrk }\IeC {\cyri }\IeC {\cyre } \IeC {\cyrs }\IeC {\cyrv }\IeC {\cyre }\IeC {\cyrd }\IeC {\cyre }\IeC {\cyrn }\IeC {\cyri }\IeC {\cyrya }}{1}}
\@writefile{toc}{\contentsline {subsection}{\numberline {1.1}\IeC {\CYRH }\IeC {\cyrr }\IeC {\cyra }\IeC {\cyrn }\IeC {\cyre }\IeC {\cyrn }\IeC {\cyri }\IeC {\cyre } \IeC {\cyrd }\IeC {\cyra }\IeC {\cyrn }\IeC {\cyrn }\IeC {\cyrery }\IeC {\cyrh }}{1}}
\@writefile{toc}{\contentsline {subsection}{\numberline {1.2}\IeC {\CYRT }\IeC {\cyre }\IeC {\cyrh }\IeC {\cyrn }\IeC {\cyri }\IeC {\cyrch }\IeC {\cyre }\IeC {\cyrs }\IeC {\cyrk }\IeC {\cyri }\IeC {\cyre } \IeC {\cyrr }\IeC {\cyra }\IeC {\cyrz }\IeC {\cyrl }\IeC {\cyri }\IeC {\cyrch }\IeC {\cyri }\IeC {\cyrya } \IeC {\cyrm }\IeC {\cyre }\IeC {\cyrzh }\IeC {\cyrd }\IeC {\cyru } \IeC {\cyra }\IeC {\cyrr }\IeC {\cyrh }\IeC {\cyri }\IeC {\cyrt }\IeC {\cyre }\IeC {\cyrk }\IeC {\cyrt }\IeC {\cyru }\IeC {\cyrr }\IeC {\cyra }\IeC {\cyrm }\IeC {\cyri } DAS, NAS, SAN.}{1}}
\@writefile{lof}{\contentsline {figure}{\numberline {1}{\ignorespaces \IeC {\CYRS }\IeC {\cyrh }\IeC {\cyre }\IeC {\cyrm }\IeC {\cyrery } \IeC {\cyrr }\IeC {\cyra }\IeC {\cyrz }\IeC {\cyrl }\IeC {\cyri }\IeC {\cyrch }\IeC {\cyrn }\IeC {\cyrery }\IeC {\cyrh } \IeC {\cyra }\IeC {\cyrr }\IeC {\cyrh }\IeC {\cyri }\IeC {\cyrt }\IeC {\cyre }\IeC {\cyrk }\IeC {\cyrt }\IeC {\cyru }\IeC {\cyrr }}}{2}}
\newlabel{fig:arch}{{1}{2}}
\@writefile{toc}{\contentsline {subsection}{\numberline {1.3}\IeC {\CYRP }\IeC {\cyrr }\IeC {\cyro }\IeC {\cyrt }\IeC {\cyro }\IeC {\cyrk }\IeC {\cyro }\IeC {\cyrl } iSCSI}{3}}
\@writefile{lof}{\contentsline {figure}{\numberline {2}{\ignorespaces \IeC {\CYRN }\IeC {\cyra }\IeC {\cyrb }\IeC {\cyro }\IeC {\cyrr } \IeC {\cyrp }\IeC {\cyrr }\IeC {\cyro }\IeC {\cyrt }\IeC {\cyro }\IeC {\cyrk }\IeC {\cyro }\IeC {\cyrl }\IeC {\cyro }\IeC {\cyrv }, \IeC {\cyrz }\IeC {\cyra }\IeC {\cyrd }\IeC {\cyre }\IeC {\cyrishrt }\IeC {\cyrs }\IeC {\cyrt }\IeC {\cyrv }\IeC {\cyro }\IeC {\cyrv }\IeC {\cyra }\IeC {\cyrn }\IeC {\cyrn }\IeC {\cyrery }\IeC {\cyrh } \IeC {\cyrp }\IeC {\cyrr }\IeC {\cyri } \IeC {\cyri }\IeC {\cyrs }\IeC {\cyrp }\IeC {\cyro }\IeC {\cyrl }\IeC {\cyrsftsn }\IeC {\cyrz }\IeC {\cyro }\IeC {\cyrv }\IeC {\cyra }\IeC {\cyrn }\IeC {\cyri }\IeC {\cyri } iSCSI}}{3}}
\newlabel{fig:prot}{{2}{3}}
\@writefile{lof}{\contentsline {figure}{\numberline {3}{\ignorespaces \IeC {\CYRM }\IeC {\cyro }\IeC {\cyrd }\IeC {\cyre }\IeC {\cyrl }\IeC {\cyrsftsn } \IeC {\cyrn }\IeC {\cyri }\IeC {\cyrzh }\IeC {\cyrn }\IeC {\cyri }\IeC {\cyrh } \IeC {\cyru }\IeC {\cyrr }\IeC {\cyro }\IeC {\cyrv }\IeC {\cyrn }\IeC {\cyre }\IeC {\cyrishrt } \IeC {\cyrp }\IeC {\cyrr }\IeC {\cyro }\IeC {\cyrt }\IeC {\cyro }\IeC {\cyrk }\IeC {\cyro }\IeC {\cyrl }\IeC {\cyra } iSCSI}}{4}}
\newlabel{fig:model}{{3}{4}}
\@writefile{toc}{\contentsline {subsection}{\numberline {1.4}\IeC {\CYRP }\IeC {\cyrr }\IeC {\cyre }\IeC {\cyri }\IeC {\cyrm }\IeC {\cyru }\IeC {\cyrshch }\IeC {\cyre }\IeC {\cyrs }\IeC {\cyrt }\IeC {\cyrv }\IeC {\cyra } iSCSI}{4}}
\@writefile{toc}{\contentsline {subsection}{\numberline {1.5}\IeC {\CYRU }\IeC {\cyrp }\IeC {\cyrr }\IeC {\cyra }\IeC {\cyrv }\IeC {\cyrl }\IeC {\cyre }\IeC {\cyrn }\IeC {\cyri }\IeC {\cyre } \IeC {\cyrs }\IeC {\cyre }\IeC {\cyra }\IeC {\cyrn }\IeC {\cyrs }\IeC {\cyro }\IeC {\cyrm }}{4}}
\@writefile{lof}{\contentsline {figure}{\numberline {4}{\ignorespaces \IeC {\CYRP }\IeC {\cyrr }\IeC {\cyri }\IeC {\cyrm }\IeC {\cyre }\IeC {\cyrr } iSCSI Write}}{5}}
\newlabel{fig:iscsi_write}{{4}{5}}
\@writefile{toc}{\contentsline {subsection}{\numberline {1.6}\IeC {\CYRA }\IeC {\cyrd }\IeC {\cyrr }\IeC {\cyre }\IeC {\cyrs }\IeC {\cyra }\IeC {\cyrc }\IeC {\cyri }\IeC {\cyrya }}{5}}
\@writefile{toc}{\contentsline {subsection}{\numberline {1.7}\IeC {\CYRO }\IeC {\cyrb }\IeC {\cyrr }\IeC {\cyra }\IeC {\cyrb }\IeC {\cyro }\IeC {\cyrt }\IeC {\cyrk }\IeC {\cyra } \IeC {\cyro }\IeC {\cyrsh }\IeC {\cyri }\IeC {\cyrb }\IeC {\cyro }\IeC {\cyrk }}{6}}
\@writefile{toc}{\contentsline {subsection}{\numberline {1.8}\IeC {\CYRB }\IeC {\cyre }\IeC {\cyrz }\IeC {\cyro }\IeC {\cyrp }\IeC {\cyra }\IeC {\cyrs }\IeC {\cyrn }\IeC {\cyro }\IeC {\cyrs }\IeC {\cyrt }\IeC {\cyrsftsn }}{7}}
\@writefile{toc}{\contentsline {subsection}{\numberline {1.9}Challenge-handshake authentication protocol (CHAP)}{7}}
\@writefile{toc}{\contentsline {section}{\numberline {2}\IeC {\CYRN }\IeC {\cyra }\IeC {\cyrs }\IeC {\cyrt }\IeC {\cyrr }\IeC {\cyro }\IeC {\cyrishrt }\IeC {\cyrk }\IeC {\cyra } Microsoft iSCSI Software Target}{7}}
\@writefile{toc}{\contentsline {section}{\numberline {3}\IeC {\CYRN }\IeC {\cyra }\IeC {\cyrs }\IeC {\cyrt }\IeC {\cyrr }\IeC {\cyro }\IeC {\cyrishrt }\IeC {\cyrk }\IeC {\cyra } MS iSCSI Initiator}{11}}
\@writefile{toc}{\contentsline {section}{\numberline {4}\IeC {\CYRZ }\IeC {\cyra }\IeC {\cyrd }\IeC {\cyra }\IeC {\cyrn }\IeC {\cyri }\IeC {\cyre } \IeC {\cyrn }\IeC {\cyra } \IeC {\cyrl }\IeC {\cyra }\IeC {\cyrb }\IeC {\cyro }\IeC {\cyrr }\IeC {\cyra }\IeC {\cyrt }\IeC {\cyro }\IeC {\cyrr }\IeC {\cyrn }\IeC {\cyru }\IeC {\cyryu } \IeC {\cyrr }\IeC {\cyra }\IeC {\cyrb }\IeC {\cyro }\IeC {\cyrt }\IeC {\cyru }}{15}}
\ttl@finishall
