\relax 
\@writefile{toc}{\contentsline {subsection}{\numberline {4.1}\IeC {\CYRZ }\IeC {\cyra }\IeC {\cyrd }\IeC {\cyra }\IeC {\cyrn }\IeC {\cyri }\IeC {\cyre }}{25}}
\@writefile{toc}{\contentsline {subsection}{\numberline {4.2}\IeC {\CYRV }\IeC {\cyra }\IeC {\cyrr }\IeC {\cyri }\IeC {\cyra }\IeC {\cyrn }\IeC {\cyrt }}{25}}
\@writefile{toc}{\contentsline {subsection}{\numberline {4.3}\IeC {\CYRV }\IeC {\cyre }\IeC {\cyrr }\IeC {\cyro }\IeC {\cyrya }\IeC {\cyrt }\IeC {\cyrn }\IeC {\cyro }\IeC {\cyrs }\IeC {\cyrt }\IeC {\cyrsftsn } \IeC {\cyrb }\IeC {\cyre }\IeC {\cyrz }\IeC {\cyro }\IeC {\cyrt }\IeC {\cyrk }\IeC {\cyra }\IeC {\cyrz }\IeC {\cyrn }\IeC {\cyro }\IeC {\cyrishrt } \IeC {\cyrr }\IeC {\cyra }\IeC {\cyrb }\IeC {\cyro }\IeC {\cyrt }\IeC {\cyrery }}{25}}
\@writefile{lot}{\contentsline {table}{\numberline {5}{\ignorespaces \IeC {\CYRV }\IeC {\cyre }\IeC {\cyrr }\IeC {\cyro }\IeC {\cyrya }\IeC {\cyrt }\IeC {\cyrn }\IeC {\cyro }\IeC {\cyrs }\IeC {\cyrt }\IeC {\cyrsftsn } \IeC {\cyrb }\IeC {\cyre }\IeC {\cyrz }\IeC {\cyro }\IeC {\cyrt }\IeC {\cyrk }\IeC {\cyra }\IeC {\cyrz }\IeC {\cyrn }\IeC {\cyro }\IeC {\cyrishrt } \IeC {\cyrr }\IeC {\cyra }\IeC {\cyrb }\IeC {\cyro }\IeC {\cyrt }\IeC {\cyrery } \IeC {\cyrz }\IeC {\cyra } \IeC {\cyrv }\IeC {\cyrr }\IeC {\cyre }\IeC {\cyrm }\IeC {\cyrya } T}}{26}}
\@writefile{toc}{\contentsline {subsection}{\numberline {4.4}\IeC {\CYRV }\IeC {\cyre }\IeC {\cyrr }\IeC {\cyro }\IeC {\cyrya }\IeC {\cyrt }\IeC {\cyrn }\IeC {\cyro }\IeC {\cyrs }\IeC {\cyrt }\IeC {\cyrsftsn } \IeC {\cyrb }\IeC {\cyre }\IeC {\cyrz }\IeC {\cyrs }\IeC {\cyrb }\IeC {\cyro }\IeC {\cyrishrt }\IeC {\cyrn }\IeC {\cyro }\IeC {\cyrishrt } \IeC {\cyrr }\IeC {\cyra }\IeC {\cyrb }\IeC {\cyro }\IeC {\cyrt }\IeC {\cyrery }}{26}}
\@writefile{lot}{\contentsline {table}{\numberline {6}{\ignorespaces \IeC {\CYRV }\IeC {\cyre }\IeC {\cyrr }\IeC {\cyro }\IeC {\cyrya }\IeC {\cyrt }\IeC {\cyrn }\IeC {\cyro }\IeC {\cyrs }\IeC {\cyrt }\IeC {\cyrsftsn } \IeC {\cyrb }\IeC {\cyre }\IeC {\cyrz }\IeC {\cyrs }\IeC {\cyrb }\IeC {\cyro }\IeC {\cyrishrt }\IeC {\cyrn }\IeC {\cyro }\IeC {\cyrishrt } \IeC {\cyrr }\IeC {\cyra }\IeC {\cyrb }\IeC {\cyro }\IeC {\cyrt }\IeC {\cyrery } \IeC {\cyrz }\IeC {\cyra } \IeC {\cyrv }\IeC {\cyrr }\IeC {\cyre }\IeC {\cyrm }\IeC {\cyrya } T}}{26}}
\@writefile{toc}{\contentsline {subsection}{\numberline {4.5}\IeC {\CYRN }\IeC {\cyra }\IeC {\cyrr }\IeC {\cyra }\IeC {\cyrb }\IeC {\cyro }\IeC {\cyrt }\IeC {\cyrk }\IeC {\cyra } \IeC {\cyrn }\IeC {\cyra } \IeC {\cyro }\IeC {\cyrt }\IeC {\cyrk }\IeC {\cyra }\IeC {\cyrz }}{26}}
\@writefile{lot}{\contentsline {table}{\numberline {7}{\ignorespaces \IeC {\CYRN }\IeC {\cyra }\IeC {\cyrr }\IeC {\cyra }\IeC {\cyrb }\IeC {\cyro }\IeC {\cyrt }\IeC {\cyrk }\IeC {\cyra } \IeC {\cyrn }\IeC {\cyra } \IeC {\cyro }\IeC {\cyrt }\IeC {\cyrk }\IeC {\cyra }\IeC {\cyrz }}}{27}}
\@writefile{toc}{\contentsline {subsection}{\numberline {4.6}\IeC {\CYRN }\IeC {\cyra }\IeC {\cyrr }\IeC {\cyra }\IeC {\cyrb }\IeC {\cyro }\IeC {\cyrt }\IeC {\cyrk }\IeC {\cyra } \IeC {\cyrn }\IeC {\cyra } \IeC {\cyrs }\IeC {\cyrb }\IeC {\cyro }\IeC {\cyrishrt }}{27}}
\@writefile{lot}{\contentsline {table}{\numberline {8}{\ignorespaces \IeC {\CYRN }\IeC {\cyra }\IeC {\cyrr }\IeC {\cyra }\IeC {\cyrb }\IeC {\cyro }\IeC {\cyrt }\IeC {\cyrk }\IeC {\cyra } \IeC {\cyrn }\IeC {\cyra } \IeC {\cyrs }\IeC {\cyrb }\IeC {\cyro }\IeC {\cyrishrt }}}{27}}
\@writefile{toc}{\contentsline {subsection}{\numberline {4.7}\IeC {\CYRO }\IeC {\cyrp }\IeC {\cyrr }\IeC {\cyre }\IeC {\cyrd }\IeC {\cyre }\IeC {\cyrl }\IeC {\cyre }\IeC {\cyrn }\IeC {\cyri }\IeC {\cyre } \IeC {\cyrerev }\IeC {\cyrk }\IeC {\cyro }\IeC {\cyrn }\IeC {\cyro }\IeC {\cyrm }\IeC {\cyri }\IeC {\cyrch }\IeC {\cyre }\IeC {\cyrs }\IeC {\cyrk }\IeC {\cyro }\IeC {\cyrishrt } \IeC {\cyrc }\IeC {\cyre }\IeC {\cyrl }\IeC {\cyre }\IeC {\cyrs }\IeC {\cyro }\IeC {\cyro }\IeC {\cyrb }\IeC {\cyrr }\IeC {\cyra }\IeC {\cyrz }\IeC {\cyrn }\IeC {\cyro }\IeC {\cyrs }\IeC {\cyrt }\IeC {\cyri } \IeC {\cyrp }\IeC {\cyrr }\IeC {\cyri }\IeC {\cyrm }\IeC {\cyre }\IeC {\cyrn }\IeC {\cyre }\IeC {\cyrn }\IeC {\cyri }\IeC {\cyrya } \IeC {\CYRK }\IeC {\CYRK }}{27}}
\@writefile{toc}{\contentsline {subsection}{\numberline {4.8}\IeC {\CYRI }\IeC {\cyrs }\IeC {\cyrs }\IeC {\cyrl }\IeC {\cyre }\IeC {\cyrd }\IeC {\cyro }\IeC {\cyrv }\IeC {\cyra }\IeC {\cyrn }\IeC {\cyri }\IeC {\cyrya } \IeC {\cyrp }\IeC {\cyra }\IeC {\cyrr }\IeC {\cyra }\IeC {\cyrm }\IeC {\cyre }\IeC {\cyrt }\IeC {\cyrr }\IeC {\cyro }\IeC {\cyrv } \IeC {\cyrerev }\IeC {\cyrk }\IeC {\cyro }\IeC {\cyrn }\IeC {\cyro }\IeC {\cyrm }\IeC {\cyri }\IeC {\cyrch }\IeC {\cyre }\IeC {\cyrs }\IeC {\cyrk }\IeC {\cyro }\IeC {\cyrishrt } \IeC {\cyrc }\IeC {\cyre }\IeC {\cyrl }\IeC {\cyre }\IeC {\cyrs }\IeC {\cyro }\IeC {\cyro }\IeC {\cyrb }\IeC {\cyrr }\IeC {\cyra }\IeC {\cyrz }\IeC {\cyrn }\IeC {\cyro }\IeC {\cyrs }\IeC {\cyrt }\IeC {\cyri }}{28}}
\@writefile{lof}{\contentsline {figure}{\numberline {14}{\ignorespaces \IeC {\CYRG }\IeC {\cyrr }\IeC {\cyra }\IeC {\cyrf }\IeC {\cyri }\IeC {\cyrk } \IeC {\cyrz }\IeC {\cyra }\IeC {\cyrv }\IeC {\cyri }\IeC {\cyrs }\IeC {\cyri }\IeC {\cyrm }\IeC {\cyro }\IeC {\cyrs }\IeC {\cyrt }\IeC {\cyri } \IeC {\cyrr }\IeC {\cyra }\IeC {\cyrz }\IeC {\cyrn }\IeC {\cyro }\IeC {\cyrs }\IeC {\cyrt }\IeC {\cyri } \IeC {\cyrs }\IeC {\cyrt }\IeC {\cyro }\IeC {\cyri }\IeC {\cyrm }\IeC {\cyro }\IeC {\cyrs }\IeC {\cyrt }\IeC {\cyri } \IeC {\cyro }\IeC {\cyrb }\IeC {\cyrery }\IeC {\cyrch }\IeC {\cyrn }\IeC {\cyro }\IeC {\cyrg }\IeC {\cyro } \IeC {\CYRZ }\IeC {\CYRU } \IeC {\cyri } \IeC {\CYRZ }\IeC {\CYRU } \IeC {\cyrs } \IeC {\CYRK }\IeC {\CYRK } \IeC {\cyro }\IeC {\cyrt } $T_c$ \IeC {\cyri } $\delta $}}{28}}
\@setckpt{./Lab4/Lab4}{
\setcounter{page}{29}
\setcounter{equation}{0}
\setcounter{enumi}{2}
\setcounter{enumii}{0}
\setcounter{enumiii}{0}
\setcounter{enumiv}{0}
\setcounter{footnote}{0}
\setcounter{mpfootnote}{0}
\setcounter{part}{0}
\setcounter{section}{4}
\setcounter{subsection}{8}
\setcounter{subsubsection}{0}
\setcounter{paragraph}{0}
\setcounter{subparagraph}{0}
\setcounter{figure}{14}
\setcounter{table}{8}
\setcounter{parentequation}{0}
\setcounter{lstnumber}{1}
\setcounter{float@type}{8}
\setcounter{lstlisting}{0}
}
