<?xml version="1.0" encoding="UTF-8" standalone="no"?>
<!-- Created with Inkscape (http://www.inkscape.org/) -->

<svg
   xmlns:osb="http://www.openswatchbook.org/uri/2009/osb"
   xmlns:dc="http://purl.org/dc/elements/1.1/"
   xmlns:cc="http://creativecommons.org/ns#"
   xmlns:rdf="http://www.w3.org/1999/02/22-rdf-syntax-ns#"
   xmlns:svg="http://www.w3.org/2000/svg"
   xmlns="http://www.w3.org/2000/svg"
   xmlns:sodipodi="http://sodipodi.sourceforge.net/DTD/sodipodi-0.dtd"
   xmlns:inkscape="http://www.inkscape.org/namespaces/inkscape"
   width="744.09448819"
   height="1052.3622047"
   id="svg2"
   version="1.1"
   inkscape:version="0.48.2 r9819"
   sodipodi:docname="Interaction2.svg">
  <defs
     id="defs4">
    <linearGradient
       id="linearGradient4043"
       osb:paint="solid">
      <stop
         style="stop-color:#000000;stop-opacity:1;"
         offset="0"
         id="stop4045" />
    </linearGradient>
    <linearGradient
       id="linearGradient4037"
       osb:paint="solid">
      <stop
         style="stop-color:#000000;stop-opacity:1;"
         offset="0"
         id="stop4039" />
    </linearGradient>
    <marker
       inkscape:stockid="Arrow1Lend"
       orient="auto"
       refY="0.0"
       refX="0.0"
       id="Arrow1Lend"
       style="overflow:visible;">
      <path
         id="path3781"
         d="M 0.0,0.0 L 5.0,-5.0 L -12.5,0.0 L 5.0,5.0 L 0.0,0.0 z "
         style="fill-rule:evenodd;stroke:#000000;stroke-width:1.0pt;marker-start:none;"
         transform="scale(0.8) rotate(180) translate(12.5,0)" />
    </marker>
    <marker
       inkscape:stockid="Arrow1Lend"
       orient="auto"
       refY="0"
       refX="0"
       id="Arrow1Lend-2"
       style="overflow:visible">
      <path
         inkscape:connector-curvature="0"
         id="path3781-1"
         d="M 0,0 5,-5 -12.5,0 5,5 0,0 z"
         style="fill-rule:evenodd;stroke:#000000;stroke-width:1pt;marker-start:none"
         transform="matrix(-0.8,0,0,-0.8,-10,0)" />
    </marker>
    <marker
       inkscape:stockid="Arrow1Lend"
       orient="auto"
       refY="0"
       refX="0"
       id="marker4791"
       style="overflow:visible">
      <path
         inkscape:connector-curvature="0"
         id="path4793"
         d="M 0,0 5,-5 -12.5,0 5,5 0,0 z"
         style="fill-rule:evenodd;stroke:#000000;stroke-width:1pt;marker-start:none"
         transform="matrix(-0.8,0,0,-0.8,-10,0)" />
    </marker>
    <marker
       inkscape:stockid="Arrow1Lend"
       orient="auto"
       refY="0"
       refX="0"
       id="Arrow1Lend-0"
       style="overflow:visible">
      <path
         inkscape:connector-curvature="0"
         id="path3781-7"
         d="M 0,0 5,-5 -12.5,0 5,5 0,0 z"
         style="fill-rule:evenodd;stroke:#000000;stroke-width:1pt;marker-start:none"
         transform="matrix(-0.8,0,0,-0.8,-10,0)" />
    </marker>
    <marker
       inkscape:stockid="Arrow1Lend"
       orient="auto"
       refY="0"
       refX="0"
       id="marker4830"
       style="overflow:visible">
      <path
         inkscape:connector-curvature="0"
         id="path4832"
         d="M 0,0 5,-5 -12.5,0 5,5 0,0 z"
         style="fill-rule:evenodd;stroke:#000000;stroke-width:1pt;marker-start:none"
         transform="matrix(-0.8,0,0,-0.8,-10,0)" />
    </marker>
    <marker
       inkscape:stockid="Arrow1Lend"
       orient="auto"
       refY="0"
       refX="0"
       id="Arrow1Lend-9"
       style="overflow:visible">
      <path
         inkscape:connector-curvature="0"
         id="path3781-4"
         d="M 0,0 5,-5 -12.5,0 5,5 0,0 z"
         style="fill-rule:evenodd;stroke:#000000;stroke-width:1pt;marker-start:none"
         transform="matrix(-0.8,0,0,-0.8,-10,0)" />
    </marker>
    <marker
       inkscape:stockid="Arrow1Lend"
       orient="auto"
       refY="0"
       refX="0"
       id="marker3173"
       style="overflow:visible">
      <path
         inkscape:connector-curvature="0"
         id="path3175"
         d="M 0,0 5,-5 -12.5,0 5,5 0,0 z"
         style="fill-rule:evenodd;stroke:#000000;stroke-width:1pt;marker-start:none"
         transform="matrix(-0.8,0,0,-0.8,-10,0)" />
    </marker>
    <marker
       inkscape:stockid="Arrow1Lend"
       orient="auto"
       refY="0"
       refX="0"
       id="marker3177"
       style="overflow:visible">
      <path
         inkscape:connector-curvature="0"
         id="path3179"
         d="M 0,0 5,-5 -12.5,0 5,5 0,0 z"
         style="fill-rule:evenodd;stroke:#000000;stroke-width:1pt;marker-start:none"
         transform="matrix(-0.8,0,0,-0.8,-10,0)" />
    </marker>
    <marker
       inkscape:stockid="Arrow1Lend"
       orient="auto"
       refY="0"
       refX="0"
       id="marker3181"
       style="overflow:visible">
      <path
         inkscape:connector-curvature="0"
         id="path3183"
         d="M 0,0 5,-5 -12.5,0 5,5 0,0 z"
         style="fill-rule:evenodd;stroke:#000000;stroke-width:1pt;marker-start:none"
         transform="matrix(-0.8,0,0,-0.8,-10,0)" />
    </marker>
    <marker
       inkscape:stockid="Arrow1Lend"
       orient="auto"
       refY="0"
       refX="0"
       id="marker3185"
       style="overflow:visible">
      <path
         inkscape:connector-curvature="0"
         id="path3187"
         d="M 0,0 5,-5 -12.5,0 5,5 0,0 z"
         style="fill-rule:evenodd;stroke:#000000;stroke-width:1pt;marker-start:none"
         transform="matrix(-0.8,0,0,-0.8,-10,0)" />
    </marker>
    <marker
       inkscape:stockid="Arrow1Lend"
       orient="auto"
       refY="0"
       refX="0"
       id="marker3189"
       style="overflow:visible">
      <path
         inkscape:connector-curvature="0"
         id="path3191"
         d="M 0,0 5,-5 -12.5,0 5,5 0,0 z"
         style="fill-rule:evenodd;stroke:#000000;stroke-width:1pt;marker-start:none"
         transform="matrix(-0.8,0,0,-0.8,-10,0)" />
    </marker>
    <marker
       inkscape:stockid="Arrow1Lend"
       orient="auto"
       refY="0"
       refX="0"
       id="marker3193"
       style="overflow:visible">
      <path
         inkscape:connector-curvature="0"
         id="path3195"
         d="M 0,0 5,-5 -12.5,0 5,5 0,0 z"
         style="fill-rule:evenodd;stroke:#000000;stroke-width:1pt;marker-start:none"
         transform="matrix(-0.8,0,0,-0.8,-10,0)" />
    </marker>
    <marker
       inkscape:stockid="Arrow1Lend"
       orient="auto"
       refY="0"
       refX="0"
       id="marker3197"
       style="overflow:visible">
      <path
         inkscape:connector-curvature="0"
         id="path3199"
         d="M 0,0 5,-5 -12.5,0 5,5 0,0 z"
         style="fill-rule:evenodd;stroke:#000000;stroke-width:1pt;marker-start:none"
         transform="matrix(-0.8,0,0,-0.8,-10,0)" />
    </marker>
    <marker
       inkscape:stockid="Arrow1Lend"
       orient="auto"
       refY="0"
       refX="0"
       id="Arrow1Lend-8"
       style="overflow:visible">
      <path
         inkscape:connector-curvature="0"
         id="path3781-6"
         d="M 0,0 5,-5 -12.5,0 5,5 0,0 z"
         style="fill-rule:evenodd;stroke:#000000;stroke-width:1pt;marker-start:none"
         transform="matrix(-0.8,0,0,-0.8,-10,0)" />
    </marker>
    <marker
       inkscape:stockid="Arrow1Lend"
       orient="auto"
       refY="0"
       refX="0"
       id="marker4089"
       style="overflow:visible">
      <path
         inkscape:connector-curvature="0"
         id="path4091"
         d="M 0,0 5,-5 -12.5,0 5,5 0,0 z"
         style="fill-rule:evenodd;stroke:#000000;stroke-width:1pt;marker-start:none"
         transform="matrix(-0.8,0,0,-0.8,-10,0)" />
    </marker>
    <marker
       inkscape:stockid="Arrow1Lend"
       orient="auto"
       refY="0"
       refX="0"
       id="marker4093"
       style="overflow:visible">
      <path
         inkscape:connector-curvature="0"
         id="path4095"
         d="M 0,0 5,-5 -12.5,0 5,5 0,0 z"
         style="fill-rule:evenodd;stroke:#000000;stroke-width:1pt;marker-start:none"
         transform="matrix(-0.8,0,0,-0.8,-10,0)" />
    </marker>
    <marker
       inkscape:stockid="Arrow1Lend"
       orient="auto"
       refY="0"
       refX="0"
       id="marker4097"
       style="overflow:visible">
      <path
         inkscape:connector-curvature="0"
         id="path4099"
         d="M 0,0 5,-5 -12.5,0 5,5 0,0 z"
         style="fill-rule:evenodd;stroke:#000000;stroke-width:1pt;marker-start:none"
         transform="matrix(-0.8,0,0,-0.8,-10,0)" />
    </marker>
    <marker
       inkscape:stockid="Arrow1Lend"
       orient="auto"
       refY="0"
       refX="0"
       id="marker4101"
       style="overflow:visible">
      <path
         inkscape:connector-curvature="0"
         id="path4103"
         d="M 0,0 5,-5 -12.5,0 5,5 0,0 z"
         style="fill-rule:evenodd;stroke:#000000;stroke-width:1pt;marker-start:none"
         transform="matrix(-0.8,0,0,-0.8,-10,0)" />
    </marker>
    <marker
       inkscape:stockid="Arrow1Lend"
       orient="auto"
       refY="0"
       refX="0"
       id="marker4105"
       style="overflow:visible">
      <path
         inkscape:connector-curvature="0"
         id="path4107"
         d="M 0,0 5,-5 -12.5,0 5,5 0,0 z"
         style="fill-rule:evenodd;stroke:#000000;stroke-width:1pt;marker-start:none"
         transform="matrix(-0.8,0,0,-0.8,-10,0)" />
    </marker>
  </defs>
  <sodipodi:namedview
     id="base"
     pagecolor="#ffffff"
     bordercolor="#666666"
     borderopacity="1.0"
     inkscape:pageopacity="0.0"
     inkscape:pageshadow="2"
     inkscape:zoom="0.9899495"
     inkscape:cx="377.90859"
     inkscape:cy="781.37534"
     inkscape:document-units="px"
     inkscape:current-layer="layer1"
     showgrid="false"
     inkscape:window-width="1440"
     inkscape:window-height="806"
     inkscape:window-x="0"
     inkscape:window-y="31"
     inkscape:window-maximized="1" />
  <metadata
     id="metadata7">
    <rdf:RDF>
      <cc:Work
         rdf:about="">
        <dc:format>image/svg+xml</dc:format>
        <dc:type
           rdf:resource="http://purl.org/dc/dcmitype/StillImage" />
        <dc:title />
      </cc:Work>
    </rdf:RDF>
  </metadata>
  <g
     inkscape:label="Layer 1"
     inkscape:groupmode="layer"
     id="layer1"
     style="display:inline">
    <rect
       style="fill:none;stroke:#000000;stroke-width:2.1590004;stroke-miterlimit:4;stroke-opacity:1;stroke-dasharray:none;stroke-dashoffset:0"
       id="rect2985-3"
       width="227.48563"
       height="216.51755"
       x="501.996"
       y="78.92926" />
    <path
       style="fill:none;stroke:#000000;stroke-width:0.87145591px;stroke-linecap:butt;stroke-linejoin:miter;stroke-opacity:1;marker-end:url(#Arrow1Lend)"
       d="m 355.81864,98.446417 c 115.45541,0 115.45541,0 115.45541,0"
       id="path3005"
       inkscape:connector-curvature="0" />
    <path
       style="fill:none;stroke:#000000;stroke-width:1px;stroke-linecap:butt;stroke-linejoin:miter;stroke-opacity:1;marker-end:url(#Arrow1Lend)"
       d="m 375.18862,88.165417 80.30713,0"
       id="path4403"
       inkscape:connector-curvature="0" />
    <path
       style="fill:none;stroke:#000000;stroke-width:0.66124803px;stroke-linecap:butt;stroke-linejoin:miter;stroke-opacity:1;marker-end:url(#Arrow1Lend)"
       d="m 417.51566,109.74013 -42.62291,0"
       id="path4587"
       inkscape:connector-curvature="0" />
    <text
       xml:space="preserve"
       style="font-size:12px;font-style:normal;font-weight:normal;line-height:125%;letter-spacing:0px;word-spacing:0px;fill:#000000;fill-opacity:1;stroke:none;font-family:Sans"
       x="367.30173"
       y="69.241203"
       id="text4771"
       sodipodi:linespacing="125%"><tspan
         sodipodi:role="line"
         id="tspan4773"
         x="367.30173"
         y="69.241203"
         dy="0 0 0 0 0 0 5.5558391 -5.5558391 0 0 0 5.5558391 -5.5558391"
         dx="0 0 0 0 0 0 -1.0101526 1.0101526 0 0 0 -1.5152289 1.5152289"> C, MOH, MXH, MT</tspan></text>
    <text
       xml:space="preserve"
       style="font-size:12px;font-style:normal;font-weight:normal;line-height:125%;letter-spacing:0px;word-spacing:0px;fill:#000000;fill-opacity:1;stroke:none;font-family:Sans"
       x="372.52582"
       y="127.74954"
       id="text4775"
       sodipodi:linespacing="125%"><tspan
         sodipodi:role="line"
         id="tspan4777"
         x="372.52582"
         y="127.74954"
         dy="0 7.5761447 -7.5761447 0 0 0 8.0812206"
         dx="0 -2.0203052 2.0203052 0 0 0 -2.0203052">TH, MZH</tspan></text>
    <path
       style="fill:none;stroke:#000000;stroke-width:0.88802469px;stroke-linecap:butt;stroke-linejoin:miter;stroke-opacity:1;marker-end:url(#Arrow1Lend)"
       d="m 332.95518,184.05685 c 119.88739,0 119.88739,0 119.88739,0"
       id="path3005-9"
       inkscape:connector-curvature="0" />
    <path
       style="fill:none;stroke:#000000;stroke-width:0.87496716px;stroke-linecap:butt;stroke-linejoin:miter;stroke-opacity:1;marker-end:url(#Arrow1Lend)"
       d="m 368.86029,158.06157 61.48053,0"
       id="path4403-9"
       inkscape:connector-curvature="0" />
    <text
       xml:space="preserve"
       style="font-size:12px;font-style:normal;font-weight:normal;line-height:125%;letter-spacing:0px;word-spacing:0px;fill:#000000;fill-opacity:1;stroke:none;font-family:Sans"
       x="367.59763"
       y="175.48669"
       id="text4814"
       sodipodi:linespacing="125%"><tspan
         sodipodi:role="line"
         id="tspan4816"
         x="367.59763"
         y="175.48669"
         dy="0 4.0406103 -4.0406103 0 0 0 0 0 7.0710678"
         dx="0 -2.0203052 2.0203052 -1.0101526 0 0 0 0 -3.0304575">BH,T, MZH</tspan></text>
    <path
       style="fill:none;stroke:#000000;stroke-width:0.73988253px;stroke-linecap:butt;stroke-linejoin:miter;stroke-opacity:1;marker-end:url(#Arrow1Lend)"
       d="m 424.43174,202.73236 -53.36295,0"
       id="path4587-0"
       inkscape:connector-curvature="0" />
    <text
       xml:space="preserve"
       style="font-size:12px;font-style:normal;font-weight:normal;line-height:125%;letter-spacing:0px;word-spacing:0px;fill:#000000;fill-opacity:1;stroke:none;font-family:Sans"
       x="388.49393"
       y="219.14732"
       id="text4853"
       sodipodi:linespacing="125%"><tspan
         sodipodi:role="line"
         id="tspan4855"
         x="388.49393"
         y="219.14732"
         dy="0 5.0507627"
         dx="0 -1.0101526">AH</tspan></text>
    <text
       xml:space="preserve"
       style="font-size:12px;font-style:normal;font-weight:normal;line-height:125%;letter-spacing:0px;word-spacing:0px;fill:#000000;fill-opacity:1;stroke:none;font-family:Sans"
       x="698.60199"
       y="96.318459"
       id="text4861"
       sodipodi:linespacing="125%"><tspan
         sodipodi:role="line"
         id="tspan4863"
         x="698.60199"
         y="96.318459"
         dy="0 6.0609155"
         dx="0 -1.0101526">К1</tspan></text>
    <text
       xml:space="preserve"
       style="font-size:12px;font-style:normal;font-weight:normal;line-height:125%;letter-spacing:0px;word-spacing:0px;fill:#000000;fill-opacity:1;stroke:none;font-family:Sans"
       x="303.24371"
       y="183.80431"
       id="text3016"
       sodipodi:linespacing="125%"><tspan
         sodipodi:role="line"
         id="tspan3018"
         x="303.24371"
         y="183.80431"
         dy="0 0 7.0710673"
         dx="0 0 -2.0203052">IO1</tspan></text>
    <path
       style="fill:none;stroke:#000000;stroke-width:1px;stroke-linecap:butt;stroke-linejoin:miter;stroke-opacity:1"
       d="m 559.59978,183.13697 65.35714,0 22.26156,-38.55815 -65.83298,0 z"
       id="path3022"
       inkscape:connector-curvature="0"
       sodipodi:nodetypes="ccccc" />
    <text
       xml:space="preserve"
       style="font-size:12px;font-style:normal;font-weight:normal;line-height:125%;letter-spacing:0px;word-spacing:0px;fill:#000000;fill-opacity:1;stroke:none;font-family:Sans"
       x="589.03564"
       y="161.3576"
       id="text3024"
       sodipodi:linespacing="125%"><tspan
         sodipodi:role="line"
         id="tspan3026"
         x="589.03564"
         y="161.3576">T1</tspan></text>
    <path
       style="fill:none;stroke:#000000;stroke-width:1px;stroke-linecap:butt;stroke-linejoin:miter;stroke-opacity:1"
       d="m 558.3583,233.1646 65.35714,0 22.26156,-38.55816 -65.83298,0 z"
       id="path3022-1"
       inkscape:connector-curvature="0"
       sodipodi:nodetypes="ccccc" />
    <text
       xml:space="preserve"
       style="font-size:12px;font-style:normal;font-weight:normal;line-height:125%;letter-spacing:0px;word-spacing:0px;fill:#000000;fill-opacity:1;stroke:none;font-family:Sans"
       x="587.79413"
       y="211.38524"
       id="text3024-1"
       sodipodi:linespacing="125%"><tspan
         sodipodi:role="line"
         id="tspan3026-0"
         x="587.79413"
         y="211.38524">T2</tspan></text>
    <path
       style="fill:none;stroke:#000000;stroke-width:1px;stroke-linecap:butt;stroke-linejoin:miter;stroke-opacity:1"
       d="m 548.338,281.57941 65.35714,0 22.26156,-38.55816 -65.83298,0 z"
       id="path3022-6"
       inkscape:connector-curvature="0"
       sodipodi:nodetypes="ccccc" />
    <text
       xml:space="preserve"
       style="font-size:12px;font-style:normal;font-weight:normal;line-height:125%;letter-spacing:0px;word-spacing:0px;fill:#000000;fill-opacity:1;stroke:none;font-family:Sans"
       x="577.7738"
       y="259.80008"
       id="text3024-4"
       sodipodi:linespacing="125%"><tspan
         sodipodi:role="line"
         id="tspan3026-6"
         x="577.7738"
         y="259.80008">T3</tspan></text>
    <path
       style="fill:none;stroke:#000000;stroke-width:1px;stroke-linecap:butt;stroke-linejoin:miter;stroke-opacity:1"
       d="m 637.23142,280.86513 65.35714,0 22.26156,-38.55815 -65.83298,0 z"
       id="path3022-2"
       inkscape:connector-curvature="0"
       sodipodi:nodetypes="ccccc" />
    <text
       xml:space="preserve"
       style="font-size:12px;font-style:normal;font-weight:normal;line-height:125%;letter-spacing:0px;word-spacing:0px;fill:#000000;fill-opacity:1;stroke:none;font-family:Sans"
       x="666.6673"
       y="259.08575"
       id="text3024-5"
       sodipodi:linespacing="125%"><tspan
         sodipodi:role="line"
         id="tspan3026-8"
         x="666.6673"
         y="259.08575">T4</tspan></text>
    <rect
       style="fill:none;stroke:#000000;stroke-width:1;stroke-miterlimit:4;stroke-opacity:1;stroke-dasharray:none;stroke-dashoffset:0"
       id="rect3074"
       width="75.714287"
       height="112.14286"
       x="648.56091"
       y="119.40171" />
    <text
       xml:space="preserve"
       style="font-size:12px;font-style:normal;font-weight:normal;line-height:125%;letter-spacing:0px;word-spacing:0px;fill:#000000;fill-opacity:1;stroke:none;font-family:Sans"
       x="673.56091"
       y="141.54457"
       id="text3076"
       sodipodi:linespacing="125%"><tspan
         sodipodi:role="line"
         id="tspan3078"
         x="673.56091"
         y="141.54457"
         dy="0 5.8083777"
         dx="0 -1.0101526">Mclient</tspan></text>
    <path
       style="fill:none;stroke:#000000;stroke-width:1px;stroke-linecap:butt;stroke-linejoin:miter;stroke-opacity:1"
       d="m 298.21428,86.290753 61.42857,0 -46.21589,172.480067 -66.64125,0 46.31302,-172.306817 20.82984,-0.267857"
       id="path3080"
       inkscape:connector-curvature="0"
       sodipodi:nodetypes="cccccc" />
    <rect
       style="fill:none;stroke:#000000;stroke-width:0.84632552;stroke-miterlimit:4;stroke-opacity:1;stroke-dasharray:none;stroke-dashoffset:0"
       id="rect3159"
       width="233.29836"
       height="512.85712"
       x="132.41594"
       y="56.647896" />
    <rect
       style="fill:none;stroke:#000000;stroke-width:1;stroke-miterlimit:4;stroke-opacity:1;stroke-dasharray:none;stroke-dashoffset:0"
       id="rect3349"
       width="64.285713"
       height="192.85715"
       x="157.14285"
       y="90.933609" />
    <text
       xml:space="preserve"
       style="font-size:12px;font-style:normal;font-weight:normal;line-height:125%;letter-spacing:0px;word-spacing:0px;fill:#000000;fill-opacity:1;stroke:none;font-family:Sans"
       x="167.5"
       y="105.21932"
       id="text3351"
       sodipodi:linespacing="125%"><tspan
         sodipodi:role="line"
         id="tspan3353"
         x="167.5"
         y="105.21932"
         dy="0 5.3571434"
         dx="0 -1.0714285">Mserv</tspan></text>
    <path
       sodipodi:type="arc"
       style="fill:none;stroke:#000000;stroke-width:1;stroke-miterlimit:4;stroke-opacity:1;stroke-dasharray:none;stroke-dashoffset:0"
       id="path3355"
       sodipodi:cx="42.426407"
       sodipodi:cy="124.032"
       sodipodi:rx="26.263966"
       sodipodi:ry="13.131983"
       d="m 68.690372,124.032 a 26.263966,13.131983 0 1 1 -52.527931,0 26.263966,13.131983 0 1 1 52.527931,0 z" />
    <path
       transform="translate(-0.11729585,49.999996)"
       sodipodi:type="arc"
       style="fill:none;stroke:#000000;stroke-width:1;stroke-miterlimit:4;stroke-opacity:1;stroke-dasharray:none;stroke-dashoffset:0"
       id="path3355-9"
       sodipodi:cx="42.426407"
       sodipodi:cy="124.032"
       sodipodi:rx="26.263966"
       sodipodi:ry="13.131983"
       d="m 68.690372,124.032 a 26.263966,13.131983 0 1 1 -52.527931,0 26.263966,13.131983 0 1 1 52.527931,0 z" />
    <path
       style="fill:none;stroke:#000000;stroke-width:1px;stroke-linecap:butt;stroke-linejoin:miter;stroke-opacity:1"
       d="m 68.571429,123.96932 0,50.53572 m -52.857143,-50 0,50.53571"
       id="path3375"
       inkscape:connector-curvature="0" />
    <path
       style="fill:none;stroke:#000000;stroke-width:1px;stroke-linecap:butt;stroke-linejoin:miter;stroke-opacity:1"
       d="m 41.607143,110.57647 0,-28.571432 90.535717,0"
       id="path3377"
       inkscape:connector-curvature="0" />
    <text
       xml:space="preserve"
       style="font-size:12px;font-style:normal;font-weight:normal;line-height:125%;letter-spacing:0px;word-spacing:0px;fill:#000000;fill-opacity:1;stroke:none;font-family:Sans"
       x="27.274118"
       y="208.88481"
       id="text3379"
       sodipodi:linespacing="125%"><tspan
         sodipodi:role="line"
         id="tspan3381"
         x="27.274118"
         y="208.88481">B,C,MO,MX,MT</tspan></text>
    <text
       xml:space="preserve"
       style="font-size:12px;font-style:normal;font-weight:normal;line-height:125%;letter-spacing:0px;word-spacing:0px;fill:#000000;fill-opacity:1;stroke:none;font-family:Sans"
       x="273.75134"
       y="288.68686"
       id="text3383"
       sodipodi:linespacing="125%"><tspan
         sodipodi:role="line"
         id="tspan3385"
         x="273.75134"
         y="288.68686"
         style="font-size:28px">...</tspan></text>
    <rect
       style="fill:none;stroke:#000000;stroke-width:2.1590004;stroke-miterlimit:4;stroke-opacity:1;stroke-dasharray:none;stroke-dashoffset:0;display:inline"
       id="rect2985-3-8"
       width="227.48563"
       height="216.51755"
       x="500.46613"
       y="319.49515" />
    <path
       style="fill:none;stroke:#000000;stroke-width:0.87145591px;stroke-linecap:butt;stroke-linejoin:miter;stroke-opacity:1;marker-end:url(#Arrow1Lend);display:inline"
       d="m 354.28874,339.01232 c 115.45541,0 115.45541,0 115.45541,0"
       id="path3005-0"
       inkscape:connector-curvature="0" />
    <path
       style="fill:none;stroke:#000000;stroke-width:1px;stroke-linecap:butt;stroke-linejoin:miter;stroke-opacity:1;marker-end:url(#Arrow1Lend);display:inline"
       d="m 373.65872,328.73132 80.30713,0"
       id="path4403-5"
       inkscape:connector-curvature="0" />
    <path
       style="fill:none;stroke:#000000;stroke-width:0.66124803px;stroke-linecap:butt;stroke-linejoin:miter;stroke-opacity:1;marker-end:url(#Arrow1Lend);display:inline"
       d="m 415.98576,350.30604 -42.62291,0"
       id="path4587-8"
       inkscape:connector-curvature="0" />
    <text
       xml:space="preserve"
       style="font-size:12px;font-style:normal;font-weight:normal;line-height:125%;letter-spacing:0px;word-spacing:0px;fill:#000000;fill-opacity:1;stroke:none;display:inline;font-family:Sans"
       x="365.77182"
       y="309.8071"
       id="text4771-4"
       sodipodi:linespacing="125%"><tspan
         sodipodi:role="line"
         id="tspan4773-1"
         x="365.77182"
         y="309.8071"
         dy="0 0 0 0 0 0 5.5558391 -5.5558391 0 0 0 5.5558391 -5.5558391"
         dx="0 0 0 0 0 0 -1.0101526 1.0101526 0 0 0 -1.5152289 1.5152289"> C, MOH, MXH, MT</tspan></text>
    <text
       xml:space="preserve"
       style="font-size:12px;font-style:normal;font-weight:normal;line-height:125%;letter-spacing:0px;word-spacing:0px;fill:#000000;fill-opacity:1;stroke:none;display:inline;font-family:Sans"
       x="370.99591"
       y="368.31543"
       id="text4775-5"
       sodipodi:linespacing="125%"><tspan
         sodipodi:role="line"
         id="tspan4777-1"
         x="370.99591"
         y="368.31543"
         dy="0 7.5761447 -7.5761447 0 0 0 8.0812206"
         dx="0 -2.0203052 2.0203052 0 0 0 -2.0203052">TH, MZH</tspan></text>
    <path
       style="fill:none;stroke:#000000;stroke-width:0.88802469px;stroke-linecap:butt;stroke-linejoin:miter;stroke-opacity:1;marker-end:url(#Arrow1Lend);display:inline"
       d="m 331.42528,424.62276 c 119.88739,0 119.88739,0 119.88739,0"
       id="path3005-9-1"
       inkscape:connector-curvature="0" />
    <path
       style="fill:none;stroke:#000000;stroke-width:0.87496716px;stroke-linecap:butt;stroke-linejoin:miter;stroke-opacity:1;marker-end:url(#Arrow1Lend);display:inline"
       d="m 367.33039,398.62748 61.48053,0"
       id="path4403-9-0"
       inkscape:connector-curvature="0" />
    <text
       xml:space="preserve"
       style="font-size:12px;font-style:normal;font-weight:normal;line-height:125%;letter-spacing:0px;word-spacing:0px;fill:#000000;fill-opacity:1;stroke:none;display:inline;font-family:Sans"
       x="366.06772"
       y="416.05258"
       id="text4814-9"
       sodipodi:linespacing="125%"><tspan
         sodipodi:role="line"
         id="tspan4816-5"
         x="366.06772"
         y="416.05258"
         dy="0 4.0406103 -4.0406103 0 0 0 0 0 7.0710678"
         dx="0 -2.0203052 2.0203052 -1.0101526 0 0 0 0 -3.0304575">BH,T, MZH</tspan></text>
    <path
       style="fill:none;stroke:#000000;stroke-width:0.73988253px;stroke-linecap:butt;stroke-linejoin:miter;stroke-opacity:1;marker-end:url(#Arrow1Lend);display:inline"
       d="m 422.90184,443.29827 -53.36295,0"
       id="path4587-0-6"
       inkscape:connector-curvature="0" />
    <text
       xml:space="preserve"
       style="font-size:12px;font-style:normal;font-weight:normal;line-height:125%;letter-spacing:0px;word-spacing:0px;fill:#000000;fill-opacity:1;stroke:none;display:inline;font-family:Sans"
       x="386.96402"
       y="459.71323"
       id="text4853-6"
       sodipodi:linespacing="125%"><tspan
         sodipodi:role="line"
         id="tspan4855-4"
         x="386.96402"
         y="459.71323"
         dy="0 5.0507627"
         dx="0 -1.0101526">AH</tspan></text>
    <text
       xml:space="preserve"
       style="font-size:12px;font-style:normal;font-weight:normal;line-height:125%;letter-spacing:0px;word-spacing:0px;fill:#000000;fill-opacity:1;stroke:none;display:inline;font-family:Sans"
       x="697.07208"
       y="336.88437"
       id="text4861-2"
       sodipodi:linespacing="125%"><tspan
         sodipodi:role="line"
         id="tspan4863-5"
         x="697.07208"
         y="336.88437"
         dy="0 5.0507627"
         dx="0 -1.0101526">Кp</tspan></text>
    <text
       xml:space="preserve"
       style="font-size:12px;font-style:normal;font-weight:normal;line-height:125%;letter-spacing:0px;word-spacing:0px;fill:#000000;fill-opacity:1;stroke:none;display:inline;font-family:Sans"
       x="301.71381"
       y="424.37021"
       id="text3016-5"
       sodipodi:linespacing="125%"><tspan
         sodipodi:role="line"
         id="tspan3018-1"
         x="301.71381"
         y="424.37021"
         dy="0 0 4.0406103"
         dx="0 0 -2.0203052">IOp</tspan></text>
    <path
       style="fill:none;stroke:#000000;stroke-width:1px;stroke-linecap:butt;stroke-linejoin:miter;stroke-opacity:1;display:inline"
       d="m 558.06988,423.70288 65.35714,0 22.26156,-38.55815 -65.83298,0 z"
       id="path3022-60"
       inkscape:connector-curvature="0"
       sodipodi:nodetypes="ccccc" />
    <text
       xml:space="preserve"
       style="font-size:12px;font-style:normal;font-weight:normal;line-height:125%;letter-spacing:0px;word-spacing:0px;fill:#000000;fill-opacity:1;stroke:none;display:inline;font-family:Sans"
       x="587.50574"
       y="401.92349"
       id="text3024-0"
       sodipodi:linespacing="125%"><tspan
         sodipodi:role="line"
         id="tspan3026-9"
         x="587.50574"
         y="401.92349">T1</tspan></text>
    <path
       style="fill:none;stroke:#000000;stroke-width:1px;stroke-linecap:butt;stroke-linejoin:miter;stroke-opacity:1;display:inline"
       d="m 556.8284,473.73051 65.35714,0 22.26156,-38.55816 -65.83298,0 z"
       id="path3022-1-7"
       inkscape:connector-curvature="0"
       sodipodi:nodetypes="ccccc" />
    <text
       xml:space="preserve"
       style="font-size:12px;font-style:normal;font-weight:normal;line-height:125%;letter-spacing:0px;word-spacing:0px;fill:#000000;fill-opacity:1;stroke:none;display:inline;font-family:Sans"
       x="586.26422"
       y="451.95114"
       id="text3024-1-3"
       sodipodi:linespacing="125%"><tspan
         sodipodi:role="line"
         id="tspan3026-0-0"
         x="586.26422"
         y="451.95114">T2</tspan></text>
    <path
       style="fill:none;stroke:#000000;stroke-width:1px;stroke-linecap:butt;stroke-linejoin:miter;stroke-opacity:1;display:inline"
       d="m 546.8081,522.14532 65.35714,0 22.26156,-38.55816 -65.83298,0 z"
       id="path3022-6-6"
       inkscape:connector-curvature="0"
       sodipodi:nodetypes="ccccc" />
    <text
       xml:space="preserve"
       style="font-size:12px;font-style:normal;font-weight:normal;line-height:125%;letter-spacing:0px;word-spacing:0px;fill:#000000;fill-opacity:1;stroke:none;display:inline;font-family:Sans"
       x="576.2439"
       y="500.36597"
       id="text3024-4-2"
       sodipodi:linespacing="125%"><tspan
         sodipodi:role="line"
         id="tspan3026-6-4"
         x="576.2439"
         y="500.36597">T3</tspan></text>
    <path
       style="fill:none;stroke:#000000;stroke-width:1px;stroke-linecap:butt;stroke-linejoin:miter;stroke-opacity:1;display:inline"
       d="m 635.70152,521.43104 65.35714,0 22.26156,-38.55815 -65.83298,0 z"
       id="path3022-2-5"
       inkscape:connector-curvature="0"
       sodipodi:nodetypes="ccccc" />
    <text
       xml:space="preserve"
       style="font-size:12px;font-style:normal;font-weight:normal;line-height:125%;letter-spacing:0px;word-spacing:0px;fill:#000000;fill-opacity:1;stroke:none;display:inline;font-family:Sans"
       x="665.13739"
       y="499.65167"
       id="text3024-5-0"
       sodipodi:linespacing="125%"><tspan
         sodipodi:role="line"
         id="tspan3026-8-2"
         x="665.13739"
         y="499.65167">T4</tspan></text>
    <rect
       style="fill:none;stroke:#000000;stroke-width:1;stroke-miterlimit:4;stroke-opacity:1;stroke-dasharray:none;stroke-dashoffset:0;display:inline"
       id="rect3074-7"
       width="75.714287"
       height="112.14286"
       x="647.03101"
       y="359.96762" />
    <text
       xml:space="preserve"
       style="font-size:12px;font-style:normal;font-weight:normal;line-height:125%;letter-spacing:0px;word-spacing:0px;fill:#000000;fill-opacity:1;stroke:none;display:inline;font-family:Sans"
       x="672.03101"
       y="382.11047"
       id="text3076-5"
       sodipodi:linespacing="125%"><tspan
         sodipodi:role="line"
         id="tspan3078-2"
         x="672.03101"
         y="382.11047"
         dy="0 5.8083777"
         dx="0 -1.0101526">Mclient</tspan></text>
    <path
       style="fill:none;stroke:#000000;stroke-width:1px;stroke-linecap:butt;stroke-linejoin:miter;stroke-opacity:1;display:inline"
       d="m 296.68438,326.85666 61.42857,0 -46.21589,172.48007 -66.64125,0 46.31302,-172.30682 20.82984,-0.26786"
       id="path3080-3"
       inkscape:connector-curvature="0"
       sodipodi:nodetypes="cccccc" />
    <text
       xml:space="preserve"
       style="font-size:12px;font-style:normal;font-weight:normal;line-height:125%;letter-spacing:0px;word-spacing:0px;fill:#000000;fill-opacity:1;stroke:none;display:inline;font-family:Sans"
       x="272.22144"
       y="529.25275"
       id="text3383-9"
       sodipodi:linespacing="125%"><tspan
         sodipodi:role="line"
         id="tspan3385-0"
         x="272.22144"
         y="529.25275"
         style="font-size:28px">...</tspan></text>
    <rect
       y="323.98694"
       x="470.42313"
       height="30.714285"
       width="98.571426"
       id="rect3995-70"
       style="fill:#ffffff;fill-opacity:1;stroke:#000000;stroke-width:1;stroke-miterlimit:4;stroke-opacity:1;stroke-dasharray:none;stroke-dashoffset:0;display:inline" />
    <text
       xml:space="preserve"
       style="font-size:12px;font-style:normal;font-weight:normal;line-height:125%;letter-spacing:0px;word-spacing:0px;fill:#000000;fill-opacity:1;stroke:none;display:inline;font-family:Sans"
       x="482.33319"
       y="341.36438"
       id="text4049-0"
       sodipodi:linespacing="125%"><tspan
         sodipodi:role="line"
         id="tspan4051-6"
         x="482.33319"
         y="341.36438">stageOneCalc</tspan></text>
    <rect
       y="408.83975"
       x="453.25052"
       height="30.714285"
       width="98.571426"
       id="rect3995-7-7"
       style="fill:#ffffff;fill-opacity:1;stroke:#000000;stroke-width:1;stroke-miterlimit:4;stroke-opacity:1;stroke-dasharray:none;stroke-dashoffset:0;display:inline" />
    <text
       xml:space="preserve"
       style="font-size:12px;font-style:normal;font-weight:normal;line-height:125%;letter-spacing:0px;word-spacing:0px;fill:#000000;fill-opacity:1;stroke:none;display:inline;font-family:Sans"
       x="465.16058"
       y="426.21719"
       id="text4049-7-8"
       sodipodi:linespacing="125%"><tspan
         sodipodi:role="line"
         id="tspan4051-8-4"
         x="465.16058"
         y="426.21719">stageTwoCalc</tspan></text>
  </g>
  <g
     inkscape:groupmode="layer"
     id="layer2"
     inkscape:label="Layer"
     style="display:inline">
    <rect
       y="83.421043"
       x="471.953"
       height="30.714285"
       width="98.571426"
       id="rect3995"
       style="fill:#ffffff;fill-opacity:1;stroke:#000000;stroke-width:1;stroke-miterlimit:4;stroke-opacity:1;stroke-dasharray:none;stroke-dashoffset:0" />
    <text
       xml:space="preserve"
       style="font-size:12px;font-style:normal;font-weight:normal;line-height:125%;letter-spacing:0px;word-spacing:0px;fill:#000000;fill-opacity:1;stroke:none;font-family:Sans"
       x="483.86307"
       y="100.79849"
       id="text4049"
       sodipodi:linespacing="125%"><tspan
         sodipodi:role="line"
         id="tspan4051"
         x="483.86307"
         y="100.79849">stageOneCalc</tspan></text>
    <rect
       y="168.27385"
       x="454.7804"
       height="30.714285"
       width="98.571426"
       id="rect3995-7"
       style="fill:#ffffff;fill-opacity:1;stroke:#000000;stroke-width:1;stroke-miterlimit:4;stroke-opacity:1;stroke-dasharray:none;stroke-dashoffset:0;display:inline" />
    <text
       xml:space="preserve"
       style="font-size:12px;font-style:normal;font-weight:normal;line-height:125%;letter-spacing:0px;word-spacing:0px;fill:#000000;fill-opacity:1;stroke:none;display:inline;font-family:Sans"
       x="466.69046"
       y="185.65131"
       id="text4049-7"
       sodipodi:linespacing="125%"><tspan
         sodipodi:role="line"
         id="tspan4051-8"
         x="466.69046"
         y="185.65131">stageTwoCalc</tspan></text>
  </g>
</svg>
