vhdl work "/home/anthony/IVS/Lab34/ipcore_dir/xfft_v7_1.vhd"
vhdl work "/home/anthony/IVS/Lab34/sin_lut.vhd"
vhdl work "/home/anthony/IVS/Lab34/tone_gen.vhd"
vhdl work "/home/anthony/IVS/Lab34/ipcore_dir/xfft_v7_1_pipeline.vhd"
vhdl work "/home/anthony/IVS/Lab34/clk_gen.vhd"
vhdl work "/home/anthony/IVS/Lab34/fft_natural_tb.vhd"
