\relax 
\catcode`"\active
\select@language{ukrainian}
\@writefile{toc}{\select@language{ukrainian}}
\@writefile{lof}{\select@language{ukrainian}}
\@writefile{lot}{\select@language{ukrainian}}
\@writefile{toc}{\contentsline {section}{\numberline {1}\IeC {\CYRL }\IeC {\cyra }\IeC {\cyrb }\IeC {\cyro }\IeC {\cyrr }\IeC {\cyra }\IeC {\cyrt }\IeC {\cyro }\IeC {\cyrr }\IeC {\cyrn }\IeC {\cyra }\IeC {\cyrya } \IeC {\cyrr }\IeC {\cyra }\IeC {\cyrb }\IeC {\cyro }\IeC {\cyrt }\IeC {\cyra } \IeC {\textnumero }6. \IeC {\CYRR }\IeC {\cyra }\IeC {\cyrz }\IeC {\cyrr }\IeC {\cyra }\IeC {\cyrb }\IeC {\cyro }\IeC {\cyrt }\IeC {\cyrk }\IeC {\cyra } \IeC {\cyrp }\IeC {\cyrr }\IeC {\cyro }\IeC {\cyrg }\IeC {\cyrr }\IeC {\cyra }\IeC {\cyrm }\IeC {\cyrery } \IeC {\cyrg }\IeC {\cyre }\IeC {\cyrn }\IeC {\cyre }\IeC {\cyrr }\IeC {\cyra }\IeC {\cyrt }\IeC {\cyro }\IeC {\cyrr }\IeC {\cyra } \IeC {\cyrp }\IeC {\cyrr }\IeC {\cyro }\IeC {\cyrs }\IeC {\cyrt }\IeC {\cyrery }\IeC {\cyrh } \IeC {\cyrb }\IeC {\cyro }\IeC {\cyrl }\IeC {\cyrsftsn }\IeC {\cyrsh }\IeC {\cyri }\IeC {\cyrh } \IeC {\cyrch }\IeC {\cyri }\IeC {\cyrs }\IeC {\cyre }\IeC {\cyrl }}{2}}
\@writefile{toc}{\contentsline {section}{\numberline {2}\IeC {\CYRK }\IeC {\cyro }\IeC {\cyrd }}{2}}
\@writefile{lol}{\contentsline {lstlisting}{\numberline {1}Lab5.py}{2}}
\ttl@finishall
