\relax 
\catcode`"\active
\select@language{ukrainian}
\@writefile{toc}{\select@language{ukrainian}}
\@writefile{lof}{\select@language{ukrainian}}
\@writefile{lot}{\select@language{ukrainian}}
\@writefile{toc}{\contentsline {section}{\numberline {1}\IeC {\CYRT }\IeC {\cyre }\IeC {\cyrh }\IeC {\cyrn }\IeC {\cyrii }\IeC {\cyrch }\IeC {\cyrn }\IeC {\cyre } \IeC {\cyrz }\IeC {\cyra }\IeC {\cyrv }\IeC {\cyrd }\IeC {\cyra }\IeC {\cyrn }\IeC {\cyrn }\IeC {\cyrya }}{3}}
\@writefile{lof}{\contentsline {figure}{\numberline {1}{\ignorespaces \IeC {\CYRT }\IeC {\cyro }\IeC {\cyrp }\IeC {\cyro }\IeC {\cyrl }\IeC {\cyro }\IeC {\cyrg }\IeC {\cyrii }\IeC {\cyrya } \IeC {\cyro }\IeC {\cyrb }\IeC {\cyrch }\IeC {\cyri }\IeC {\cyrs }\IeC {\cyrl }\IeC {\cyryu }\IeC {\cyrv }\IeC {\cyra }\IeC {\cyrl }\IeC {\cyrsftsn }\IeC {\cyrn }\IeC {\cyro }\IeC {\cyryi } \IeC {\cyrs }\IeC {\cyri }\IeC {\cyrs }\IeC {\cyrt }\IeC {\cyre }\IeC {\cyrm }\IeC {\cyri }}}{3}}
\@writefile{toc}{\contentsline {subsection}{\numberline {1.1}\IeC {\CYRA }\IeC {\cyrn }\IeC {\cyra }\IeC {\cyrl }\IeC {\cyrii }\IeC {\cyrz } \IeC {\cyrt }\IeC {\cyro }\IeC {\cyrp }\IeC {\cyro }\IeC {\cyrl }\IeC {\cyro }\IeC {\cyrg }\IeC {\cyrii }\IeC {\cyryi }}{3}}
\@writefile{toc}{\contentsline {subsection}{\numberline {1.2}\IeC {\CYRD }\IeC {\cyro }\IeC {\cyrp }\IeC {\cyru }\IeC {\cyrshch }\IeC {\cyre }\IeC {\cyrn }\IeC {\cyrn }\IeC {\cyrya }}{3}}
\@writefile{toc}{\contentsline {section}{\numberline {2}\IeC {\CYRA }\IeC {\cyrl }\IeC {\cyrg }\IeC {\cyro }\IeC {\cyrr }\IeC {\cyri }\IeC {\cyrt }\IeC {\cyrm }\IeC {\cyri } \IeC {\cyrp }\IeC {\cyrr }\IeC {\cyro }\IeC {\cyrs }\IeC {\cyrt }\IeC {\cyro }\IeC {\cyrr }\IeC {\cyro }\IeC {\cyrv }\IeC {\cyro }\IeC {\cyrg }\IeC {\cyro } \IeC {\cyrp }\IeC {\cyrl }\IeC {\cyra }\IeC {\cyrn }\IeC {\cyru }\IeC {\cyrv }\IeC {\cyra }\IeC {\cyrn }\IeC {\cyrn }\IeC {\cyrya }}{4}}
\@writefile{toc}{\contentsline {subsection}{\numberline {2.1}\IeC {\CYRO }\IeC {\cyrs }\IeC {\cyrn }\IeC {\cyro }\IeC {\cyrv }\IeC {\cyrn }\IeC {\cyrii } \IeC {\cyrp }\IeC {\cyra }\IeC {\cyrr }\IeC {\cyra }\IeC {\cyrm }\IeC {\cyre }\IeC {\cyrt }\IeC {\cyrr }\IeC {\cyri }, \IeC {\cyrshch }\IeC {\cyro } \IeC {\cyrv }\IeC {\cyri }\IeC {\cyrk }\IeC {\cyro }\IeC {\cyrr }\IeC {\cyri }\IeC {\cyrs }\IeC {\cyrt }\IeC {\cyro }\IeC {\cyrv }\IeC {\cyru }\IeC {\cyryu }\IeC {\cyrt }\IeC {\cyrsftsn }\IeC {\cyrs }\IeC {\cyrya } \IeC {\cyrp }\IeC {\cyrr }\IeC {\cyri } \IeC {\cyrp }\IeC {\cyrl }\IeC {\cyra }\IeC {\cyrn }\IeC {\cyru }\IeC {\cyrv }\IeC {\cyra }\IeC {\cyrn }\IeC {\cyrn }\IeC {\cyrii }}{4}}
\@writefile{toc}{\contentsline {subsection}{\numberline {2.2}\IeC {\CYRP }\IeC {\cyrr }\IeC {\cyro }\IeC {\cyrb }\IeC {\cyrl }\IeC {\cyre }\IeC {\cyrm }\IeC {\cyra } \IeC {\cyrm }\IeC {\cyra }\IeC {\cyrr }\IeC {\cyrsh }\IeC {\cyrr }\IeC {\cyru }\IeC {\cyrt }\IeC {\cyri }\IeC {\cyrz }\IeC {\cyra }\IeC {\cyrc }\IeC {\cyrii }\IeC {\cyryi } \IeC {\cyrp }\IeC {\cyro }\IeC {\cyrv }\IeC {\cyrii }\IeC {\cyrd }\IeC {\cyro }\IeC {\cyrm }\IeC {\cyrl }\IeC {\cyre }\IeC {\cyrn }\IeC {\cyrsftsn } \IeC {\cyru } \IeC {\cyrn }\IeC {\cyre }\IeC {\cyrp }\IeC {\cyro }\IeC {\cyrv }\IeC {\cyrn }\IeC {\cyro }\IeC {\cyrz }\IeC {\cyrv }'\IeC {\cyrya }\IeC {\cyrz }\IeC {\cyrn }\IeC {\cyri }\IeC {\cyrh } \IeC {\cyrs }\IeC {\cyri }\IeC {\cyrs }\IeC {\cyrt }\IeC {\cyre }\IeC {\cyrm }\IeC {\cyra }\IeC {\cyrh }}{5}}
\@writefile{toc}{\contentsline {subsection}{\numberline {2.3}\IeC {\CYRK }\IeC {\cyro }\IeC {\cyrr }\IeC {\cyro }\IeC {\cyrt }\IeC {\cyrk }\IeC {\cyri }\IeC {\cyrishrt } \IeC {\cyro }\IeC {\cyrg }\IeC {\cyrl }\IeC {\cyrya }\IeC {\cyrd } \IeC {\cyra }\IeC {\cyrl }\IeC {\cyrg }\IeC {\cyro }\IeC {\cyrr }\IeC {\cyri }\IeC {\cyrt }\IeC {\cyrm }\IeC {\cyrii }\IeC {\cyrv } \IeC {\cyrp }\IeC {\cyrl }\IeC {\cyra }\IeC {\cyrn }\IeC {\cyru }\IeC {\cyrv }\IeC {\cyra }\IeC {\cyrn }\IeC {\cyrn }\IeC {\cyrya }}{5}}
\@writefile{toc}{\contentsline {subsection}{\numberline {2.4}\IeC {\CYRD }\IeC {\cyre }\IeC {\cyrt }\IeC {\cyra }\IeC {\cyrl }\IeC {\cyrsftsn }\IeC {\cyrn }\IeC {\cyri }\IeC {\cyrishrt } \IeC {\cyro }\IeC {\cyrg }\IeC {\cyrl }\IeC {\cyrya }\IeC {\cyrd } \IeC {\cyra }\IeC {\cyrl }\IeC {\cyrg }\IeC {\cyro }\IeC {\cyrr }\IeC {\cyri }\IeC {\cyrt }\IeC {\cyrm }\IeC {\cyru } Mapping Heuristic}{6}}
\@writefile{toc}{\contentsline {section}{\numberline {3}\IeC {\CYRP }\IeC {\cyro }\IeC {\cyrp }\IeC {\cyre }\IeC {\cyrr }\IeC {\cyre }\IeC {\cyrd }\IeC {\cyrn }\IeC {\cyrii }\IeC {\cyrishrt } \IeC {\cyra }\IeC {\cyrn }\IeC {\cyra }\IeC {\cyrl }\IeC {\cyrii }\IeC {\cyrz } \IeC {\cyrt }\IeC {\cyre }\IeC {\cyrs }\IeC {\cyrt }\IeC {\cyro }\IeC {\cyrv }\IeC {\cyri }\IeC {\cyrh } \IeC {\cyrd }\IeC {\cyra }\IeC {\cyrn }\IeC {\cyri }\IeC {\cyrh }}{7}}
\@writefile{lot}{\contentsline {table}{\numberline {1}{\ignorespaces \IeC {\CYRK }\IeC {\cyrr }\IeC {\cyri }\IeC {\cyrt }\IeC {\cyri }\IeC {\cyrch }\IeC {\cyrn }\IeC {\cyri }\IeC {\cyrishrt } \IeC {\cyrsh }\IeC {\cyrl }\IeC {\cyrya }\IeC {\cyrh } \IeC {\cyru } \IeC {\cyrg }\IeC {\cyrr }\IeC {\cyra }\IeC {\cyrf }\IeC {\cyrii } \IeC {\cyra }\IeC {\cyrl }\IeC {\cyrg }\IeC {\cyro }\IeC {\cyrr }\IeC {\cyri }\IeC {\cyrt }\IeC {\cyrm }\IeC {\cyru }}}{7}}
\gdef \LT@i {\LT@entry 
    {1}{23.74713pt}\LT@entry 
    {1}{25.86606pt}\LT@entry 
    {1}{25.86606pt}\LT@entry 
    {1}{25.86606pt}}
\@writefile{toc}{\contentsline {section}{\numberline {4}\IeC {\CYRA }\IeC {\cyrn }\IeC {\cyra }\IeC {\cyrl }\IeC {\cyrii }\IeC {\cyrz } \IeC {\cyrr }\IeC {\cyre }\IeC {\cyrz }\IeC {\cyru }\IeC {\cyrl }\IeC {\cyrsftsn }\IeC {\cyrt }\IeC {\cyra }\IeC {\cyrt }\IeC {\cyrii }\IeC {\cyrv } \IeC {\cyrp }\IeC {\cyrl }\IeC {\cyra }\IeC {\cyrn }\IeC {\cyru }\IeC {\cyrv }\IeC {\cyra }\IeC {\cyrn }\IeC {\cyrn }\IeC {\cyrya }}{8}}
\gdef \LT@ii {\LT@entry 
    {1}{23.74713pt}\LT@entry 
    {1}{62.90005pt}\LT@entry 
    {1}{79.5418pt}\LT@entry 
    {1}{65.34735pt}\LT@entry 
    {1}{118.05049pt}}
\@writefile{lot}{\contentsline {table}{\numberline {4}{\ignorespaces C\IeC {\cyrt }\IeC {\cyra }\IeC {\cyrt }\IeC {\cyri }\IeC {\cyrs }\IeC {\cyrt }\IeC {\cyri }\IeC {\cyrk }\IeC {\cyra } \IeC {\cyrp }\IeC {\cyrl }\IeC {\cyra }\IeC {\cyrn }\IeC {\cyru }\IeC {\cyrv }\IeC {\cyra }\IeC {\cyrn }\IeC {\cyrn }\IeC {\cyrya } \IeC {\cyrd }\IeC {\cyrl }\IeC {\cyrya } \IeC {\cyrk }\IeC {\cyro }\IeC {\cyrzh }\IeC {\cyrn }\IeC {\cyro }\IeC {\cyryi } \IeC {\cyrv }\IeC {\cyre }\IeC {\cyrr }\IeC {\cyrsh }\IeC {\cyri }\IeC {\cyrn }\IeC {\cyri }}}{9}}
\@writefile{toc}{\contentsline {section}{\numberline {5}\IeC {\CYRK }\IeC {\cyro }\IeC {\cyrd } \IeC {\cyrp }\IeC {\cyrr }\IeC {\cyro }\IeC {\cyrg }\IeC {\cyrr }\IeC {\cyra }\IeC {\cyrm }\IeC {\cyri }}{9}}
\@writefile{lol}{\contentsline {lstlisting}{\numberline {1}MHscheduler.java}{9}}
\@writefile{lol}{\contentsline {lstlisting}{\numberline {2}Node.java}{13}}
\@writefile{lol}{\contentsline {lstlisting}{\numberline {3}Connection.java}{14}}
\@writefile{lol}{\contentsline {lstlisting}{\numberline {4}GraphConverter.java}{15}}
\@writefile{lol}{\contentsline {lstlisting}{\numberline {5}MainFrame.java}{16}}
\@writefile{lol}{\contentsline {lstlisting}{\numberline {6}GraphEd.java}{20}}
\bibcite{bib:konsp}{1}
\bibcite{bib:tanenbaum}{2}
\bibcite{bib:main}{3}
\bibcite{bib:yang}{4}
\bibcite{bib:sarkar}{5}
\ttl@finishall
