<?xml version="1.0" encoding="UTF-8" standalone="no"?>
<!-- Created with Inkscape (http://www.inkscape.org/) -->

<svg
   xmlns:dc="http://purl.org/dc/elements/1.1/"
   xmlns:cc="http://creativecommons.org/ns#"
   xmlns:rdf="http://www.w3.org/1999/02/22-rdf-syntax-ns#"
   xmlns:svg="http://www.w3.org/2000/svg"
   xmlns="http://www.w3.org/2000/svg"
   xmlns:sodipodi="http://sodipodi.sourceforge.net/DTD/sodipodi-0.dtd"
   xmlns:inkscape="http://www.inkscape.org/namespaces/inkscape"
   width="744.09448819"
   height="1052.3622047"
   id="svg2"
   version="1.1"
   inkscape:version="0.48.0 r9654"
   sodipodi:docname="stub.svg">
  <defs
     id="defs4" />
  <sodipodi:namedview
     id="base"
     pagecolor="#ffffff"
     bordercolor="#666666"
     borderopacity="1.0"
     inkscape:pageopacity="0.0"
     inkscape:pageshadow="2"
     inkscape:zoom="1.4"
     inkscape:cx="151.55946"
     inkscape:cy="916.94621"
     inkscape:document-units="px"
     inkscape:current-layer="layer1"
     showgrid="false"
     inkscape:window-width="1440"
     inkscape:window-height="826"
     inkscape:window-x="0"
     inkscape:window-y="25"
     inkscape:window-maximized="1" />
  <metadata
     id="metadata7">
    <rdf:RDF>
      <cc:Work
         rdf:about="">
        <dc:format>image/svg+xml</dc:format>
        <dc:type
           rdf:resource="http://purl.org/dc/dcmitype/StillImage" />
        <dc:title />
      </cc:Work>
    </rdf:RDF>
  </metadata>
  <g
     inkscape:label="Layer 1"
     inkscape:groupmode="layer"
     id="layer1">
    <path
       sodipodi:type="arc"
       style="fill:#000000;fill-opacity:1;fill-rule:evenodd;stroke:#000000;stroke-width:1px;stroke-linecap:butt;stroke-linejoin:miter;stroke-opacity:1"
       id="path2985"
       sodipodi:cx="21.785715"
       sodipodi:cy="29.862181"
       sodipodi:rx="3.2142856"
       sodipodi:ry="3.2142856"
       d="m 25.000001,29.862181 a 3.2142856,3.2142856 0 1 1 -6.428572,0 3.2142856,3.2142856 0 1 1 6.428572,0 z"
       transform="translate(-3.0714295,-6.2142837)" />
    <path
       transform="translate(26.928571,-6.2142837)"
       sodipodi:type="arc"
       style="fill:#000000;fill-opacity:1;fill-rule:evenodd;stroke:#000000;stroke-width:1px;stroke-linecap:butt;stroke-linejoin:miter;stroke-opacity:1"
       id="path2985-6"
       sodipodi:cx="21.785715"
       sodipodi:cy="29.862181"
       sodipodi:rx="3.2142856"
       sodipodi:ry="3.2142856"
       d="m 25.000001,29.862181 a 3.2142856,3.2142856 0 1 1 -6.428572,0 3.2142856,3.2142856 0 1 1 6.428572,0 z" />
    <path
       transform="translate(56.928571,-6.2142837)"
       sodipodi:type="arc"
       style="fill:#000000;fill-opacity:1;fill-rule:evenodd;stroke:#000000;stroke-width:1px;stroke-linecap:butt;stroke-linejoin:miter;stroke-opacity:1"
       id="path2985-8"
       sodipodi:cx="21.785715"
       sodipodi:cy="29.862181"
       sodipodi:rx="3.2142856"
       sodipodi:ry="3.2142856"
       d="m 25.000001,29.862181 a 3.2142856,3.2142856 0 1 1 -6.428572,0 3.2142856,3.2142856 0 1 1 6.428572,0 z" />
    <path
       transform="translate(116.92857,-6.2142837)"
       sodipodi:type="arc"
       style="fill:#000000;fill-opacity:1;fill-rule:evenodd;stroke:#000000;stroke-width:1px;stroke-linecap:butt;stroke-linejoin:miter;stroke-opacity:1"
       id="path2985-62"
       sodipodi:cx="21.785715"
       sodipodi:cy="29.862181"
       sodipodi:rx="3.2142856"
       sodipodi:ry="3.2142856"
       d="m 25.000001,29.862181 a 3.2142856,3.2142856 0 1 1 -6.428572,0 3.2142856,3.2142856 0 1 1 6.428572,0 z" />
    <path
       transform="translate(86.928571,-6.2142837)"
       sodipodi:type="arc"
       style="fill:#000000;fill-opacity:1;fill-rule:evenodd;stroke:#000000;stroke-width:1px;stroke-linecap:butt;stroke-linejoin:miter;stroke-opacity:1"
       id="path2985-4"
       sodipodi:cx="21.785715"
       sodipodi:cy="29.862181"
       sodipodi:rx="3.2142856"
       sodipodi:ry="3.2142856"
       d="m 25.000001,29.862181 a 3.2142856,3.2142856 0 1 1 -6.428572,0 3.2142856,3.2142856 0 1 1 6.428572,0 z" />
    <path
       transform="translate(146.92857,-6.2142837)"
       sodipodi:type="arc"
       style="fill:#000000;fill-opacity:1;fill-rule:evenodd;stroke:#000000;stroke-width:1px;stroke-linecap:butt;stroke-linejoin:miter;stroke-opacity:1"
       id="path2985-7"
       sodipodi:cx="21.785715"
       sodipodi:cy="29.862181"
       sodipodi:rx="3.2142856"
       sodipodi:ry="3.2142856"
       d="m 25.000001,29.862181 a 3.2142856,3.2142856 0 1 1 -6.428572,0 3.2142856,3.2142856 0 1 1 6.428572,0 z" />
    <path
       sodipodi:type="arc"
       style="fill:#000000;fill-opacity:1;fill-rule:evenodd;stroke:#000000;stroke-width:1px;stroke-linecap:butt;stroke-linejoin:miter;stroke-opacity:1"
       id="path2985-74"
       sodipodi:cx="21.785715"
       sodipodi:cy="29.862181"
       sodipodi:rx="3.2142856"
       sodipodi:ry="3.2142856"
       d="m 25.000001,29.862181 a 3.2142856,3.2142856 0 1 1 -6.428572,0 3.2142856,3.2142856 0 1 1 6.428572,0 z"
       transform="translate(-3.0714295,23.785716)" />
    <path
       transform="translate(26.928571,23.785716)"
       sodipodi:type="arc"
       style="fill:#000000;fill-opacity:1;fill-rule:evenodd;stroke:#000000;stroke-width:1px;stroke-linecap:butt;stroke-linejoin:miter;stroke-opacity:1"
       id="path2985-6-1"
       sodipodi:cx="21.785715"
       sodipodi:cy="29.862181"
       sodipodi:rx="3.2142856"
       sodipodi:ry="3.2142856"
       d="m 25.000001,29.862181 a 3.2142856,3.2142856 0 1 1 -6.428572,0 3.2142856,3.2142856 0 1 1 6.428572,0 z" />
    <path
       transform="translate(56.92857,23.785716)"
       sodipodi:type="arc"
       style="fill:#000000;fill-opacity:1;fill-rule:evenodd;stroke:#000000;stroke-width:1px;stroke-linecap:butt;stroke-linejoin:miter;stroke-opacity:1"
       id="path2985-8-7"
       sodipodi:cx="21.785715"
       sodipodi:cy="29.862181"
       sodipodi:rx="3.2142856"
       sodipodi:ry="3.2142856"
       d="m 25.000001,29.862181 a 3.2142856,3.2142856 0 1 1 -6.428572,0 3.2142856,3.2142856 0 1 1 6.428572,0 z" />
    <path
       transform="translate(116.92857,23.785716)"
       sodipodi:type="arc"
       style="fill:#000000;fill-opacity:1;fill-rule:evenodd;stroke:#000000;stroke-width:1px;stroke-linecap:butt;stroke-linejoin:miter;stroke-opacity:1"
       id="path2985-62-1"
       sodipodi:cx="21.785715"
       sodipodi:cy="29.862181"
       sodipodi:rx="3.2142856"
       sodipodi:ry="3.2142856"
       d="m 25.000001,29.862181 a 3.2142856,3.2142856 0 1 1 -6.428572,0 3.2142856,3.2142856 0 1 1 6.428572,0 z" />
    <path
       transform="translate(86.928571,23.785716)"
       sodipodi:type="arc"
       style="fill:#000000;fill-opacity:1;fill-rule:evenodd;stroke:#000000;stroke-width:1px;stroke-linecap:butt;stroke-linejoin:miter;stroke-opacity:1"
       id="path2985-4-1"
       sodipodi:cx="21.785715"
       sodipodi:cy="29.862181"
       sodipodi:rx="3.2142856"
       sodipodi:ry="3.2142856"
       d="m 25.000001,29.862181 a 3.2142856,3.2142856 0 1 1 -6.428572,0 3.2142856,3.2142856 0 1 1 6.428572,0 z" />
    <path
       transform="translate(146.92857,23.785716)"
       sodipodi:type="arc"
       style="fill:#000000;fill-opacity:1;fill-rule:evenodd;stroke:#000000;stroke-width:1px;stroke-linecap:butt;stroke-linejoin:miter;stroke-opacity:1"
       id="path2985-7-1"
       sodipodi:cx="21.785715"
       sodipodi:cy="29.862181"
       sodipodi:rx="3.2142856"
       sodipodi:ry="3.2142856"
       d="m 25.000001,29.862181 a 3.2142856,3.2142856 0 1 1 -6.428572,0 3.2142856,3.2142856 0 1 1 6.428572,0 z" />
    <path
       sodipodi:type="arc"
       style="fill:#000000;fill-opacity:1;fill-rule:evenodd;stroke:#000000;stroke-width:1px;stroke-linecap:butt;stroke-linejoin:miter;stroke-opacity:1"
       id="path2985-3"
       sodipodi:cx="21.785715"
       sodipodi:cy="29.862181"
       sodipodi:rx="3.2142856"
       sodipodi:ry="3.2142856"
       d="m 25.000001,29.862181 a 3.2142856,3.2142856 0 1 1 -6.428572,0 3.2142856,3.2142856 0 1 1 6.428572,0 z"
       transform="translate(-3.0714295,53.785716)" />
    <path
       transform="translate(26.928571,53.785716)"
       sodipodi:type="arc"
       style="fill:#000000;fill-opacity:1;fill-rule:evenodd;stroke:#000000;stroke-width:1px;stroke-linecap:butt;stroke-linejoin:miter;stroke-opacity:1"
       id="path2985-6-3"
       sodipodi:cx="21.785715"
       sodipodi:cy="29.862181"
       sodipodi:rx="3.2142856"
       sodipodi:ry="3.2142856"
       d="m 25.000001,29.862181 a 3.2142856,3.2142856 0 1 1 -6.428572,0 3.2142856,3.2142856 0 1 1 6.428572,0 z" />
    <path
       transform="translate(56.928571,53.785716)"
       sodipodi:type="arc"
       style="fill:#000000;fill-opacity:1;fill-rule:evenodd;stroke:#000000;stroke-width:1px;stroke-linecap:butt;stroke-linejoin:miter;stroke-opacity:1"
       id="path2985-8-3"
       sodipodi:cx="21.785715"
       sodipodi:cy="29.862181"
       sodipodi:rx="3.2142856"
       sodipodi:ry="3.2142856"
       d="m 25.000001,29.862181 a 3.2142856,3.2142856 0 1 1 -6.428572,0 3.2142856,3.2142856 0 1 1 6.428572,0 z" />
    <path
       transform="translate(116.92857,53.785716)"
       sodipodi:type="arc"
       style="fill:#000000;fill-opacity:1;fill-rule:evenodd;stroke:#000000;stroke-width:1px;stroke-linecap:butt;stroke-linejoin:miter;stroke-opacity:1"
       id="path2985-62-8"
       sodipodi:cx="21.785715"
       sodipodi:cy="29.862181"
       sodipodi:rx="3.2142856"
       sodipodi:ry="3.2142856"
       d="m 25.000001,29.862181 a 3.2142856,3.2142856 0 1 1 -6.428572,0 3.2142856,3.2142856 0 1 1 6.428572,0 z" />
    <path
       transform="translate(86.928571,53.785716)"
       sodipodi:type="arc"
       style="fill:#000000;fill-opacity:1;fill-rule:evenodd;stroke:#000000;stroke-width:1px;stroke-linecap:butt;stroke-linejoin:miter;stroke-opacity:1"
       id="path2985-4-5"
       sodipodi:cx="21.785715"
       sodipodi:cy="29.862181"
       sodipodi:rx="3.2142856"
       sodipodi:ry="3.2142856"
       d="m 25.000001,29.862181 a 3.2142856,3.2142856 0 1 1 -6.428572,0 3.2142856,3.2142856 0 1 1 6.428572,0 z" />
    <path
       transform="translate(146.92857,53.785716)"
       sodipodi:type="arc"
       style="fill:#000000;fill-opacity:1;fill-rule:evenodd;stroke:#000000;stroke-width:1px;stroke-linecap:butt;stroke-linejoin:miter;stroke-opacity:1"
       id="path2985-7-10"
       sodipodi:cx="21.785715"
       sodipodi:cy="29.862181"
       sodipodi:rx="3.2142856"
       sodipodi:ry="3.2142856"
       d="m 25.000001,29.862181 a 3.2142856,3.2142856 0 1 1 -6.428572,0 3.2142856,3.2142856 0 1 1 6.428572,0 z" />
    <path
       sodipodi:type="arc"
       style="fill:#000000;fill-opacity:1;fill-rule:evenodd;stroke:#000000;stroke-width:1px;stroke-linecap:butt;stroke-linejoin:miter;stroke-opacity:1"
       id="path2985-48"
       sodipodi:cx="21.785715"
       sodipodi:cy="29.862181"
       sodipodi:rx="3.2142856"
       sodipodi:ry="3.2142856"
       d="m 25.000001,29.862181 a 3.2142856,3.2142856 0 1 1 -6.428572,0 3.2142856,3.2142856 0 1 1 6.428572,0 z"
       transform="translate(-2.0714295,83.785716)" />
    <path
       transform="translate(27.928571,83.785716)"
       sodipodi:type="arc"
       style="fill:#000000;fill-opacity:1;fill-rule:evenodd;stroke:#000000;stroke-width:1px;stroke-linecap:butt;stroke-linejoin:miter;stroke-opacity:1"
       id="path2985-6-4"
       sodipodi:cx="21.785715"
       sodipodi:cy="29.862181"
       sodipodi:rx="3.2142856"
       sodipodi:ry="3.2142856"
       d="m 25.000001,29.862181 a 3.2142856,3.2142856 0 1 1 -6.428572,0 3.2142856,3.2142856 0 1 1 6.428572,0 z" />
    <path
       transform="translate(57.928571,83.785716)"
       sodipodi:type="arc"
       style="fill:#000000;fill-opacity:1;fill-rule:evenodd;stroke:#000000;stroke-width:1px;stroke-linecap:butt;stroke-linejoin:miter;stroke-opacity:1"
       id="path2985-8-8"
       sodipodi:cx="21.785715"
       sodipodi:cy="29.862181"
       sodipodi:rx="3.2142856"
       sodipodi:ry="3.2142856"
       d="m 25.000001,29.862181 a 3.2142856,3.2142856 0 1 1 -6.428572,0 3.2142856,3.2142856 0 1 1 6.428572,0 z" />
    <path
       transform="translate(117.92857,83.785716)"
       sodipodi:type="arc"
       style="fill:#000000;fill-opacity:1;fill-rule:evenodd;stroke:#000000;stroke-width:1px;stroke-linecap:butt;stroke-linejoin:miter;stroke-opacity:1"
       id="path2985-62-16"
       sodipodi:cx="21.785715"
       sodipodi:cy="29.862181"
       sodipodi:rx="3.2142856"
       sodipodi:ry="3.2142856"
       d="m 25.000001,29.862181 a 3.2142856,3.2142856 0 1 1 -6.428572,0 3.2142856,3.2142856 0 1 1 6.428572,0 z" />
    <path
       transform="translate(87.928571,83.785716)"
       sodipodi:type="arc"
       style="fill:#000000;fill-opacity:1;fill-rule:evenodd;stroke:#000000;stroke-width:1px;stroke-linecap:butt;stroke-linejoin:miter;stroke-opacity:1"
       id="path2985-4-8"
       sodipodi:cx="21.785715"
       sodipodi:cy="29.862181"
       sodipodi:rx="3.2142856"
       sodipodi:ry="3.2142856"
       d="m 25.000001,29.862181 a 3.2142856,3.2142856 0 1 1 -6.428572,0 3.2142856,3.2142856 0 1 1 6.428572,0 z" />
    <path
       transform="translate(147.92857,83.785716)"
       sodipodi:type="arc"
       style="fill:#000000;fill-opacity:1;fill-rule:evenodd;stroke:#000000;stroke-width:1px;stroke-linecap:butt;stroke-linejoin:miter;stroke-opacity:1"
       id="path2985-7-5"
       sodipodi:cx="21.785715"
       sodipodi:cy="29.862181"
       sodipodi:rx="3.2142856"
       sodipodi:ry="3.2142856"
       d="m 25.000001,29.862181 a 3.2142856,3.2142856 0 1 1 -6.428572,0 3.2142856,3.2142856 0 1 1 6.428572,0 z" />
    <path
       sodipodi:type="arc"
       style="fill:#000000;fill-opacity:1;fill-rule:evenodd;stroke:#000000;stroke-width:1px;stroke-linecap:butt;stroke-linejoin:miter;stroke-opacity:1"
       id="path2985-48-5"
       sodipodi:cx="21.785715"
       sodipodi:cy="29.862181"
       sodipodi:rx="3.2142856"
       sodipodi:ry="3.2142856"
       d="m 25.000001,29.862181 a 3.2142856,3.2142856 0 1 1 -6.428572,0 3.2142856,3.2142856 0 1 1 6.428572,0 z"
       transform="translate(-3.0714295,113.78572)" />
    <path
       transform="translate(26.928571,113.78572)"
       sodipodi:type="arc"
       style="fill:#000000;fill-opacity:1;fill-rule:evenodd;stroke:#000000;stroke-width:1px;stroke-linecap:butt;stroke-linejoin:miter;stroke-opacity:1"
       id="path2985-6-4-0"
       sodipodi:cx="21.785715"
       sodipodi:cy="29.862181"
       sodipodi:rx="3.2142856"
       sodipodi:ry="3.2142856"
       d="m 25.000001,29.862181 a 3.2142856,3.2142856 0 1 1 -6.428572,0 3.2142856,3.2142856 0 1 1 6.428572,0 z" />
    <path
       transform="translate(56.928571,113.78572)"
       sodipodi:type="arc"
       style="fill:#000000;fill-opacity:1;fill-rule:evenodd;stroke:#000000;stroke-width:1px;stroke-linecap:butt;stroke-linejoin:miter;stroke-opacity:1"
       id="path2985-8-8-5"
       sodipodi:cx="21.785715"
       sodipodi:cy="29.862181"
       sodipodi:rx="3.2142856"
       sodipodi:ry="3.2142856"
       d="m 25.000001,29.862181 a 3.2142856,3.2142856 0 1 1 -6.428572,0 3.2142856,3.2142856 0 1 1 6.428572,0 z" />
    <path
       transform="translate(116.92857,113.78572)"
       sodipodi:type="arc"
       style="fill:#000000;fill-opacity:1;fill-rule:evenodd;stroke:#000000;stroke-width:1px;stroke-linecap:butt;stroke-linejoin:miter;stroke-opacity:1"
       id="path2985-62-16-7"
       sodipodi:cx="21.785715"
       sodipodi:cy="29.862181"
       sodipodi:rx="3.2142856"
       sodipodi:ry="3.2142856"
       d="m 25.000001,29.862181 a 3.2142856,3.2142856 0 1 1 -6.428572,0 3.2142856,3.2142856 0 1 1 6.428572,0 z" />
    <path
       transform="translate(86.928571,113.78572)"
       sodipodi:type="arc"
       style="fill:#000000;fill-opacity:1;fill-rule:evenodd;stroke:#000000;stroke-width:1px;stroke-linecap:butt;stroke-linejoin:miter;stroke-opacity:1"
       id="path2985-4-8-3"
       sodipodi:cx="21.785715"
       sodipodi:cy="29.862181"
       sodipodi:rx="3.2142856"
       sodipodi:ry="3.2142856"
       d="m 25.000001,29.862181 a 3.2142856,3.2142856 0 1 1 -6.428572,0 3.2142856,3.2142856 0 1 1 6.428572,0 z" />
    <path
       transform="translate(146.92857,113.78572)"
       sodipodi:type="arc"
       style="fill:#000000;fill-opacity:1;fill-rule:evenodd;stroke:#000000;stroke-width:1px;stroke-linecap:butt;stroke-linejoin:miter;stroke-opacity:1"
       id="path2985-7-5-2"
       sodipodi:cx="21.785715"
       sodipodi:cy="29.862181"
       sodipodi:rx="3.2142856"
       sodipodi:ry="3.2142856"
       d="m 25.000001,29.862181 a 3.2142856,3.2142856 0 1 1 -6.428572,0 3.2142856,3.2142856 0 1 1 6.428572,0 z" />
    <path
       sodipodi:type="arc"
       style="fill:#000000;fill-opacity:1;fill-rule:evenodd;stroke:#000000;stroke-width:1px;stroke-linecap:butt;stroke-linejoin:miter;stroke-opacity:1"
       id="path2985-48-5-6"
       sodipodi:cx="21.785715"
       sodipodi:cy="29.862181"
       sodipodi:rx="3.2142856"
       sodipodi:ry="3.2142856"
       d="m 25.000001,29.862181 a 3.2142856,3.2142856 0 1 1 -6.428572,0 3.2142856,3.2142856 0 1 1 6.428572,0 z"
       transform="translate(-3.0714295,143.78572)" />
    <path
       transform="translate(26.92857,143.78572)"
       sodipodi:type="arc"
       style="fill:#000000;fill-opacity:1;fill-rule:evenodd;stroke:#000000;stroke-width:1px;stroke-linecap:butt;stroke-linejoin:miter;stroke-opacity:1"
       id="path2985-6-4-0-0"
       sodipodi:cx="21.785715"
       sodipodi:cy="29.862181"
       sodipodi:rx="3.2142856"
       sodipodi:ry="3.2142856"
       d="m 25.000001,29.862181 a 3.2142856,3.2142856 0 1 1 -6.428572,0 3.2142856,3.2142856 0 1 1 6.428572,0 z" />
    <path
       transform="translate(56.92857,143.78572)"
       sodipodi:type="arc"
       style="fill:#000000;fill-opacity:1;fill-rule:evenodd;stroke:#000000;stroke-width:1px;stroke-linecap:butt;stroke-linejoin:miter;stroke-opacity:1"
       id="path2985-8-8-5-3"
       sodipodi:cx="21.785715"
       sodipodi:cy="29.862181"
       sodipodi:rx="3.2142856"
       sodipodi:ry="3.2142856"
       d="m 25.000001,29.862181 a 3.2142856,3.2142856 0 1 1 -6.428572,0 3.2142856,3.2142856 0 1 1 6.428572,0 z" />
    <path
       transform="translate(116.92857,143.78572)"
       sodipodi:type="arc"
       style="fill:#000000;fill-opacity:1;fill-rule:evenodd;stroke:#000000;stroke-width:1px;stroke-linecap:butt;stroke-linejoin:miter;stroke-opacity:1"
       id="path2985-62-16-7-3"
       sodipodi:cx="21.785715"
       sodipodi:cy="29.862181"
       sodipodi:rx="3.2142856"
       sodipodi:ry="3.2142856"
       d="m 25.000001,29.862181 a 3.2142856,3.2142856 0 1 1 -6.428572,0 3.2142856,3.2142856 0 1 1 6.428572,0 z" />
    <path
       transform="translate(86.92857,143.78572)"
       sodipodi:type="arc"
       style="fill:#000000;fill-opacity:1;fill-rule:evenodd;stroke:#000000;stroke-width:1px;stroke-linecap:butt;stroke-linejoin:miter;stroke-opacity:1"
       id="path2985-4-8-3-6"
       sodipodi:cx="21.785715"
       sodipodi:cy="29.862181"
       sodipodi:rx="3.2142856"
       sodipodi:ry="3.2142856"
       d="m 25.000001,29.862181 a 3.2142856,3.2142856 0 1 1 -6.428572,0 3.2142856,3.2142856 0 1 1 6.428572,0 z" />
    <path
       transform="translate(146.92857,143.78572)"
       sodipodi:type="arc"
       style="fill:#000000;fill-opacity:1;fill-rule:evenodd;stroke:#000000;stroke-width:1px;stroke-linecap:butt;stroke-linejoin:miter;stroke-opacity:1"
       id="path2985-7-5-2-1"
       sodipodi:cx="21.785715"
       sodipodi:cy="29.862181"
       sodipodi:rx="3.2142856"
       sodipodi:ry="3.2142856"
       d="m 25.000001,29.862181 a 3.2142856,3.2142856 0 1 1 -6.428572,0 3.2142856,3.2142856 0 1 1 6.428572,0 z" />
    <path
       sodipodi:type="arc"
       style="fill:none;stroke:#000000;stroke-width:1px;stroke-linecap:butt;stroke-linejoin:miter;stroke-opacity:1"
       id="path3018"
       sodipodi:cx="95.714287"
       sodipodi:cy="100.21932"
       sodipodi:rx="6.4285712"
       sodipodi:ry="6.4285712"
       d="m 102.14286,100.21932 a 6.4285712,6.4285712 0 1 1 -12.857144,0 6.4285712,6.4285712 0 1 1 12.857144,0 z"
       transform="translate(-1.4285714,-2.1428571)" />
    <path
       style="fill:none;stroke:#000000;stroke-width:1px;stroke-linecap:butt;stroke-linejoin:miter;stroke-opacity:1"
       d="m 220,200.21933 c 160.71429,0 159.28571,0 159.28571,0"
       id="path3788"
       inkscape:connector-curvature="0" />
    <path
       style="fill:none;stroke:#000000;stroke-width:1px;stroke-linecap:butt;stroke-linejoin:miter;stroke-opacity:1"
       d="m 219.64286,214.21933 c 160.71429,0 159.28571,0 159.28571,0"
       id="path3788-9"
       inkscape:connector-curvature="0" />
    <path
       style="fill:none;stroke:#000000;stroke-width:1px;stroke-linecap:butt;stroke-linejoin:miter;stroke-opacity:1"
       d="m 220.10714,228.50504 c 160.71429,0 159.28571,0 159.28571,0"
       id="path3788-0"
       inkscape:connector-curvature="0" />
    <path
       style="fill:none;stroke:#000000;stroke-width:1px;stroke-linecap:butt;stroke-linejoin:miter;stroke-opacity:1"
       d="m 219.75,242.50504 c 160.71429,0 159.28571,0 159.28571,0"
       id="path3788-9-3"
       inkscape:connector-curvature="0" />
    <path
       style="fill:none;stroke:#000000;stroke-width:1px;stroke-linecap:butt;stroke-linejoin:miter;stroke-opacity:1"
       d="m 220.37244,257.17175 c 160.71429,0 159.28571,0 159.28571,0"
       id="path3788-9-3-6"
       inkscape:connector-curvature="0" />
    <path
       style="fill:none;stroke:#000000;stroke-width:1px;stroke-linecap:butt;stroke-linejoin:miter;stroke-opacity:1"
       d="m 17.142857,39.50504 343.571433,0 0,160.53571"
       id="path3847"
       inkscape:connector-curvature="0" />
    <path
       style="fill:none;stroke:#000000;stroke-width:1px;stroke-linecap:butt;stroke-linejoin:miter;stroke-opacity:1"
       d="m 351.78562,242.21984 0,-202.535585"
       id="path3849"
       inkscape:connector-curvature="0" />
    <path
       style="fill:none;stroke:#000000;stroke-width:1px;stroke-linecap:butt;stroke-linejoin:miter;stroke-opacity:1"
       d="m 346.42857,257.00504 0,-217.447054"
       id="path3851"
       inkscape:connector-curvature="0" />
    <path
       style="fill:none;stroke:#000000;stroke-width:1px;stroke-linecap:butt;stroke-linejoin:miter;stroke-opacity:1"
       d="m 18.182746,98.77818 314.662514,0 0,115.15739"
       id="path3853"
       inkscape:connector-curvature="0" />
    <path
       style="fill:none;stroke:#000000;stroke-width:1px;stroke-linecap:butt;stroke-linejoin:miter;stroke-opacity:1"
       d="m 324.51151,242.47238 0,-143.681626"
       id="path3855"
       inkscape:connector-curvature="0" />
    <path
       style="fill:none;stroke:#000000;stroke-width:1px;stroke-linecap:butt;stroke-linejoin:miter;stroke-opacity:1"
       d="M 315,257.00504 315,98.076468"
       id="path3857"
       inkscape:connector-curvature="0" />
    <path
       style="fill:none;stroke:#000000;stroke-width:1px;stroke-linecap:butt;stroke-linejoin:miter;stroke-opacity:1"
       d="m 17.172593,159.89241 278.297027,0 0,68.5641"
       id="path3859"
       inkscape:connector-curvature="0" />
    <path
       style="fill:none;stroke:#000000;stroke-width:1px;stroke-linecap:butt;stroke-linejoin:miter;stroke-opacity:1"
       d="m 288.90363,242.21984 0,-82.07489"
       id="path3861"
       inkscape:connector-curvature="0" />
    <path
       style="fill:none;stroke:#000000;stroke-width:1px;stroke-linecap:butt;stroke-linejoin:miter;stroke-opacity:1"
       d="m 280.31733,257.11959 0,-97.47972"
       id="path3863"
       inkscape:connector-curvature="0" />
    <path
       style="fill:none;stroke:#000000;stroke-width:1px;stroke-linecap:butt;stroke-linejoin:miter;stroke-opacity:1"
       d="m 18.435284,24.531968 0,28.789347"
       id="path3865"
       inkscape:connector-curvature="0" />
    <path
       style="fill:none;stroke:#000000;stroke-width:1px;stroke-linecap:butt;stroke-linejoin:miter;stroke-opacity:1"
       d="m 48.992398,23.521815 0,30.304577"
       id="path3867"
       inkscape:connector-curvature="0" />
    <path
       style="fill:none;stroke:#000000;stroke-width:1px;stroke-linecap:butt;stroke-linejoin:miter;stroke-opacity:1"
       d="m 78.791899,24.026891 0,29.041886 0.505076,0.505076"
       id="path3869"
       inkscape:connector-curvature="0" />
    <path
       style="fill:none;stroke:#000000;stroke-width:1px;stroke-linecap:butt;stroke-linejoin:miter;stroke-opacity:1"
       d="m 108.5914,23.269277 0,30.809653"
       id="path3871"
       inkscape:connector-curvature="0" />
    <path
       style="fill:none;stroke:#000000;stroke-width:1px;stroke-linecap:butt;stroke-linejoin:miter;stroke-opacity:1"
       d="m 138.3909,22.764201 0,31.819805"
       id="path3873"
       inkscape:connector-curvature="0" />
    <path
       style="fill:none;stroke:#000000;stroke-width:1px;stroke-linecap:butt;stroke-linejoin:miter;stroke-opacity:1"
       d="m 168.44294,23.521815 0,29.7995"
       id="path3875"
       inkscape:connector-curvature="0" />
    <path
       style="fill:none;stroke:#000000;stroke-width:1px;stroke-linecap:butt;stroke-linejoin:miter;stroke-opacity:1"
       d="m 19.192898,83.87843 0,30.55711"
       id="path3877"
       inkscape:connector-curvature="0" />
    <path
       style="fill:none;stroke:#000000;stroke-width:1px;stroke-linecap:butt;stroke-linejoin:miter;stroke-opacity:1"
       d="m 48.73986,84.130968 0,29.041882"
       id="path3879"
       inkscape:connector-curvature="0" />
    <path
       style="fill:none;stroke:#000000;stroke-width:1px;stroke-linecap:butt;stroke-linejoin:miter;stroke-opacity:1"
       d="m 79.549513,83.120815 0,30.809655"
       id="path3881"
       inkscape:connector-curvature="0" />
    <path
       style="fill:none;stroke:#000000;stroke-width:1px;stroke-linecap:butt;stroke-linejoin:miter;stroke-opacity:1"
       d="m 108.84394,83.625892 0,29.799498"
       id="path3883"
       inkscape:connector-curvature="0" />
    <path
       style="fill:none;stroke:#000000;stroke-width:1px;stroke-linecap:butt;stroke-linejoin:miter;stroke-opacity:1"
       d="m 138.89597,83.625892 0,29.294428"
       id="path3885"
       inkscape:connector-curvature="0" />
    <path
       style="fill:none;stroke:#000000;stroke-width:1px;stroke-linecap:butt;stroke-linejoin:miter;stroke-opacity:1"
       d="m 169.20055,83.373353 0,31.314727"
       id="path3887"
       inkscape:connector-curvature="0" />
    <path
       style="fill:none;stroke:#000000;stroke-width:1px;stroke-linecap:butt;stroke-linejoin:miter;stroke-opacity:1"
       d="m 18.435284,143.98251 0,29.54696"
       id="path3889"
       inkscape:connector-curvature="0" />
    <path
       style="fill:none;stroke:#000000;stroke-width:1px;stroke-linecap:butt;stroke-linejoin:miter;stroke-opacity:1"
       d="m 49.244937,143.98251 0,29.7995"
       id="path3891"
       inkscape:connector-curvature="0" />
    <path
       style="fill:none;stroke:#000000;stroke-width:1px;stroke-linecap:butt;stroke-linejoin:miter;stroke-opacity:1"
       d="m 78.791899,143.72997 0,29.7995"
       id="path3893"
       inkscape:connector-curvature="0" />
    <path
       style="fill:none;stroke:#000000;stroke-width:1px;stroke-linecap:butt;stroke-linejoin:miter;stroke-opacity:1"
       d="m 109.09647,143.72997 0,29.7995"
       id="path3895"
       inkscape:connector-curvature="0" />
    <path
       style="fill:none;stroke:#000000;stroke-width:1px;stroke-linecap:butt;stroke-linejoin:miter;stroke-opacity:1"
       d="m 138.89597,143.72997 0,30.30457"
       id="path3897"
       inkscape:connector-curvature="0" />
    <path
       style="fill:none;stroke:#000000;stroke-width:1px;stroke-linecap:butt;stroke-linejoin:miter;stroke-opacity:1"
       d="m 168.69548,143.22489 0,30.80965"
       id="path3899"
       inkscape:connector-curvature="0" />
    <text
       xml:space="preserve"
       style="font-size:12px;font-style:normal;font-weight:normal;line-height:125%;letter-spacing:0px;word-spacing:0px;fill:#000000;fill-opacity:1;stroke:none;font-family:Bitstream Vera Sans"
       x="380.86813"
       y="202.80359"
       id="text3901"
       sodipodi:linespacing="125%"><tspan
         sodipodi:role="line"
         id="tspan3903"
         x="380.86813"
         y="202.80359">A</tspan></text>
    <text
       xml:space="preserve"
       style="font-size:12px;font-style:normal;font-weight:normal;line-height:125%;letter-spacing:0px;word-spacing:0px;fill:#000000;fill-opacity:1;stroke:none;font-family:Bitstream Vera Sans"
       x="380.86813"
       y="215.91527"
       id="text3905"
       sodipodi:linespacing="125%"><tspan
         sodipodi:role="line"
         id="tspan3907"
         x="380.86813"
         y="215.91527">B</tspan></text>
    <text
       xml:space="preserve"
       style="font-size:12px;font-style:normal;font-weight:normal;line-height:125%;letter-spacing:0px;word-spacing:0px;fill:#000000;fill-opacity:1;stroke:none;font-family:Bitstream Vera Sans"
       x="380.59256"
       y="229.76155"
       id="text3909"
       sodipodi:linespacing="125%"><tspan
         sodipodi:role="line"
         id="tspan3911"
         x="380.59256"
         y="229.76155">C</tspan></text>
    <text
       xml:space="preserve"
       style="font-size:12px;font-style:normal;font-weight:normal;line-height:125%;letter-spacing:0px;word-spacing:0px;fill:#000000;fill-opacity:1;stroke:none;font-family:Bitstream Vera Sans"
       x="380.61792"
       y="243.39861"
       id="text3913"
       sodipodi:linespacing="125%"><tspan
         sodipodi:role="line"
         id="tspan3915"
         x="380.61792"
         y="243.39861">N</tspan></text>
    <text
       xml:space="preserve"
       style="font-size:12px;font-style:normal;font-weight:normal;line-height:125%;letter-spacing:0px;word-spacing:0px;fill:#000000;fill-opacity:1;stroke:none;font-family:Bitstream Vera Sans"
       x="381.41382"
       y="258.32135"
       id="text3917"
       sodipodi:linespacing="125%"><tspan
         sodipodi:role="line"
         id="tspan3919"
         x="381.41382"
         y="258.32135">PE</tspan></text>
  </g>
</svg>
