\relax 
\catcode`"\active
\select@language{ukrainian}
\@writefile{toc}{\select@language{ukrainian}}
\@writefile{lof}{\select@language{ukrainian}}
\@writefile{lot}{\select@language{ukrainian}}
\@writefile{toc}{\contentsline {section}{\numberline {1}\IeC {\CYRL }\IeC {\cyra }\IeC {\cyrb }\IeC {\cyro }\IeC {\cyrr }\IeC {\cyra }\IeC {\cyrt }\IeC {\cyro }\IeC {\cyrr }\IeC {\cyrn }\IeC {\cyra } \IeC {\cyrr }\IeC {\cyro }\IeC {\cyrb }\IeC {\cyro }\IeC {\cyrt }\IeC {\cyra } 5. \IeC {\CYRR }\IeC {\cyro }\IeC {\cyrb }\IeC {\cyro }\IeC {\cyrt }\IeC {\cyra } \IeC {\cyrz } \IeC {\cyrt }\IeC {\cyra }\IeC {\cyrishrt }\IeC {\cyrm }\IeC {\cyre }\IeC {\cyrr }\IeC {\cyra }\IeC {\cyrm }\IeC {\cyri }.}{1}}
\@writefile{toc}{\contentsline {subsection}{\numberline {1.1}\IeC {\CYRD }\IeC {\cyri }\IeC {\cyrn }\IeC {\cyra }\IeC {\cyrm }\IeC {\cyrii }\IeC {\cyrch }\IeC {\cyrn }\IeC {\cyra } \IeC {\cyrii }\IeC {\cyrn }\IeC {\cyrd }\IeC {\cyri }\IeC {\cyrk }\IeC {\cyra }\IeC {\cyrc }\IeC {\cyrii }\IeC {\cyrya }}{1}}
\newlabel{fig:dyn_ind}{{1.1}{1}}
\@writefile{lof}{\contentsline {figure}{\numberline {1}{\ignorespaces \IeC {\CYRS }\IeC {\cyrh }\IeC {\cyre }\IeC {\cyrm }\IeC {\cyra } \IeC {\cyrd }\IeC {\cyri }\IeC {\cyrn }\IeC {\cyra }\IeC {\cyrm }\IeC {\cyrii }\IeC {\cyrch }\IeC {\cyrn }\IeC {\cyro }\IeC {\cyryi } \IeC {\cyrii }\IeC {\cyrn }\IeC {\cyrd }\IeC {\cyri }\IeC {\cyrk }\IeC {\cyra }\IeC {\cyrc }\IeC {\cyrii }\IeC {\cyryi }}}{1}}
\@writefile{lof}{\contentsline {figure}{\numberline {2}{\ignorespaces \IeC {\CYRS }\IeC {\cyrh }\IeC {\cyre }\IeC {\cyrm }\IeC {\cyra } \IeC {\cyrr }\IeC {\cyro }\IeC {\cyrz }\IeC {\cyrt }\IeC {\cyra }\IeC {\cyrsh }\IeC {\cyru }\IeC {\cyrv }\IeC {\cyra }\IeC {\cyrn }\IeC {\cyrn }\IeC {\cyrya } \IeC {\cyrs }\IeC {\cyre }\IeC {\cyrg }\IeC {\cyrm }\IeC {\cyre }\IeC {\cyrn }\IeC {\cyrt }\IeC {\cyrii }\IeC {\cyrv } \IeC {\cyrr }\IeC {\cyro }\IeC {\cyrz }\IeC {\cyrr }\IeC {\cyrya }\IeC {\cyrd }\IeC {\cyru } \IeC {\cyrd }\IeC {\cyri }\IeC {\cyrn }\IeC {\cyra }\IeC {\cyrm }\IeC {\cyrii }\IeC {\cyrch }\IeC {\cyrn }\IeC {\cyro }\IeC {\cyrg }\IeC {\cyro } \IeC {\cyrii }\IeC {\cyrn }\IeC {\cyrd }\IeC {\cyri }\IeC {\cyrk }\IeC {\cyra }\IeC {\cyrt }\IeC {\cyro }\IeC {\cyrr }\IeC {\cyra }}}{1}}
\@writefile{toc}{\contentsline {subsection}{\numberline {1.2}C\IeC {\cyrt }\IeC {\cyro }\IeC {\cyrr }\IeC {\cyro }\IeC {\cyrzh }\IeC {\cyro }\IeC {\cyrv }\IeC {\cyri }\IeC {\cyrishrt } \IeC {\cyrt }\IeC {\cyra }\IeC {\cyrishrt }\IeC {\cyrm }\IeC {\cyre }\IeC {\cyrr }}{2}}
\@writefile{lof}{\contentsline {figure}{\numberline {3}{\ignorespaces \IeC {\CYRS }\IeC {\cyrt }\IeC {\cyrr }\IeC {\cyru }\IeC {\cyrk }\IeC {\cyrt }\IeC {\cyru }\IeC {\cyrr }\IeC {\cyra } \IeC {\cyrs }\IeC {\cyrt }\IeC {\cyro }\IeC {\cyrr }\IeC {\cyro }\IeC {\cyrzh }\IeC {\cyro }\IeC {\cyrv }\IeC {\cyro }\IeC {\cyrg }\IeC {\cyro } \IeC {\cyrt }\IeC {\cyra }\IeC {\cyrishrt }\IeC {\cyrm }\IeC {\cyre }\IeC {\cyrr }\IeC {\cyra }}}{3}}
\newlabel{fig:watchdog_structure}{{3}{3}}
\newlabel{tab:watchdog_scaling}{{1.2}{4}}
\@writefile{toc}{\contentsline {subsection}{\numberline {1.3}\IeC {\CYRV }\IeC {\cyra }\IeC {\cyrr }\IeC {\cyrii }\IeC {\cyra }\IeC {\cyrn }\IeC {\cyrt }\IeC {\cyri } \IeC {\cyrz }\IeC {\cyra }\IeC {\cyrv }\IeC {\cyrd }\IeC {\cyra }\IeC {\cyrn }\IeC {\cyrn }\IeC {\cyrya }}{4}}
\newlabel{tab:task5}{{1.3}{5}}
\@writefile{lot}{\contentsline {table}{\numberline {1}{\ignorespaces \IeC {\CYRZ }\IeC {\cyra }\IeC {\cyrv }\IeC {\cyrd }\IeC {\cyra }\IeC {\cyrn }\IeC {\cyrn }\IeC {\cyrya } \IeC {\cyrn }\IeC {\cyra } \IeC {\cyrl }\IeC {\cyra }\IeC {\cyrb }\IeC {\cyro }\IeC {\cyrr }\IeC {\cyra }\IeC {\cyrt }\IeC {\cyro }\IeC {\cyrr }\IeC {\cyrn }\IeC {\cyru } \IeC {\cyrr }\IeC {\cyro }\IeC {\cyrb }\IeC {\cyro }\IeC {\cyrt }\IeC {\cyru }}}{5}}
