\relax 
\catcode`"\active
\select@language{ukrainian}
\@writefile{toc}{\select@language{ukrainian}}
\@writefile{lof}{\select@language{ukrainian}}
\@writefile{lot}{\select@language{ukrainian}}
\@writefile{toc}{\contentsline {section}{\numberline {1}\IeC {\CYRZ }\IeC {\cyra }\IeC {\cyrv }\IeC {\cyrd }\IeC {\cyra }\IeC {\cyrn }\IeC {\cyrn }\IeC {\cyrya }}{2}}
\@writefile{toc}{\contentsline {section}{\numberline {2}\IeC {\CYRO }\IeC {\cyrp }\IeC {\cyri }\IeC {\cyrs } \IeC {\cyrp }\IeC {\cyrr }\IeC {\cyro }\IeC {\cyrg }\IeC {\cyrr }\IeC {\cyra }\IeC {\cyrm }\IeC {\cyri }}{2}}
\@writefile{toc}{\contentsline {section}{\numberline {3}\IeC {\CYRK }\IeC {\cyro }\IeC {\cyrd }}{2}}
\@writefile{lol}{\contentsline {lstlisting}{\numberline {1}VHDLtransformer.java}{2}}
\@writefile{toc}{\contentsline {section}{\numberline {4}\IeC {\CYRV }\IeC {\cyri }\IeC {\cyrs }\IeC {\cyrn }\IeC {\cyro }\IeC {\cyrv }\IeC {\cyrk }\IeC {\cyri }}{9}}
\ttl@finishall
