\relax 
\catcode`"\active
\select@language{ukrainian}
\@writefile{toc}{\select@language{ukrainian}}
\@writefile{lof}{\select@language{ukrainian}}
\@writefile{lot}{\select@language{ukrainian}}
\@writefile{toc}{\contentsline {section}{\numberline {1}\IeC {\CYRI }\IeC {\cyrd }\IeC {\cyre }\IeC {\cyrya } \IeC {\cyri }\IeC {\cyrn }\IeC {\cyrf }\IeC {\cyrr }\IeC {\cyra }\IeC {\cyrs }\IeC {\cyrt }\IeC {\cyrr }\IeC {\cyru }\IeC {\cyrk }\IeC {\cyrt }\IeC {\cyru }\IeC {\cyrr }\IeC {\cyrery }}{2}}
\@writefile{toc}{\contentsline {section}{\numberline {2}\IeC {\CYRG }\IeC {\cyrr }\IeC {\cyra }\IeC {\cyrf }\IeC {\cyrery } \IeC {\cyra }\IeC {\cyrv }\IeC {\cyrt }\IeC {\cyro }\IeC {\cyrm }\IeC {\cyra }\IeC {\cyrt }\IeC {\cyro }\IeC {\cyrv }}{2}}
\@writefile{toc}{\contentsline {section}{\numberline {3}\IeC {\CYRK }\IeC {\cyro }\IeC {\cyrd }}{4}}
\@writefile{lol}{\contentsline {lstlisting}{\numberline {1}main.cpp}{4}}
\@writefile{lol}{\contentsline {lstlisting}{\numberline {2}core.h}{5}}
\@writefile{lol}{\contentsline {lstlisting}{\numberline {3}core.cpp}{8}}
\@writefile{lol}{\contentsline {lstlisting}{\numberline {4}email.h}{8}}
\@writefile{lol}{\contentsline {lstlisting}{\numberline {5}email.cpp}{9}}
\@writefile{lol}{\contentsline {lstlisting}{\numberline {6}ini.h}{12}}
\@writefile{lol}{\contentsline {lstlisting}{\numberline {7}ini.cpp}{17}}
\ttl@finishall
