\relax 
\catcode`"\active
\select@language{ukrainian}
\@writefile{toc}{\select@language{ukrainian}}
\@writefile{lof}{\select@language{ukrainian}}
\@writefile{lot}{\select@language{ukrainian}}
\@writefile{toc}{\contentsline {section}{\numberline {1}\IeC {\CYRL }\IeC {\cyra }\IeC {\cyrb }\IeC {\cyro }\IeC {\cyrr }\IeC {\cyra }\IeC {\cyrt }\IeC {\cyro }\IeC {\cyrr }\IeC {\cyrn }\IeC {\cyra }\IeC {\cyrya } \IeC {\cyrr }\IeC {\cyra }\IeC {\cyrb }\IeC {\cyro }\IeC {\cyrt }\IeC {\cyra } \IeC {\textnumero }1. \IeC {\CYRR }\IeC {\cyra }\IeC {\cyrz }\IeC {\cyrr }\IeC {\cyra }\IeC {\cyrb }\IeC {\cyro }\IeC {\cyrt }\IeC {\cyrk }\IeC {\cyra } \IeC {\cyrp }\IeC {\cyrr }\IeC {\cyro }\IeC {\cyrg }\IeC {\cyrr }\IeC {\cyra }\IeC {\cyrm }\IeC {\cyrm }\IeC {\cyrn }\IeC {\cyro }\IeC {\cyrishrt } \IeC {\cyrr }\IeC {\cyre }\IeC {\cyra }\IeC {\cyrl }\IeC {\cyri }\IeC {\cyrz }\IeC {\cyra }\IeC {\cyrc }\IeC {\cyri }\IeC {\cyri } \IeC {\CYRB }\IeC {\cyrery }\IeC {\cyrs }\IeC {\cyrt }\IeC {\cyrr }\IeC {\cyro }\IeC {\cyrg }\IeC {\cyro } \IeC {\CYRP }\IeC {\cyrr }\IeC {\cyre }\IeC {\cyro }\IeC {\cyrb }\IeC {\cyrr }\IeC {\cyra }\IeC {\cyrz }\IeC {\cyro }\IeC {\cyrv }\IeC {\cyra }\IeC {\cyrn }\IeC {\cyri }\IeC {\cyrya } \IeC {\CYRF }\IeC {\cyru }\IeC {\cyrr }\IeC {\cyrsftsn }\IeC {\cyre }}{2}}
\@writefile{toc}{\contentsline {section}{\numberline {2}\IeC {\CYRV }\IeC {\cyra }\IeC {\cyrr }\IeC {\cyri }\IeC {\cyra }\IeC {\cyrn }\IeC {\cyrt }}{2}}
\@writefile{toc}{\contentsline {section}{\numberline {3}\IeC {\CYRR }\IeC {\cyre }\IeC {\cyrz }\IeC {\cyru }\IeC {\cyrl }\IeC {\cyrsftsn }\IeC {\cyrt }\IeC {\cyra }\IeC {\cyrt }\IeC {\cyrery } \IeC {\cyrr }\IeC {\cyra }\IeC {\cyrb }\IeC {\cyro }\IeC {\cyrt }\IeC {\cyrery }}{2}}
\@writefile{lof}{\contentsline {figure}{\numberline {1}{\ignorespaces \IeC {\CYRF }\IeC {\cyru }\IeC {\cyrn }\IeC {\cyrk }\IeC {\cyrc }\IeC {\cyri }\IeC {\cyrya } x(t)}}{2}}
\@writefile{lof}{\contentsline {figure}{\numberline {2}{\ignorespaces \IeC {\CYRA }\IeC {\CYRCH }\IeC {\CYRH } \IeC {\CYRB }\IeC {\CYRP }\IeC {\CYRF } \IeC {\cyrf }\IeC {\cyru }\IeC {\cyrn }\IeC {\cyrk }\IeC {\cyrc }\IeC {\cyri }\IeC {\cyri } x(t)}}{3}}
\@writefile{lof}{\contentsline {figure}{\numberline {3}{\ignorespaces \IeC {\CYRF }\IeC {\CYRCH }\IeC {\CYRH } \IeC {\CYRB }\IeC {\CYRP }\IeC {\CYRF } \IeC {\cyrf }\IeC {\cyru }\IeC {\cyrn }\IeC {\cyrk }\IeC {\cyrc }\IeC {\cyri }\IeC {\cyri } x(t)}}{3}}
\@writefile{lof}{\contentsline {figure}{\numberline {4}{\ignorespaces \IeC {\CYRA }\IeC {\CYRCH }\IeC {\CYRH } \IeC {\CYRD }\IeC {\CYRP }\IeC {\CYRF } \IeC {\cyrf }\IeC {\cyru }\IeC {\cyrn }\IeC {\cyrk }\IeC {\cyrc }\IeC {\cyri }\IeC {\cyri } x(t)}}{4}}
\@writefile{lof}{\contentsline {figure}{\numberline {5}{\ignorespaces \IeC {\CYRF }\IeC {\CYRCH }\IeC {\CYRH } \IeC {\CYRD }\IeC {\CYRP }\IeC {\CYRF } \IeC {\cyrf }\IeC {\cyru }\IeC {\cyrn }\IeC {\cyrk }\IeC {\cyrc }\IeC {\cyri }\IeC {\cyri } x(t)}}{4}}
\@writefile{toc}{\contentsline {section}{\numberline {4}\IeC {\CYRK }\IeC {\cyro }\IeC {\cyrd }}{4}}
\@writefile{lol}{\contentsline {lstlisting}{\numberline {1}Lab1.py}{4}}
\ttl@finishall
