\relax 
\catcode`"\active
\select@language{ukrainian}
\@writefile{toc}{\select@language{ukrainian}}
\@writefile{lof}{\select@language{ukrainian}}
\@writefile{lot}{\select@language{ukrainian}}
\@writefile{toc}{\contentsline {section}{\numberline {1}\IeC {\CYRZ }\IeC {\cyra }\IeC {\cyrd }\IeC {\cyra }\IeC {\cyrn }\IeC {\cyri }\IeC {\cyre }}{2}}
\@writefile{toc}{\contentsline {section}{\numberline {2}\IeC {\CYRV }\IeC {\cyra }\IeC {\cyrr }\IeC {\cyri }\IeC {\cyra }\IeC {\cyrn }\IeC {\cyrt }}{2}}
\@writefile{toc}{\contentsline {section}{\numberline {3}\IeC {\CYRT }\IeC {\cyre }\IeC {\cyrs }\IeC {\cyrt }\IeC {\cyri }\IeC {\cyrr }\IeC {\cyro }\IeC {\cyrv }\IeC {\cyra }\IeC {\cyrn }\IeC {\cyri }\IeC {\cyre }}{2}}
\@writefile{toc}{\contentsline {section}{\numberline {4}\IeC {\CYRV }\IeC {\cyrery }\IeC {\cyrv }\IeC {\cyro }\IeC {\cyrd }}{3}}
\ttl@finishall
