\relax 
\catcode`"\active
\select@language{ukrainian}
\@writefile{toc}{\select@language{ukrainian}}
\@writefile{lof}{\select@language{ukrainian}}
\@writefile{lot}{\select@language{ukrainian}}
\@writefile{toc}{\contentsline {section}{\numberline {1}\IeC {\CYRR }\IeC {\cyro }\IeC {\cyrz }\IeC {\cyrd }\IeC {\cyrii }\IeC {\cyrl } 1. \IeC {\CYRR }\IeC {\cyro }\IeC {\cyrz }\IeC {\cyrr }\IeC {\cyro }\IeC {\cyrb }\IeC {\cyrk }\IeC {\cyra } \IeC {\cyrp }\IeC {\cyrr }\IeC {\cyro }\IeC {\cyrg }\IeC {\cyrr }\IeC {\cyra }\IeC {\cyrm }\IeC {\cyri } \IeC {\cyrr }\IeC {\cyre }\IeC {\cyrg }\IeC {\cyrii }\IeC {\cyrs }\IeC {\cyrt }\IeC {\cyrr }\IeC {\cyra }\IeC {\cyrc }\IeC {\cyrii }\IeC {\cyryi } \IeC {\cyrk }\IeC {\cyro }\IeC {\cyrr }\IeC {\cyri }\IeC {\cyrs }\IeC {\cyrt }\IeC {\cyru }\IeC {\cyrv }\IeC {\cyra }\IeC {\cyrch }\IeC {\cyrii }\IeC {\cyrv }}{3}}
\@writefile{toc}{\contentsline {subsection}{\numberline {1.1}\IeC {\CYRZ }\IeC {\cyra }\IeC {\cyrv }\IeC {\cyrd }\IeC {\cyra }\IeC {\cyrn }\IeC {\cyrn }\IeC {\cyrya }}{3}}
\@writefile{toc}{\contentsline {subsection}{\numberline {1.2}\IeC {\CYRV }\IeC {\cyra }\IeC {\cyrr }\IeC {\cyrii }\IeC {\cyra }\IeC {\cyrn }\IeC {\cyrt }}{3}}
\@writefile{toc}{\contentsline {subsection}{\numberline {1.3}\IeC {\CYRP }\IeC {\cyrr }\IeC {\cyri }\IeC {\cyrk }\IeC {\cyrl }\IeC {\cyra }\IeC {\cyrd } \IeC {\cyrzh }\IeC {\cyru }\IeC {\cyrr }\IeC {\cyrn }\IeC {\cyra }\IeC {\cyrl }\IeC {\cyru } \IeC {\cyrr }\IeC {\cyre }\IeC {\cyrie }\IeC {\cyrs }\IeC {\cyrt }\IeC {\cyrr }\IeC {\cyra }\IeC {\cyrc }\IeC {\cyrii }\IeC {\cyryi }}{3}}
\@writefile{toc}{\contentsline {section}{\numberline {2}\IeC {\CYRR }\IeC {\cyro }\IeC {\cyrz }\IeC {\cyrd }\IeC {\cyrii }\IeC {\cyrl } 2. \IeC {\CYRR }\IeC {\cyro }\IeC {\cyrz }\IeC {\cyrr }\IeC {\cyro }\IeC {\cyrb }\IeC {\cyrk }\IeC {\cyra } \IeC {\cyrp }\IeC {\cyrr }\IeC {\cyro }\IeC {\cyrg }\IeC {\cyrr }\IeC {\cyra }\IeC {\cyrm }\IeC {\cyri } \IeC {\cyrk }\IeC {\cyre }\IeC {\cyrr }\IeC {\cyru }\IeC {\cyrv }\IeC {\cyra }\IeC {\cyrn }\IeC {\cyrn }\IeC {\cyrya } \IeC {\cyrd }\IeC {\cyro }\IeC {\cyrs }\IeC {\cyrt }\IeC {\cyru }\IeC {\cyrp }\IeC {\cyro }\IeC {\cyrm } \IeC {\cyrd }\IeC {\cyro } \IeC {\cyrz }\IeC {\cyra }\IeC {\cyrh }\IeC {\cyri }\IeC {\cyrshch }\IeC {\cyre }\IeC {\cyrn }\IeC {\cyro }\IeC {\cyrg }\IeC {\cyro } \IeC {\cyrn }\IeC {\cyro }\IeC {\cyrs }\IeC {\cyrii }\IeC {\cyrya }}{3}}
\@writefile{toc}{\contentsline {subsection}{\numberline {2.1}\IeC {\CYRZ }\IeC {\cyra }\IeC {\cyrv }\IeC {\cyrd }\IeC {\cyra }\IeC {\cyrn }\IeC {\cyrn }\IeC {\cyrya }}{3}}
\@writefile{toc}{\contentsline {section}{\numberline {3}\IeC {\CYRR }\IeC {\cyro }\IeC {\cyrz }\IeC {\cyrd }\IeC {\cyrii }\IeC {\cyrl } 3. \IeC {\CYRR }\IeC {\cyro }\IeC {\cyrz }\IeC {\cyrr }\IeC {\cyro }\IeC {\cyrb }\IeC {\cyrk }\IeC {\cyra } \IeC {\cyrp }\IeC {\cyrr }\IeC {\cyro }\IeC {\cyrg }\IeC {\cyrr }\IeC {\cyra }\IeC {\cyrm }\IeC {\cyri } \IeC {\cyra }\IeC {\cyru }\IeC {\cyrt }\IeC {\cyre }\IeC {\cyrn }\IeC {\cyrt }\IeC {\cyri }\IeC {\cyrf }\IeC {\cyrii }\IeC {\cyrk }\IeC {\cyra }\IeC {\cyrc }\IeC {\cyrii }\IeC {\cyryi }}{3}}
\@writefile{toc}{\contentsline {subsection}{\numberline {3.1}\IeC {\CYRZ }\IeC {\cyra }\IeC {\cyrv }\IeC {\cyrd }\IeC {\cyra }\IeC {\cyrn }\IeC {\cyrn }\IeC {\cyrya }}{3}}
\@writefile{toc}{\contentsline {subsection}{\numberline {3.2}\IeC {\CYRV }\IeC {\cyra }\IeC {\cyrr }\IeC {\cyrii }\IeC {\cyra }\IeC {\cyrn }\IeC {\cyrt }}{4}}
\@writefile{toc}{\contentsline {section}{\numberline {4}\IeC {\CYRR }\IeC {\cyro }\IeC {\cyrz }\IeC {\cyrd }\IeC {\cyrii }\IeC {\cyrl } 4. \IeC {\CYRR }\IeC {\cyro }\IeC {\cyrz }\IeC {\cyrr }\IeC {\cyro }\IeC {\cyrb }\IeC {\cyrk }\IeC {\cyra } \IeC {\cyrp }\IeC {\cyrr }\IeC {\cyro }\IeC {\cyrg }\IeC {\cyrr }\IeC {\cyra }\IeC {\cyrm }\IeC {\cyri } \IeC {\cyrm }\IeC {\cyro }\IeC {\cyrn }\IeC {\cyrii }\IeC {\cyrt }\IeC {\cyro }\IeC {\cyrr }\IeC {\cyri }\IeC {\cyrn }\IeC {\cyrg }\IeC {\cyru } \IeC {\cyrb }\IeC {\cyre }\IeC {\cyrz }\IeC {\cyrp }\IeC {\cyre }\IeC {\cyrk }\IeC {\cyri }}{4}}
\@writefile{toc}{\contentsline {subsection}{\numberline {4.1}\IeC {\CYRZ }\IeC {\cyra }\IeC {\cyrv }\IeC {\cyrd }\IeC {\cyra }\IeC {\cyrn }\IeC {\cyrn }\IeC {\cyrya }}{4}}
\@writefile{toc}{\contentsline {section}{\numberline {5}\IeC {\CYRK }\IeC {\cyro }\IeC {\cyrd } \IeC {\cyrd }\IeC {\cyro } \IeC {\cyrr }\IeC {\cyro }\IeC {\cyrz }\IeC {\cyrd }\IeC {\cyrii }\IeC {\cyrl }\IeC {\cyrii }\IeC {\cyrv } 1-4}{4}}
\@writefile{toc}{\contentsline {subsection}{\numberline {5.1}\IeC {\CYRK }\IeC {\cyro }\IeC {\cyrd } \IeC {\cyrd }\IeC {\cyro } \IeC {\cyrr }\IeC {\cyro }\IeC {\cyrz }\IeC {\cyrd }\IeC {\cyrii }\IeC {\cyrl }\IeC {\cyru } 1}{4}}
\@writefile{lol}{\contentsline {lstlisting}{\numberline {1}PasswordManager.java}{4}}
\@writefile{lol}{\contentsline {lstlisting}{\numberline {2}LoginAuthenticatorChecker.java}{7}}
\@writefile{lol}{\contentsline {lstlisting}{\numberline {3}LoginWindow.java}{7}}
\@writefile{lol}{\contentsline {lstlisting}{\numberline {4}LoginAuthenticationWindow.java}{8}}
\@writefile{toc}{\contentsline {subsection}{\numberline {5.2}\IeC {\CYRK }\IeC {\cyro }\IeC {\cyrd } \IeC {\cyrd }\IeC {\cyro } \IeC {\cyrr }\IeC {\cyro }\IeC {\cyrz }\IeC {\cyrd }\IeC {\cyrii }\IeC {\cyrl }\IeC {\cyru } 2}{9}}
\@writefile{lol}{\contentsline {lstlisting}{\numberline {5}FileTreeModel.java}{9}}
\@writefile{lol}{\contentsline {lstlisting}{\numberline {6}AccessController.java}{10}}
\@writefile{lol}{\contentsline {lstlisting}{\numberline {7}MainWindowFactory.java}{10}}
\@writefile{lol}{\contentsline {lstlisting}{\numberline {8}UserWindow.java}{11}}
\@writefile{lol}{\contentsline {lstlisting}{\numberline {9}AdminWindow.java}{11}}
\@writefile{lol}{\contentsline {lstlisting}{\numberline {10}AccountsTableModel.java}{13}}
\@writefile{toc}{\contentsline {subsection}{\numberline {5.3}\IeC {\CYRK }\IeC {\cyro }\IeC {\cyrd } \IeC {\cyrd }\IeC {\cyro } \IeC {\cyrr }\IeC {\cyro }\IeC {\cyrz }\IeC {\cyrd }\IeC {\cyrii }\IeC {\cyrl }\IeC {\cyru } 3}{14}}
\@writefile{lol}{\contentsline {lstlisting}{\numberline {11}WorkAuthenticator.java}{14}}
\@writefile{toc}{\contentsline {subsection}{\numberline {5.4}\IeC {\CYRK }\IeC {\cyro }\IeC {\cyrd } \IeC {\cyrd }\IeC {\cyro } \IeC {\cyrr }\IeC {\cyro }\IeC {\cyrz }\IeC {\cyrd }\IeC {\cyrii }\IeC {\cyrl }\IeC {\cyru } 4}{15}}
\@writefile{lol}{\contentsline {lstlisting}{\numberline {12}Logger.java}{15}}
\@writefile{toc}{\contentsline {section}{\numberline {6}\IeC {\CYRR }\IeC {\cyro }\IeC {\cyrz }\IeC {\cyrd }\IeC {\cyrii }\IeC {\cyrl } 5. \IeC {\CYRR }\IeC {\cyro }\IeC {\cyrz }\IeC {\cyrr }\IeC {\cyro }\IeC {\cyrb }\IeC {\cyrk }\IeC {\cyra } \IeC {\cyrp }\IeC {\cyrr }\IeC {\cyro }\IeC {\cyrg }\IeC {\cyrr }\IeC {\cyra }\IeC {\cyrm }\IeC {\cyri } \IeC {\cyrsh }\IeC {\cyrv }\IeC {\cyri }\IeC {\cyrd }\IeC {\cyrk }\IeC {\cyro }\IeC {\cyrg }\IeC {\cyro } \IeC {\cyrd }\IeC {\cyri }\IeC {\cyrs }\IeC {\cyrk }\IeC {\cyrr }\IeC {\cyre }\IeC {\cyrt }\IeC {\cyrn }\IeC {\cyro }\IeC {\cyrg }\IeC {\cyro } \IeC {\cyrp }\IeC {\cyro }\IeC {\cyrt }\IeC {\cyre }\IeC {\cyrn }\IeC {\cyrc }\IeC {\cyrii }\IeC {\cyryu }\IeC {\cyrv }\IeC {\cyra }\IeC {\cyrn }\IeC {\cyrn }\IeC {\cyrya }}{16}}
\@writefile{toc}{\contentsline {subsection}{\numberline {6.1}\IeC {\CYRZ }\IeC {\cyra }\IeC {\cyrv }\IeC {\cyrd }\IeC {\cyra }\IeC {\cyrn }\IeC {\cyrn }\IeC {\cyrya }}{16}}
\@writefile{toc}{\contentsline {section}{\numberline {7}\IeC {\CYRR }\IeC {\cyro }\IeC {\cyrz }\IeC {\cyrd }\IeC {\cyrii }\IeC {\cyrl } 6. \IeC {\CYRR }\IeC {\cyro }\IeC {\cyrz }\IeC {\cyrr }\IeC {\cyro }\IeC {\cyrb }\IeC {\cyrk }\IeC {\cyra } \IeC {\cyrg }\IeC {\cyre }\IeC {\cyrn }\IeC {\cyre }\IeC {\cyrr }\IeC {\cyra }\IeC {\cyrt }\IeC {\cyro }\IeC {\cyrr }\IeC {\cyra } \IeC {\cyrv }\IeC {\cyre }\IeC {\cyrl }\IeC {\cyri }\IeC {\cyrk }\IeC {\cyri }\IeC {\cyrh } \IeC {\cyrp }\IeC {\cyrr }\IeC {\cyro }\IeC {\cyrs }\IeC {\cyrt }\IeC {\cyri }\IeC {\cyrh } \IeC {\cyrch }\IeC {\cyri }\IeC {\cyrs }\IeC {\cyre }\IeC {\cyrl }}{16}}
\@writefile{toc}{\contentsline {subsection}{\numberline {7.1}\IeC {\CYRZ }\IeC {\cyra }\IeC {\cyrv }\IeC {\cyrd }\IeC {\cyra }\IeC {\cyrn }\IeC {\cyrn }\IeC {\cyrya }}{16}}
\@writefile{toc}{\contentsline {section}{\numberline {8}\IeC {\CYRR }\IeC {\cyro }\IeC {\cyrz }\IeC {\cyrd }\IeC {\cyrii }\IeC {\cyrl } 7. \IeC {\CYRR }\IeC {\cyro }\IeC {\cyrz }\IeC {\cyrr }\IeC {\cyro }\IeC {\cyrb }\IeC {\cyrk }\IeC {\cyra } \IeC {\cyrp }\IeC {\cyrr }\IeC {\cyro }\IeC {\cyrg }\IeC {\cyrr }\IeC {\cyra }\IeC {\cyrm }\IeC {\cyri } \IeC {\cyrk }\IeC {\cyre }\IeC {\cyrr }\IeC {\cyru }\IeC {\cyrv }\IeC {\cyra }\IeC {\cyrn }\IeC {\cyrn }\IeC {\cyrya } \IeC {\cyrk }\IeC {\cyrl }\IeC {\cyryu }\IeC {\cyrch }\IeC {\cyra }\IeC {\cyrm }\IeC {\cyri } \IeC {\cyrsh }\IeC {\cyri }\IeC {\cyrf }\IeC {\cyrr }\IeC {\cyru }\IeC {\cyrv }\IeC {\cyra }\IeC {\cyrn }\IeC {\cyrn }\IeC {\cyrya }}{16}}
\@writefile{toc}{\contentsline {subsection}{\numberline {8.1}\IeC {\CYRZ }\IeC {\cyra }\IeC {\cyrv }\IeC {\cyrd }\IeC {\cyra }\IeC {\cyrn }\IeC {\cyrn }\IeC {\cyrya }}{16}}
\@writefile{toc}{\contentsline {section}{\numberline {9}\IeC {\CYRR }\IeC {\cyro }\IeC {\cyrz }\IeC {\cyrd }\IeC {\cyrii }\IeC {\cyrl } 8. \IeC {\CYRR }\IeC {\cyro }\IeC {\cyrz }\IeC {\cyrr }\IeC {\cyro }\IeC {\cyrb }\IeC {\cyrk }\IeC {\cyra } \IeC {\cyrp }\IeC {\cyrr }\IeC {\cyro }\IeC {\cyrg }\IeC {\cyrr }\IeC {\cyra }\IeC {\cyrm }\IeC {\cyri } \IeC {\cyrf }\IeC {\cyro }\IeC {\cyrr }\IeC {\cyrm }\IeC {\cyru }\IeC {\cyrv }\IeC {\cyra }\IeC {\cyrn }\IeC {\cyrn }\IeC {\cyrya } \IeC {\cyrs }\IeC {\cyri }\IeC {\cyrg }\IeC {\cyrn }\IeC {\cyra }\IeC {\cyrt }\IeC {\cyru }\IeC {\cyrr }\IeC {\cyri } \IeC {\cyrp }\IeC {\cyro }\IeC {\cyrv }\IeC {\cyrii }\IeC {\cyrd }\IeC {\cyro }\IeC {\cyrm }\IeC {\cyrl }\IeC {\cyre }\IeC {\cyrn }\IeC {\cyrn }\IeC {\cyrya }}{16}}
\@writefile{toc}{\contentsline {subsection}{\numberline {9.1}\IeC {\CYRZ }\IeC {\cyra }\IeC {\cyrv }\IeC {\cyrd }\IeC {\cyra }\IeC {\cyrn }\IeC {\cyrn }\IeC {\cyrya }}{16}}
\@writefile{toc}{\contentsline {subsection}{\numberline {9.2}\IeC {\CYRV }\IeC {\cyra }\IeC {\cyrr }\IeC {\cyrii }\IeC {\cyra }\IeC {\cyrn }\IeC {\cyrt }}{16}}
\@writefile{toc}{\contentsline {section}{\numberline {10}\IeC {\CYRK }\IeC {\cyro }\IeC {\cyrd } \IeC {\cyrd }\IeC {\cyro } \IeC {\cyrr }\IeC {\cyro }\IeC {\cyrz }\IeC {\cyrd }\IeC {\cyrii }\IeC {\cyrl }\IeC {\cyrii }\IeC {\cyrv } 5-8}{16}}
\@writefile{toc}{\contentsline {subsection}{\numberline {10.1}\IeC {\CYRK }\IeC {\cyro }\IeC {\cyrd } \IeC {\cyrd }\IeC {\cyro } \IeC {\cyrr }\IeC {\cyro }\IeC {\cyrz }\IeC {\cyrd }\IeC {\cyrii }\IeC {\cyrl }\IeC {\cyru } 5}{16}}
\@writefile{lol}{\contentsline {lstlisting}{\numberline {13}Lab5.py}{16}}
\@writefile{toc}{\contentsline {subsection}{\numberline {10.2}\IeC {\CYRK }\IeC {\cyro }\IeC {\cyrd } \IeC {\cyrd }\IeC {\cyro } \IeC {\cyrr }\IeC {\cyro }\IeC {\cyrz }\IeC {\cyrd }\IeC {\cyrii }\IeC {\cyrl }\IeC {\cyru } 6}{17}}
\@writefile{lol}{\contentsline {lstlisting}{\numberline {14}Lab6.py}{17}}
\@writefile{toc}{\contentsline {subsection}{\numberline {10.3}\IeC {\CYRK }\IeC {\cyro }\IeC {\cyrd } \IeC {\cyrd }\IeC {\cyro } \IeC {\cyrr }\IeC {\cyro }\IeC {\cyrz }\IeC {\cyrd }\IeC {\cyrii }\IeC {\cyrl }\IeC {\cyru } 7}{18}}
\@writefile{lol}{\contentsline {lstlisting}{\numberline {15}Lab7.py}{18}}
\@writefile{toc}{\contentsline {subsection}{\numberline {10.4}\IeC {\CYRK }\IeC {\cyro }\IeC {\cyrd } \IeC {\cyrd }\IeC {\cyro } \IeC {\cyrr }\IeC {\cyro }\IeC {\cyrz }\IeC {\cyrd }\IeC {\cyrii }\IeC {\cyrl }\IeC {\cyru } 8}{20}}
\@writefile{lol}{\contentsline {lstlisting}{\numberline {16}Lab8.py}{20}}
\bibcite{bib:1}{1}
\bibcite{bib:2}{2}
\ttl@finishall
