\relax 
\catcode`"\active
\select@language{ukrainian}
\@writefile{toc}{\select@language{ukrainian}}
\@writefile{lof}{\select@language{ukrainian}}
\@writefile{lot}{\select@language{ukrainian}}
\providecommand*\caption@xref[2]{\@setref\relax\@undefined{#1}}
\newlabel{fig:scheme1}{{\caption@xref {fig:scheme1}{ on input line 96}}{2}}
\newlabel{fig:scheme2}{{\caption@xref {fig:scheme2}{ on input line 104}}{2}}
\citation{bib:processes}
\citation{bib:multitasking_prop}
\@writefile{toc}{\contentsline {section}{\numberline {1}\IeC {\CYRP }\IeC {\cyro }\IeC {\cyrr }\IeC {\cyrii }\IeC {\cyrv }\IeC {\cyrn }\IeC {\cyrya }\IeC {\cyrn }\IeC {\cyrn }\IeC {\cyrya } \IeC {\cyrz }\IeC {\cyra }\IeC {\cyrs }\IeC {\cyro }\IeC {\cyrb }\IeC {\cyrii }\IeC {\cyrv } \IeC {\cyrs }\IeC {\cyrt }\IeC {\cyrv }\IeC {\cyro }\IeC {\cyrr }\IeC {\cyre }\IeC {\cyrn }\IeC {\cyrn }\IeC {\cyrya } \IeC {\cyrp }\IeC {\cyrr }\IeC {\cyro }\IeC {\cyrc }\IeC {\cyre }\IeC {\cyrs }\IeC {\cyrs }\IeC {\cyrii }\IeC {\cyrv } \IeC {\cyru } \IeC {\cyrm }\IeC {\cyro }\IeC {\cyrv }\IeC {\cyra }\IeC {\cyrh } \IeC {\cyrp }\IeC {\cyrr }\IeC {\cyro }\IeC {\cyrg }\IeC {\cyrr }\IeC {\cyra }\IeC {\cyrm }\IeC {\cyru }\IeC {\cyrv }\IeC {\cyra }\IeC {\cyrn }\IeC {\cyrn }\IeC {\cyrya } \IeC {\cyrt }\IeC {\cyra } \IeC {\cyrb }\IeC {\cyrii }\IeC {\cyrb }\IeC {\cyrl }\IeC {\cyrii }\IeC {\cyro }\IeC {\cyrt }\IeC {\cyre }\IeC {\cyrk }\IeC {\cyra }\IeC {\cyrh }}{4}}
\@writefile{toc}{\contentsline {subsection}{\numberline {1.1}\IeC {\CYRO }\IeC {\cyrs }\IeC {\cyrn }\IeC {\cyro }\IeC {\cyrv }\IeC {\cyrn }\IeC {\cyrii } \IeC {\cyrp }\IeC {\cyro }\IeC {\cyrn }\IeC {\cyrya }\IeC {\cyrt }\IeC {\cyrt }\IeC {\cyrya }}{4}}
\@writefile{toc}{\contentsline {subsubsection}{\numberline {1.1.1}\IeC {\CYRP }\IeC {\cyrr }\IeC {\cyro }\IeC {\cyrc }\IeC {\cyre }\IeC {\cyrs }\IeC {\cyrs }\IeC {\cyri } \IeC {\cyrt }\IeC {\cyra } \IeC {\cyrb }\IeC {\cyra }\IeC {\cyrz }\IeC {\cyra }\IeC {\cyrt }\IeC {\cyro }\IeC {\cyrz }\IeC {\cyra }\IeC {\cyrd }\IeC {\cyra }\IeC {\cyrch }\IeC {\cyrn }\IeC {\cyrii }\IeC {\cyrs }\IeC {\cyrt }\IeC {\cyrsftsn }}{4}}
\@writefile{toc}{\contentsline {subsubsection}{\numberline {1.1.2}\IeC {\CYRP }\IeC {\cyro }\IeC {\cyrt }\IeC {\cyrii }\IeC {\cyrk } \IeC {\cyrt }\IeC {\cyra } \IeC {\cyrb }\IeC {\cyra }\IeC {\cyrg }\IeC {\cyra }\IeC {\cyrt }\IeC {\cyro }\IeC {\cyrp }\IeC {\cyro }\IeC {\cyrt }\IeC {\cyro }\IeC {\cyrch }\IeC {\cyrn }\IeC {\cyrii }\IeC {\cyrs }\IeC {\cyrt }\IeC {\cyrsftsn }}{4}}
\citation{bib:thread}
\citation{bib:thread_book1}
\citation{bib:thread_book2}
\citation{bib:multithreading}
\citation{bib:ada_concurrency}
\@writefile{toc}{\contentsline {subsection}{\numberline {1.2}\IeC {\CYRZ }\IeC {\cyra }\IeC {\cyrs }\IeC {\cyro }\IeC {\cyrb }\IeC {\cyri } \IeC {\cyrs }\IeC {\cyrt }\IeC {\cyrv }\IeC {\cyro }\IeC {\cyrr }\IeC {\cyre }\IeC {\cyrn }\IeC {\cyrn }\IeC {\cyrya } \IeC {\cyrp }\IeC {\cyrr }\IeC {\cyro }\IeC {\cyrc }\IeC {\cyre }\IeC {\cyrs }\IeC {\cyrii }\IeC {\cyrv } \IeC {\cyrt }\IeC {\cyra } \IeC {\cyrp }\IeC {\cyro }\IeC {\cyrt }\IeC {\cyro }\IeC {\cyrk }\IeC {\cyrii }\IeC {\cyrv }}{6}}
\@writefile{toc}{\contentsline {subsubsection}{\numberline {1.2.1}\IeC {\CYRM }\IeC {\cyro }\IeC {\cyrv }\IeC {\cyra } Ada}{6}}
\citation{bib:ada_tasks}
\citation{bib:java_book1}
\@writefile{toc}{\contentsline {subsubsection}{\numberline {1.2.2}\IeC {\CYRM }\IeC {\cyro }\IeC {\cyrv }\IeC {\cyra } Java}{8}}
\citation{bib:java_threads}
\citation{bib:java_startthread}
\citation{bib:csharp_article1}
\citation{bib:csharp_threading}
\@writefile{toc}{\contentsline {subsubsection}{\numberline {1.2.3}\IeC {\CYRM }\IeC {\cyro }\IeC {\cyrv }\IeC {\cyra } \IeC {\CYRS }\#}{10}}
\citation{bib:csharp_tcreate}
\citation{bib:winapi_tutorial}
\@writefile{toc}{\contentsline {subsubsection}{\numberline {1.2.4}WinAPI}{11}}
\citation{bib:winapi_book}
\@writefile{toc}{\contentsline {subsubsection}{\numberline {1.2.5}OpenMP}{12}}
\citation{bib:omp_general}
\citation{bib:omp_code}
\citation{bib:omp_methods}
\@writefile{toc}{\contentsline {subsubsection}{\numberline {1.2.6}POSIX Threads}{14}}
\citation{bib:posix_wiki}
\@writefile{lot}{\contentsline {table}{\numberline {1.1}{\ignorespaces \IeC {\CYRA }\IeC {\cyrt }\IeC {\cyrr }\IeC {\cyri }\IeC {\cyrb }\IeC {\cyru }\IeC {\cyrt }\IeC {\cyri } \IeC {\cyrp }\IeC {\cyro }\IeC {\cyrt }\IeC {\cyro }\IeC {\cyrk }\IeC {\cyrii }\IeC {\cyrv } POSIX\relax }}{17}}
\newlabel{tab:posix_attr}{{1.1}{17}}
\citation{bib:posix_book1}
\citation{bib:posix_book2}
\citation{bib:posix_thread}
\citation{bib:mpi}
\@writefile{toc}{\contentsline {subsubsection}{\numberline {1.2.7}MPI}{21}}
\citation{bib:mpi_book}
\citation{bib:mpi_book2}
\@writefile{toc}{\contentsline {subsubsection}{\numberline {1.2.8}PVM}{23}}
\citation{bib:pvm}
\citation{bib:pvm_example}
\@writefile{toc}{\contentsline {subsection}{\numberline {1.3}\IeC {\CYRV }\IeC {\cyri }\IeC {\cyrs }\IeC {\cyrn }\IeC {\cyro }\IeC {\cyrv }\IeC {\cyrk }\IeC {\cyri }}{28}}
\@writefile{toc}{\contentsline {section}{\numberline {2}\IeC {\CYRR }\IeC {\cyro }\IeC {\cyrz }\IeC {\cyrr }\IeC {\cyro }\IeC {\cyrb }\IeC {\cyrk }\IeC {\cyra } \IeC {\cyrp }\IeC {\cyrr }\IeC {\cyro }\IeC {\cyrg }\IeC {\cyrr }\IeC {\cyra }\IeC {\cyrm }\IeC {\cyrn }\IeC {\cyro }\IeC {\cyrg }\IeC {\cyro } \IeC {\cyrz }\IeC {\cyra }\IeC {\cyrb }\IeC {\cyre }\IeC {\cyrz }\IeC {\cyrp }\IeC {\cyre }\IeC {\cyrch }\IeC {\cyre }\IeC {\cyrn }\IeC {\cyrn }\IeC {\cyrya }}{30}}
\@writefile{toc}{\contentsline {subsection}{\numberline {2.1}\IeC {\CYRR }\IeC {\cyro }\IeC {\cyrz }\IeC {\cyrr }\IeC {\cyro }\IeC {\cyrb }\IeC {\cyrk }\IeC {\cyra } \IeC {\cyrp }\IeC {\cyrr }\IeC {\cyro }\IeC {\cyrg }\IeC {\cyrr }\IeC {\cyra }\IeC {\cyrm }\IeC {\cyrn }\IeC {\cyro }\IeC {\cyrg }\IeC {\cyro } \IeC {\cyrz }\IeC {\cyra }\IeC {\cyrb }\IeC {\cyre }\IeC {\cyrz }\IeC {\cyrp }\IeC {\cyre }\IeC {\cyrch }\IeC {\cyre }\IeC {\cyrn }\IeC {\cyrn }\IeC {\cyrya } \IeC {\cyrd }\IeC {\cyrl }\IeC {\cyrya } \IeC {\cyrs }\IeC {\cyri }\IeC {\cyrs }\IeC {\cyrt }\IeC {\cyre }\IeC {\cyrm }\IeC {\cyri } \IeC {\cyrz }\IeC {\cyrii } \IeC {\cyrs }\IeC {\cyrp }\IeC {\cyrii }\IeC {\cyrl }\IeC {\cyrsftsn }\IeC {\cyrn }\IeC {\cyro }\IeC {\cyryu } \IeC {\cyrp }\IeC {\cyra }\IeC {\cyrm }'\IeC {\cyrya }\IeC {\cyrt }\IeC {\cyrt }\IeC {\cyryu }}{30}}
\@writefile{toc}{\contentsline {subsubsection}{\numberline {2.1.1}\IeC {\CYRR }\IeC {\cyro }\IeC {\cyrz }\IeC {\cyrr }\IeC {\cyro }\IeC {\cyrb }\IeC {\cyrk }\IeC {\cyra } \IeC {\cyrp }\IeC {\cyra }\IeC {\cyrr }\IeC {\cyra }\IeC {\cyrl }\IeC {\cyre }\IeC {\cyrl }\IeC {\cyrsftsn }\IeC {\cyrn }\IeC {\cyro }\IeC {\cyrg }\IeC {\cyro } \IeC {\cyrm }\IeC {\cyra }\IeC {\cyrt }\IeC {\cyre }\IeC {\cyrm }\IeC {\cyra }\IeC {\cyrt }\IeC {\cyri }\IeC {\cyrch }\IeC {\cyrn }\IeC {\cyro }\IeC {\cyrg }\IeC {\cyro } \IeC {\cyra }\IeC {\cyrl }\IeC {\cyrg }\IeC {\cyro }\IeC {\cyrr }\IeC {\cyri }\IeC {\cyrt }\IeC {\cyrm }\IeC {\cyru }}{30}}
\@writefile{toc}{\contentsline {subsubsection}{\numberline {2.1.2}\IeC {\CYRR }\IeC {\cyro }\IeC {\cyrz }\IeC {\cyrr }\IeC {\cyro }\IeC {\cyrb }\IeC {\cyrk }\IeC {\cyra } \IeC {\cyra }\IeC {\cyrl }\IeC {\cyrg }\IeC {\cyro }\IeC {\cyrr }\IeC {\cyri }\IeC {\cyrt }\IeC {\cyrm }\IeC {\cyrii }\IeC {\cyrv } \IeC {\cyrp }\IeC {\cyrr }\IeC {\cyro }\IeC {\cyrc }\IeC {\cyre }\IeC {\cyrs }\IeC {\cyrii }\IeC {\cyrv }}{30}}
\@writefile{lot}{\contentsline {table}{\numberline {2.1}{\ignorespaces \IeC {\CYRA }\IeC {\cyrl }\IeC {\cyrg }\IeC {\cyro }\IeC {\cyrr }\IeC {\cyri }\IeC {\cyrt }\IeC {\cyrm } \IeC {\cyrp }\IeC {\cyro }\IeC {\cyrt }\IeC {\cyro }\IeC {\cyrk }\IeC {\cyru } $\text  {\IeC {\CYRT }}_{K}$. -- \IeC {\cyrn }\IeC {\cyro }\IeC {\cyrm }\IeC {\cyre }\IeC {\cyrr } \IeC {\cyrp }\IeC {\cyro }\IeC {\cyrt }\IeC {\cyro }\IeC {\cyrk }\IeC {\cyru }(Tid)\relax }}{30}}
\newlabel{tab:tab_shared_mem}{{2.1}{30}}
\@writefile{toc}{\contentsline {subsubsection}{\numberline {2.1.3}\IeC {\CYRR }\IeC {\cyro }\IeC {\cyrz }\IeC {\cyrr }\IeC {\cyro }\IeC {\cyrb }\IeC {\cyrk }\IeC {\cyra } \IeC {\cyrp }\IeC {\cyrr }\IeC {\cyro }\IeC {\cyrg }\IeC {\cyrr }\IeC {\cyra }\IeC {\cyrm }\IeC {\cyri }}{30}}
\@writefile{toc}{\contentsline {subsection}{\numberline {2.2}\IeC {\CYRR }\IeC {\cyro }\IeC {\cyrz }\IeC {\cyrr }\IeC {\cyro }\IeC {\cyrb }\IeC {\cyrk }\IeC {\cyra } \IeC {\cyrp }\IeC {\cyrr }\IeC {\cyro }\IeC {\cyrg }\IeC {\cyrr }\IeC {\cyra }\IeC {\cyrm }\IeC {\cyrn }\IeC {\cyro }\IeC {\cyrg }\IeC {\cyro } \IeC {\cyrz }\IeC {\cyra }\IeC {\cyrb }\IeC {\cyre }\IeC {\cyrz }\IeC {\cyrp }\IeC {\cyre }\IeC {\cyrch }\IeC {\cyre }\IeC {\cyrn }\IeC {\cyrn }\IeC {\cyrya } \IeC {\cyrd }\IeC {\cyrl }\IeC {\cyrya } \IeC {\cyrs }\IeC {\cyri }\IeC {\cyrs }\IeC {\cyrt }\IeC {\cyre }\IeC {\cyrm }\IeC {\cyri } \IeC {\cyrz } \IeC {\cyrl }\IeC {\cyro }\IeC {\cyrk }\IeC {\cyra }\IeC {\cyrl }\IeC {\cyrsftsn }\IeC {\cyrn }\IeC {\cyro }\IeC {\cyryu } \IeC {\cyrp }\IeC {\cyra }\IeC {\cyrm }'\IeC {\cyrya }\IeC {\cyrt }\IeC {\cyrt }\IeC {\cyryu }}{31}}
\@writefile{toc}{\contentsline {subsubsection}{\numberline {2.2.1}\IeC {\CYRR }\IeC {\cyro }\IeC {\cyrz }\IeC {\cyrr }\IeC {\cyro }\IeC {\cyrb }\IeC {\cyrk }\IeC {\cyra } \IeC {\cyrp }\IeC {\cyra }\IeC {\cyrr }\IeC {\cyra }\IeC {\cyrl }\IeC {\cyre }\IeC {\cyrl }\IeC {\cyrsftsn }\IeC {\cyrn }\IeC {\cyro }\IeC {\cyrg }\IeC {\cyro } \IeC {\cyrm }\IeC {\cyra }\IeC {\cyrt }\IeC {\cyre }\IeC {\cyrm }\IeC {\cyra }\IeC {\cyrt }\IeC {\cyri }\IeC {\cyrch }\IeC {\cyrn }\IeC {\cyro }\IeC {\cyrg }\IeC {\cyro } \IeC {\cyra }\IeC {\cyrl }\IeC {\cyrg }\IeC {\cyro }\IeC {\cyrr }\IeC {\cyri }\IeC {\cyrt }\IeC {\cyrm }\IeC {\cyru }}{31}}
\@writefile{toc}{\contentsline {subsubsection}{\numberline {2.2.2}\IeC {\CYRR }\IeC {\cyro }\IeC {\cyrz }\IeC {\cyrr }\IeC {\cyro }\IeC {\cyrb }\IeC {\cyrk }\IeC {\cyra } \IeC {\cyra }\IeC {\cyrl }\IeC {\cyrg }\IeC {\cyro }\IeC {\cyrr }\IeC {\cyri }\IeC {\cyrt }\IeC {\cyrm }\IeC {\cyrii }\IeC {\cyrv } \IeC {\cyrp }\IeC {\cyrr }\IeC {\cyro }\IeC {\cyrc }\IeC {\cyre }\IeC {\cyrs }\IeC {\cyrii }\IeC {\cyrv }}{31}}
\newlabel{tab:tab_shared_mem}{{2.2}{31}}
\@writefile{lot}{\contentsline {table}{\numberline {2.2}{\ignorespaces \IeC {\CYRA }\IeC {\cyrl }\IeC {\cyrg }\IeC {\cyro }\IeC {\cyrr }\IeC {\cyri }\IeC {\cyrt }\IeC {\cyrm } \IeC {\cyrp }\IeC {\cyro }\IeC {\cyrt }\IeC {\cyro }\IeC {\cyrk }\IeC {\cyru } $\text  {\IeC {\CYRT }}_{K}$. K -- \IeC {\cyrn }\IeC {\cyro }\IeC {\cyrm }\IeC {\cyre }\IeC {\cyrr } \IeC {\cyrp }\IeC {\cyrr }\IeC {\cyro }\IeC {\cyrc }\IeC {\cyre }\IeC {\cyrs }\IeC {\cyru } (rank)\relax }}{31}}
\@writefile{toc}{\contentsline {subsubsection}{\numberline {2.2.3}\IeC {\CYRR }\IeC {\cyro }\IeC {\cyrz }\IeC {\cyrr }\IeC {\cyro }\IeC {\cyrb }\IeC {\cyrk }\IeC {\cyra } \IeC {\cyrs }\IeC {\cyrh }\IeC {\cyre }\IeC {\cyrm }\IeC {\cyri } \IeC {\cyrv }\IeC {\cyrz }\IeC {\cyra }\IeC {\cyrie }\IeC {\cyrm }\IeC {\cyro }\IeC {\cyrd }\IeC {\cyrii }\IeC {\cyryi } \IeC {\cyrz }\IeC {\cyra }\IeC {\cyrd }\IeC {\cyra }\IeC {\cyrch }}{32}}
\@writefile{toc}{\contentsline {subsubsection}{\numberline {2.2.4}\IeC {\CYRR }\IeC {\cyro }\IeC {\cyrz }\IeC {\cyrr }\IeC {\cyro }\IeC {\cyrb }\IeC {\cyrk }\IeC {\cyra } \IeC {\cyrp }\IeC {\cyrr }\IeC {\cyro }\IeC {\cyrg }\IeC {\cyrr }\IeC {\cyra }\IeC {\cyrm }\IeC {\cyri }}{32}}
\@writefile{toc}{\contentsline {subsection}{\numberline {2.3}\IeC {\CYRV }\IeC {\cyri }\IeC {\cyrs }\IeC {\cyrn }\IeC {\cyro }\IeC {\cyrv }\IeC {\cyrk }\IeC {\cyri } \IeC {\cyrd }\IeC {\cyro } \IeC {\cyrr }\IeC {\cyro }\IeC {\cyrz }\IeC {\cyrd }\IeC {\cyrii }\IeC {\cyrl }\IeC {\cyru } 2}{32}}
\@writefile{toc}{\contentsline {section}{\numberline {3}\IeC {\CYRT }\IeC {\cyre }\IeC {\cyrs }\IeC {\cyrt }\IeC {\cyru }\IeC {\cyrv }\IeC {\cyra }\IeC {\cyrn }\IeC {\cyrn }\IeC {\cyrya } \IeC {\cyrp }\IeC {\cyrr }\IeC {\cyro }\IeC {\cyrg }\IeC {\cyrr }\IeC {\cyra }\IeC {\cyrm }\IeC {\cyrn }\IeC {\cyro }\IeC {\cyrg }\IeC {\cyro } \IeC {\cyrz }\IeC {\cyra }\IeC {\cyrb }\IeC {\cyre }\IeC {\cyrz }\IeC {\cyrp }\IeC {\cyre }\IeC {\cyrch }\IeC {\cyre }\IeC {\cyrn }\IeC {\cyrn }\IeC {\cyrya }}{33}}
\@writefile{toc}{\contentsline {subsection}{\numberline {3.1}\IeC {\CYRT }\IeC {\cyre }\IeC {\cyrs }\IeC {\cyrt }\IeC {\cyru }\IeC {\cyrv }\IeC {\cyra }\IeC {\cyrn }\IeC {\cyrn }\IeC {\cyrya } \IeC {\cyrp }\IeC {\cyrr }\IeC {\cyro }\IeC {\cyrg }\IeC {\cyrr }\IeC {\cyra }\IeC {\cyrm }\IeC {\cyrn }\IeC {\cyro }\IeC {\cyrg }\IeC {\cyro } \IeC {\cyrz }\IeC {\cyra }\IeC {\cyrb }\IeC {\cyre }\IeC {\cyrz }\IeC {\cyrp }\IeC {\cyre }\IeC {\cyrch }\IeC {\cyre }\IeC {\cyrn }\IeC {\cyrn }\IeC {\cyrya } \IeC {\cyrd }\IeC {\cyrl }\IeC {\cyrya } \IeC {\cyrs }\IeC {\cyri }\IeC {\cyrs }\IeC {\cyrt }\IeC {\cyre }\IeC {\cyrm }\IeC {\cyri } \IeC {\cyrz }\IeC {\cyrii } \IeC {\cyrs }\IeC {\cyrp }\IeC {\cyrii }\IeC {\cyrl }\IeC {\cyrsftsn }\IeC {\cyrn }\IeC {\cyro }\IeC {\cyryu } \IeC {\cyrp }\IeC {\cyra }\IeC {\cyrm }'\IeC {\cyrya }\IeC {\cyrt }\IeC {\cyrt }\IeC {\cyryu }}{33}}
\@writefile{lot}{\contentsline {table}{\numberline {3.1}{\ignorespaces \IeC {\CYRCH }\IeC {\cyra }\IeC {\cyrs } \IeC {\cyrv }\IeC {\cyri }\IeC {\cyrk }\IeC {\cyro }\IeC {\cyrn }\IeC {\cyra }\IeC {\cyrn }\IeC {\cyrn }\IeC {\cyrya } \IeC {\cyrp }\IeC {\cyrr }\IeC {\cyro }\IeC {\cyrg }\IeC {\cyrr }\IeC {\cyra }\IeC {\cyrm }\IeC {\cyri } \IeC {\cyrz }\IeC {\cyrii } \IeC {\cyrs }\IeC {\cyrp }\IeC {\cyrii }\IeC {\cyrl }\IeC {\cyrsftsn }\IeC {\cyrn }\IeC {\cyro }\IeC {\cyryu } \IeC {\cyrp }\IeC {\cyra }\IeC {\cyrm }'\IeC {\cyrya }\IeC {\cyrt }\IeC {\cyrt }\IeC {\cyryu }\relax }}{33}}
\@writefile{lot}{\contentsline {table}{\numberline {3.2}{\ignorespaces \IeC {\CYRZ }\IeC {\cyrn }\IeC {\cyra }\IeC {\cyrch }\IeC {\cyre }\IeC {\cyrn }\IeC {\cyrn }\IeC {\cyrya } \IeC {\CYRK }\IeC {\CYRP } \IeC {\cyrd }\IeC {\cyrl }\IeC {\cyrya } \IeC {\cyrp }\IeC {\cyrr }\IeC {\cyro }\IeC {\cyrg }\IeC {\cyrr }\IeC {\cyra }\IeC {\cyrm }\IeC {\cyri } \IeC {\cyrz }\IeC {\cyrii } \IeC {\cyrs }\IeC {\cyrp }\IeC {\cyrii }\IeC {\cyrl }\IeC {\cyrsftsn }\IeC {\cyrn }\IeC {\cyro }\IeC {\cyryu } \IeC {\cyrp }\IeC {\cyra }\IeC {\cyrm }'\IeC {\cyrya }\IeC {\cyrt }\IeC {\cyrt }\IeC {\cyryu }\relax }}{34}}
\@writefile{lot}{\contentsline {table}{\numberline {3.3}{\ignorespaces \IeC {\CYRZ }\IeC {\cyrn }\IeC {\cyra }\IeC {\cyrch }\IeC {\cyre }\IeC {\cyrn }\IeC {\cyrn }\IeC {\cyrya } \IeC {\CYRK }\IeC {\CYRE } \IeC {\cyrd }\IeC {\cyrl }\IeC {\cyrya } \IeC {\cyrp }\IeC {\cyrr }\IeC {\cyro }\IeC {\cyrg }\IeC {\cyrr }\IeC {\cyra }\IeC {\cyrm }\IeC {\cyri } \IeC {\cyrz }\IeC {\cyrii } \IeC {\cyrs }\IeC {\cyrp }\IeC {\cyrii }\IeC {\cyrl }\IeC {\cyrsftsn }\IeC {\cyrn }\IeC {\cyro }\IeC {\cyryu } \IeC {\cyrp }\IeC {\cyra }\IeC {\cyrm }'\IeC {\cyrya }\IeC {\cyrt }\IeC {\cyrt }\IeC {\cyryu }\relax }}{34}}
\newlabel{fig:1sm_struct}{{\caption@xref {fig:1sm_struct}{ on input line 1078}}{34}}
\newlabel{fig:1sm_struct}{{\caption@xref {fig:1sm_struct}{ on input line 1085}}{35}}
\newlabel{fig:1sm_struct}{{\caption@xref {fig:1sm_struct}{ on input line 1092}}{35}}
\newlabel{fig:1sm_struct}{{\caption@xref {fig:1sm_struct}{ on input line 1099}}{36}}
\newlabel{fig:1sm_struct}{{\caption@xref {fig:1sm_struct}{ on input line 1106}}{36}}
\newlabel{fig:1sm_struct}{{\caption@xref {fig:1sm_struct}{ on input line 1113}}{37}}
\newlabel{fig:1sm_struct}{{\caption@xref {fig:1sm_struct}{ on input line 1120}}{37}}
\newlabel{fig:1sm_struct}{{\caption@xref {fig:1sm_struct}{ on input line 1127}}{38}}
\@writefile{toc}{\contentsline {subsection}{\numberline {3.2}\IeC {\CYRT }\IeC {\cyre }\IeC {\cyrs }\IeC {\cyrt }\IeC {\cyru }\IeC {\cyrv }\IeC {\cyra }\IeC {\cyrn }\IeC {\cyrn }\IeC {\cyrya } \IeC {\cyrp }\IeC {\cyrr }\IeC {\cyro }\IeC {\cyrg }\IeC {\cyrr }\IeC {\cyra }\IeC {\cyrm }\IeC {\cyrn }\IeC {\cyro }\IeC {\cyrg }\IeC {\cyro } \IeC {\cyrz }\IeC {\cyra }\IeC {\cyrb }\IeC {\cyre }\IeC {\cyrz }\IeC {\cyrp }\IeC {\cyre }\IeC {\cyrch }\IeC {\cyre }\IeC {\cyrn }\IeC {\cyrn }\IeC {\cyrya } \IeC {\cyrd }\IeC {\cyrl }\IeC {\cyrya } \IeC {\cyrs }\IeC {\cyri }\IeC {\cyrs }\IeC {\cyrt }\IeC {\cyre }\IeC {\cyrm }\IeC {\cyri } \IeC {\cyrz } \IeC {\cyrl }\IeC {\cyro }\IeC {\cyrk }\IeC {\cyra }\IeC {\cyrl }\IeC {\cyrsftsn }\IeC {\cyrn }\IeC {\cyro }\IeC {\cyryu } \IeC {\cyrp }\IeC {\cyra }\IeC {\cyrm }'\IeC {\cyrya }\IeC {\cyrt }\IeC {\cyrt }\IeC {\cyryu }}{39}}
\@writefile{lot}{\contentsline {table}{\numberline {3.4}{\ignorespaces \IeC {\CYRCH }\IeC {\cyra }\IeC {\cyrs } \IeC {\cyrv }\IeC {\cyri }\IeC {\cyrk }\IeC {\cyro }\IeC {\cyrn }\IeC {\cyra }\IeC {\cyrn }\IeC {\cyrn }\IeC {\cyrya } \IeC {\cyrp }\IeC {\cyrr }\IeC {\cyro }\IeC {\cyrg }\IeC {\cyrr }\IeC {\cyra }\IeC {\cyrm }\IeC {\cyri } \IeC {\cyrz } \IeC {\cyrl }\IeC {\cyro }\IeC {\cyrk }\IeC {\cyra }\IeC {\cyrl }\IeC {\cyrsftsn }\IeC {\cyrn }\IeC {\cyro }\IeC {\cyryu } \IeC {\cyrp }\IeC {\cyra }\IeC {\cyrm }'\IeC {\cyrya }\IeC {\cyrt }\IeC {\cyrt }\IeC {\cyryu }\relax }}{39}}
\@writefile{lot}{\contentsline {table}{\numberline {3.5}{\ignorespaces \IeC {\CYRZ }\IeC {\cyrn }\IeC {\cyra }\IeC {\cyrch }\IeC {\cyre }\IeC {\cyrn }\IeC {\cyrn }\IeC {\cyrya } \IeC {\CYRK }\IeC {\CYRP } \IeC {\cyrd }\IeC {\cyrl }\IeC {\cyrya } \IeC {\cyrp }\IeC {\cyrr }\IeC {\cyro }\IeC {\cyrg }\IeC {\cyrr }\IeC {\cyra }\IeC {\cyrm }\IeC {\cyri } \IeC {\cyrz } \IeC {\cyrl }\IeC {\cyro }\IeC {\cyrk }\IeC {\cyra }\IeC {\cyrl }\IeC {\cyrsftsn }\IeC {\cyrn }\IeC {\cyro }\IeC {\cyryu } \IeC {\cyrp }\IeC {\cyra }\IeC {\cyrm }'\IeC {\cyrya }\IeC {\cyrt }\IeC {\cyrt }\IeC {\cyryu }\relax }}{39}}
\@writefile{lot}{\contentsline {table}{\numberline {3.6}{\ignorespaces \IeC {\CYRZ }\IeC {\cyrn }\IeC {\cyra }\IeC {\cyrch }\IeC {\cyre }\IeC {\cyrn }\IeC {\cyrn }\IeC {\cyrya } \IeC {\CYRK }\IeC {\CYRE } \IeC {\cyrd }\IeC {\cyrl }\IeC {\cyrya } \IeC {\cyrp }\IeC {\cyrr }\IeC {\cyro }\IeC {\cyrg }\IeC {\cyrr }\IeC {\cyra }\IeC {\cyrm }\IeC {\cyri } \IeC {\cyrz } \IeC {\cyrl }\IeC {\cyro }\IeC {\cyrk }\IeC {\cyra }\IeC {\cyrl }\IeC {\cyrsftsn }\IeC {\cyrn }\IeC {\cyro }\IeC {\cyryu } \IeC {\cyrp }\IeC {\cyra }\IeC {\cyrm }'\IeC {\cyrya }\IeC {\cyrt }\IeC {\cyrt }\IeC {\cyryu }\relax }}{39}}
\newlabel{fig:1sm_struct}{{\caption@xref {fig:1sm_struct}{ on input line 1179}}{39}}
\newlabel{fig:1sm_struct}{{\caption@xref {fig:1sm_struct}{ on input line 1186}}{40}}
\newlabel{fig:1sm_struct}{{\caption@xref {fig:1sm_struct}{ on input line 1193}}{40}}
\newlabel{fig:1sm_struct}{{\caption@xref {fig:1sm_struct}{ on input line 1200}}{41}}
\newlabel{fig:1sm_struct}{{\caption@xref {fig:1sm_struct}{ on input line 1207}}{41}}
\newlabel{fig:1sm_struct}{{\caption@xref {fig:1sm_struct}{ on input line 1214}}{42}}
\newlabel{fig:1sm_struct}{{\caption@xref {fig:1sm_struct}{ on input line 1221}}{42}}
\citation{bib:core_quad}
\newlabel{fig:1sm_struct}{{\caption@xref {fig:1sm_struct}{ on input line 1228}}{43}}
\@writefile{toc}{\contentsline {subsection}{\numberline {3.3}\IeC {\CYRV }\IeC {\cyri }\IeC {\cyrs }\IeC {\cyrn }\IeC {\cyro }\IeC {\cyrv }\IeC {\cyrk }\IeC {\cyri } \IeC {\cyrd }\IeC {\cyro } \IeC {\cyrr }\IeC {\cyro }\IeC {\cyrz }\IeC {\cyrd }\IeC {\cyrii }\IeC {\cyrl }\IeC {\cyru } 3}{43}}
\bibcite{bib:processes}{1}
\bibcite{bib:multitasking_prop}{2}
\bibcite{bib:thread}{3}
\bibcite{bib:thread_book1}{4}
\bibcite{bib:thread_book2}{5}
\bibcite{bib:multithreading}{6}
\bibcite{bib:ada_tasks}{7}
\bibcite{bib:ada_concurrency}{8}
\bibcite{bib:java_threads}{9}
\bibcite{bib:java_startthread}{10}
\bibcite{bib:java_book1}{11}
\bibcite{bib:csharp_threading}{12}
\bibcite{bib:csharp_tcreate}{13}
\bibcite{bib:csharp_article1}{14}
\bibcite{bib:winapi_tutorial}{15}
\bibcite{bib:winapi_book}{16}
\bibcite{bib:omp_general}{17}
\bibcite{bib:omp_code}{18}
\bibcite{bib:omp_methods}{19}
\bibcite{bib:posix_wiki}{20}
\bibcite{bib:posix_thread}{21}
\bibcite{bib:posix_book1}{22}
\bibcite{bib:posix_book2}{23}
\bibcite{bib:spmd}{24}
\bibcite{bib:mpi}{25}
\bibcite{bib:mpi_book}{26}
\bibcite{bib:mpi_book2}{27}
\bibcite{bib:pvm}{28}
\bibcite{bib:pvm_example}{29}
\bibcite{bib:core_quad}{30}
\@writefile{toc}{\contentsline {section}{\IeC {\CYRD }\IeC {\cyro }\IeC {\cyrd }\IeC {\cyra }\IeC {\cyrt }\IeC {\cyro }\IeC {\cyrk } \IeC {\CYRA }. \IeC {\CYRS }\IeC {\cyrt }\IeC {\cyrr }\IeC {\cyru }\IeC {\cyrk }\IeC {\cyrt }\IeC {\cyru }\IeC {\cyrr }\IeC {\cyra } \IeC {\CYRP }\IeC {\CYRO }\IeC {\CYRS } \IeC {\cyrz }\IeC {\cyrii } \IeC {\cyrs }\IeC {\cyrp }\IeC {\cyrii }\IeC {\cyrl }\IeC {\cyrsftsn }\IeC {\cyrn }\IeC {\cyro }\IeC {\cyryu } \IeC {\cyrp }\IeC {\cyra }\IeC {\cyrm }'\IeC {\cyrya }\IeC {\cyrt }\IeC {\cyrt }\IeC {\cyryu }}{46}}
\newlabel{fig:sm_struct}{{\caption@xref {fig:sm_struct}{ on input line 1286}}{46}}
\@writefile{toc}{\contentsline {section}{\IeC {\CYRD }\IeC {\cyro }\IeC {\cyrd }\IeC {\cyra }\IeC {\cyrt }\IeC {\cyro }\IeC {\cyrk } \IeC {\CYRB }. \IeC {\CYRS }\IeC {\cyrt }\IeC {\cyrr }\IeC {\cyru }\IeC {\cyrk }\IeC {\cyrt }\IeC {\cyru }\IeC {\cyrr }\IeC {\cyra } \IeC {\CYRP }\IeC {\CYRO }\IeC {\CYRS } \IeC {\cyrz } \IeC {\cyrl }\IeC {\cyro }\IeC {\cyrk }\IeC {\cyra }\IeC {\cyrl }\IeC {\cyrsftsn }\IeC {\cyrn }\IeC {\cyro }\IeC {\cyryu } \IeC {\cyrp }\IeC {\cyra }\IeC {\cyrm }'\IeC {\cyrya }\IeC {\cyrt }\IeC {\cyrt }\IeC {\cyryu }}{47}}
\newlabel{fig:sm_struct}{{\caption@xref {fig:sm_struct}{ on input line 1298}}{47}}
\@writefile{toc}{\contentsline {section}{\IeC {\CYRD }\IeC {\cyro }\IeC {\cyrd }\IeC {\cyra }\IeC {\cyrt }\IeC {\cyro }\IeC {\cyrk } \IeC {\CYRV }. \IeC {\CYRA }\IeC {\cyrl }\IeC {\cyrg }\IeC {\cyro }\IeC {\cyrr }\IeC {\cyri }\IeC {\cyrt }\IeC {\cyrm }\IeC {\cyri }}{48}}
\@writefile{toc}{\contentsline {section}{\IeC {\CYRD }\IeC {\cyro }\IeC {\cyrd }\IeC {\cyra }\IeC {\cyrt }\IeC {\cyro }\IeC {\cyrk } \IeC {\CYRG }. \IeC {\CYRA }\IeC {\cyrl }\IeC {\cyrg }\IeC {\cyro }\IeC {\cyrr }\IeC {\cyri }\IeC {\cyrt }\IeC {\cyrm } \IeC {\cyro }\IeC {\cyrs }\IeC {\cyrn }\IeC {\cyro }\IeC {\cyrv }\IeC {\cyrn }\IeC {\cyro }\IeC {\cyryi } \IeC {\cyrp }\IeC {\cyrr }\IeC {\cyro }\IeC {\cyrc }\IeC {\cyre }\IeC {\cyrd }\IeC {\cyru }\IeC {\cyrr }\IeC {\cyri }}{48}}
\@writefile{toc}{\contentsline {section}{\IeC {\CYRD }\IeC {\cyro }\IeC {\cyrd }\IeC {\cyra }\IeC {\cyrt }\IeC {\cyro }\IeC {\cyrk } \IeC {\CYRD }. \IeC {\CYRL }\IeC {\cyrii }\IeC {\cyrs }\IeC {\cyrt }\IeC {\cyri }\IeC {\cyrn }\IeC {\cyrg }\IeC {\cyri }}{50}}
\ttl@finishall
