\select@language {ukrainian}
\contentsline {section}{\numberline {1}\IeC {\CYRP }\IeC {\cyro }\IeC {\cyrr }\IeC {\cyrii }\IeC {\cyrv }\IeC {\cyrn }\IeC {\cyrya }\IeC {\cyrn }\IeC {\cyrn }\IeC {\cyrya } \IeC {\cyrz }\IeC {\cyra }\IeC {\cyrs }\IeC {\cyro }\IeC {\cyrb }\IeC {\cyrii }\IeC {\cyrv } \IeC {\cyrs }\IeC {\cyrt }\IeC {\cyrv }\IeC {\cyro }\IeC {\cyrr }\IeC {\cyre }\IeC {\cyrn }\IeC {\cyrn }\IeC {\cyrya } \IeC {\cyrp }\IeC {\cyrr }\IeC {\cyro }\IeC {\cyrc }\IeC {\cyre }\IeC {\cyrs }\IeC {\cyrs }\IeC {\cyrii }\IeC {\cyrv } \IeC {\cyru } \IeC {\cyrm }\IeC {\cyro }\IeC {\cyrv }\IeC {\cyra }\IeC {\cyrh } \IeC {\cyrp }\IeC {\cyrr }\IeC {\cyro }\IeC {\cyrg }\IeC {\cyrr }\IeC {\cyra }\IeC {\cyrm }\IeC {\cyru }\IeC {\cyrv }\IeC {\cyra }\IeC {\cyrn }\IeC {\cyrn }\IeC {\cyrya } \IeC {\cyrt }\IeC {\cyra } \IeC {\cyrb }\IeC {\cyrii }\IeC {\cyrb }\IeC {\cyrl }\IeC {\cyrii }\IeC {\cyro }\IeC {\cyrt }\IeC {\cyre }\IeC {\cyrk }\IeC {\cyra }\IeC {\cyrh }}{4}
\contentsline {subsection}{\numberline {1.1}\IeC {\CYRO }\IeC {\cyrs }\IeC {\cyrn }\IeC {\cyro }\IeC {\cyrv }\IeC {\cyrn }\IeC {\cyrii } \IeC {\cyrp }\IeC {\cyro }\IeC {\cyrn }\IeC {\cyrya }\IeC {\cyrt }\IeC {\cyrt }\IeC {\cyrya }}{4}
\contentsline {subsubsection}{\numberline {1.1.1}\IeC {\CYRP }\IeC {\cyrr }\IeC {\cyro }\IeC {\cyrc }\IeC {\cyre }\IeC {\cyrs }\IeC {\cyrs }\IeC {\cyri } \IeC {\cyrt }\IeC {\cyra } \IeC {\cyrb }\IeC {\cyra }\IeC {\cyrz }\IeC {\cyra }\IeC {\cyrt }\IeC {\cyro }\IeC {\cyrz }\IeC {\cyra }\IeC {\cyrd }\IeC {\cyra }\IeC {\cyrch }\IeC {\cyrn }\IeC {\cyrii }\IeC {\cyrs }\IeC {\cyrt }\IeC {\cyrsftsn }}{4}
\contentsline {subsubsection}{\numberline {1.1.2}\IeC {\CYRP }\IeC {\cyro }\IeC {\cyrt }\IeC {\cyrii }\IeC {\cyrk } \IeC {\cyrt }\IeC {\cyra } \IeC {\cyrb }\IeC {\cyra }\IeC {\cyrg }\IeC {\cyra }\IeC {\cyrt }\IeC {\cyro }\IeC {\cyrp }\IeC {\cyro }\IeC {\cyrt }\IeC {\cyro }\IeC {\cyrch }\IeC {\cyrn }\IeC {\cyrii }\IeC {\cyrs }\IeC {\cyrt }\IeC {\cyrsftsn }}{4}
\contentsline {subsection}{\numberline {1.2}\IeC {\CYRZ }\IeC {\cyra }\IeC {\cyrs }\IeC {\cyro }\IeC {\cyrb }\IeC {\cyri } \IeC {\cyrs }\IeC {\cyrt }\IeC {\cyrv }\IeC {\cyro }\IeC {\cyrr }\IeC {\cyre }\IeC {\cyrn }\IeC {\cyrn }\IeC {\cyrya } \IeC {\cyrp }\IeC {\cyrr }\IeC {\cyro }\IeC {\cyrc }\IeC {\cyre }\IeC {\cyrs }\IeC {\cyrii }\IeC {\cyrv } \IeC {\cyrt }\IeC {\cyra } \IeC {\cyrp }\IeC {\cyro }\IeC {\cyrt }\IeC {\cyro }\IeC {\cyrk }\IeC {\cyrii }\IeC {\cyrv }}{6}
\contentsline {subsubsection}{\numberline {1.2.1}\IeC {\CYRM }\IeC {\cyro }\IeC {\cyrv }\IeC {\cyra } Ada}{6}
\contentsline {subsubsection}{\numberline {1.2.2}\IeC {\CYRM }\IeC {\cyro }\IeC {\cyrv }\IeC {\cyra } Java}{8}
\contentsline {subsubsection}{\numberline {1.2.3}\IeC {\CYRM }\IeC {\cyro }\IeC {\cyrv }\IeC {\cyra } \IeC {\CYRS }\#}{10}
\contentsline {subsubsection}{\numberline {1.2.4}WinAPI}{11}
\contentsline {subsubsection}{\numberline {1.2.5}OpenMP}{12}
\contentsline {subsubsection}{\numberline {1.2.6}POSIX Threads}{14}
\contentsline {subsubsection}{\numberline {1.2.7}MPI}{21}
\contentsline {subsubsection}{\numberline {1.2.8}PVM}{23}
\contentsline {subsection}{\numberline {1.3}\IeC {\CYRV }\IeC {\cyri }\IeC {\cyrs }\IeC {\cyrn }\IeC {\cyro }\IeC {\cyrv }\IeC {\cyrk }\IeC {\cyri }}{28}
\contentsline {section}{\numberline {2}\IeC {\CYRR }\IeC {\cyro }\IeC {\cyrz }\IeC {\cyrr }\IeC {\cyro }\IeC {\cyrb }\IeC {\cyrk }\IeC {\cyra } \IeC {\cyrp }\IeC {\cyrr }\IeC {\cyro }\IeC {\cyrg }\IeC {\cyrr }\IeC {\cyra }\IeC {\cyrm }\IeC {\cyrn }\IeC {\cyro }\IeC {\cyrg }\IeC {\cyro } \IeC {\cyrz }\IeC {\cyra }\IeC {\cyrb }\IeC {\cyre }\IeC {\cyrz }\IeC {\cyrp }\IeC {\cyre }\IeC {\cyrch }\IeC {\cyre }\IeC {\cyrn }\IeC {\cyrn }\IeC {\cyrya }}{30}
\contentsline {subsection}{\numberline {2.1}\IeC {\CYRR }\IeC {\cyro }\IeC {\cyrz }\IeC {\cyrr }\IeC {\cyro }\IeC {\cyrb }\IeC {\cyrk }\IeC {\cyra } \IeC {\cyrp }\IeC {\cyrr }\IeC {\cyro }\IeC {\cyrg }\IeC {\cyrr }\IeC {\cyra }\IeC {\cyrm }\IeC {\cyrn }\IeC {\cyro }\IeC {\cyrg }\IeC {\cyro } \IeC {\cyrz }\IeC {\cyra }\IeC {\cyrb }\IeC {\cyre }\IeC {\cyrz }\IeC {\cyrp }\IeC {\cyre }\IeC {\cyrch }\IeC {\cyre }\IeC {\cyrn }\IeC {\cyrn }\IeC {\cyrya } \IeC {\cyrd }\IeC {\cyrl }\IeC {\cyrya } \IeC {\cyrs }\IeC {\cyri }\IeC {\cyrs }\IeC {\cyrt }\IeC {\cyre }\IeC {\cyrm }\IeC {\cyri } \IeC {\cyrz }\IeC {\cyrii } \IeC {\cyrs }\IeC {\cyrp }\IeC {\cyrii }\IeC {\cyrl }\IeC {\cyrsftsn }\IeC {\cyrn }\IeC {\cyro }\IeC {\cyryu } \IeC {\cyrp }\IeC {\cyra }\IeC {\cyrm }'\IeC {\cyrya }\IeC {\cyrt }\IeC {\cyrt }\IeC {\cyryu }}{30}
\contentsline {subsubsection}{\numberline {2.1.1}\IeC {\CYRR }\IeC {\cyro }\IeC {\cyrz }\IeC {\cyrr }\IeC {\cyro }\IeC {\cyrb }\IeC {\cyrk }\IeC {\cyra } \IeC {\cyrp }\IeC {\cyra }\IeC {\cyrr }\IeC {\cyra }\IeC {\cyrl }\IeC {\cyre }\IeC {\cyrl }\IeC {\cyrsftsn }\IeC {\cyrn }\IeC {\cyro }\IeC {\cyrg }\IeC {\cyro } \IeC {\cyrm }\IeC {\cyra }\IeC {\cyrt }\IeC {\cyre }\IeC {\cyrm }\IeC {\cyra }\IeC {\cyrt }\IeC {\cyri }\IeC {\cyrch }\IeC {\cyrn }\IeC {\cyro }\IeC {\cyrg }\IeC {\cyro } \IeC {\cyra }\IeC {\cyrl }\IeC {\cyrg }\IeC {\cyro }\IeC {\cyrr }\IeC {\cyri }\IeC {\cyrt }\IeC {\cyrm }\IeC {\cyru }}{30}
\contentsline {subsubsection}{\numberline {2.1.2}\IeC {\CYRR }\IeC {\cyro }\IeC {\cyrz }\IeC {\cyrr }\IeC {\cyro }\IeC {\cyrb }\IeC {\cyrk }\IeC {\cyra } \IeC {\cyra }\IeC {\cyrl }\IeC {\cyrg }\IeC {\cyro }\IeC {\cyrr }\IeC {\cyri }\IeC {\cyrt }\IeC {\cyrm }\IeC {\cyrii }\IeC {\cyrv } \IeC {\cyrp }\IeC {\cyrr }\IeC {\cyro }\IeC {\cyrc }\IeC {\cyre }\IeC {\cyrs }\IeC {\cyrii }\IeC {\cyrv }}{30}
\contentsline {subsubsection}{\numberline {2.1.3}\IeC {\CYRR }\IeC {\cyro }\IeC {\cyrz }\IeC {\cyrr }\IeC {\cyro }\IeC {\cyrb }\IeC {\cyrk }\IeC {\cyra } \IeC {\cyrp }\IeC {\cyrr }\IeC {\cyro }\IeC {\cyrg }\IeC {\cyrr }\IeC {\cyra }\IeC {\cyrm }\IeC {\cyri }}{30}
\contentsline {subsection}{\numberline {2.2}\IeC {\CYRR }\IeC {\cyro }\IeC {\cyrz }\IeC {\cyrr }\IeC {\cyro }\IeC {\cyrb }\IeC {\cyrk }\IeC {\cyra } \IeC {\cyrp }\IeC {\cyrr }\IeC {\cyro }\IeC {\cyrg }\IeC {\cyrr }\IeC {\cyra }\IeC {\cyrm }\IeC {\cyrn }\IeC {\cyro }\IeC {\cyrg }\IeC {\cyro } \IeC {\cyrz }\IeC {\cyra }\IeC {\cyrb }\IeC {\cyre }\IeC {\cyrz }\IeC {\cyrp }\IeC {\cyre }\IeC {\cyrch }\IeC {\cyre }\IeC {\cyrn }\IeC {\cyrn }\IeC {\cyrya } \IeC {\cyrd }\IeC {\cyrl }\IeC {\cyrya } \IeC {\cyrs }\IeC {\cyri }\IeC {\cyrs }\IeC {\cyrt }\IeC {\cyre }\IeC {\cyrm }\IeC {\cyri } \IeC {\cyrz } \IeC {\cyrl }\IeC {\cyro }\IeC {\cyrk }\IeC {\cyra }\IeC {\cyrl }\IeC {\cyrsftsn }\IeC {\cyrn }\IeC {\cyro }\IeC {\cyryu } \IeC {\cyrp }\IeC {\cyra }\IeC {\cyrm }'\IeC {\cyrya }\IeC {\cyrt }\IeC {\cyrt }\IeC {\cyryu }}{31}
\contentsline {subsubsection}{\numberline {2.2.1}\IeC {\CYRR }\IeC {\cyro }\IeC {\cyrz }\IeC {\cyrr }\IeC {\cyro }\IeC {\cyrb }\IeC {\cyrk }\IeC {\cyra } \IeC {\cyrp }\IeC {\cyra }\IeC {\cyrr }\IeC {\cyra }\IeC {\cyrl }\IeC {\cyre }\IeC {\cyrl }\IeC {\cyrsftsn }\IeC {\cyrn }\IeC {\cyro }\IeC {\cyrg }\IeC {\cyro } \IeC {\cyrm }\IeC {\cyra }\IeC {\cyrt }\IeC {\cyre }\IeC {\cyrm }\IeC {\cyra }\IeC {\cyrt }\IeC {\cyri }\IeC {\cyrch }\IeC {\cyrn }\IeC {\cyro }\IeC {\cyrg }\IeC {\cyro } \IeC {\cyra }\IeC {\cyrl }\IeC {\cyrg }\IeC {\cyro }\IeC {\cyrr }\IeC {\cyri }\IeC {\cyrt }\IeC {\cyrm }\IeC {\cyru }}{31}
\contentsline {subsubsection}{\numberline {2.2.2}\IeC {\CYRR }\IeC {\cyro }\IeC {\cyrz }\IeC {\cyrr }\IeC {\cyro }\IeC {\cyrb }\IeC {\cyrk }\IeC {\cyra } \IeC {\cyra }\IeC {\cyrl }\IeC {\cyrg }\IeC {\cyro }\IeC {\cyrr }\IeC {\cyri }\IeC {\cyrt }\IeC {\cyrm }\IeC {\cyrii }\IeC {\cyrv } \IeC {\cyrp }\IeC {\cyrr }\IeC {\cyro }\IeC {\cyrc }\IeC {\cyre }\IeC {\cyrs }\IeC {\cyrii }\IeC {\cyrv }}{31}
\contentsline {subsubsection}{\numberline {2.2.3}\IeC {\CYRR }\IeC {\cyro }\IeC {\cyrz }\IeC {\cyrr }\IeC {\cyro }\IeC {\cyrb }\IeC {\cyrk }\IeC {\cyra } \IeC {\cyrs }\IeC {\cyrh }\IeC {\cyre }\IeC {\cyrm }\IeC {\cyri } \IeC {\cyrv }\IeC {\cyrz }\IeC {\cyra }\IeC {\cyrie }\IeC {\cyrm }\IeC {\cyro }\IeC {\cyrd }\IeC {\cyrii }\IeC {\cyryi } \IeC {\cyrz }\IeC {\cyra }\IeC {\cyrd }\IeC {\cyra }\IeC {\cyrch }}{32}
\contentsline {subsubsection}{\numberline {2.2.4}\IeC {\CYRR }\IeC {\cyro }\IeC {\cyrz }\IeC {\cyrr }\IeC {\cyro }\IeC {\cyrb }\IeC {\cyrk }\IeC {\cyra } \IeC {\cyrp }\IeC {\cyrr }\IeC {\cyro }\IeC {\cyrg }\IeC {\cyrr }\IeC {\cyra }\IeC {\cyrm }\IeC {\cyri }}{32}
\contentsline {subsection}{\numberline {2.3}\IeC {\CYRV }\IeC {\cyri }\IeC {\cyrs }\IeC {\cyrn }\IeC {\cyro }\IeC {\cyrv }\IeC {\cyrk }\IeC {\cyri } \IeC {\cyrd }\IeC {\cyro } \IeC {\cyrr }\IeC {\cyro }\IeC {\cyrz }\IeC {\cyrd }\IeC {\cyrii }\IeC {\cyrl }\IeC {\cyru } 2}{32}
\contentsline {section}{\numberline {3}\IeC {\CYRT }\IeC {\cyre }\IeC {\cyrs }\IeC {\cyrt }\IeC {\cyru }\IeC {\cyrv }\IeC {\cyra }\IeC {\cyrn }\IeC {\cyrn }\IeC {\cyrya } \IeC {\cyrp }\IeC {\cyrr }\IeC {\cyro }\IeC {\cyrg }\IeC {\cyrr }\IeC {\cyra }\IeC {\cyrm }\IeC {\cyrn }\IeC {\cyro }\IeC {\cyrg }\IeC {\cyro } \IeC {\cyrz }\IeC {\cyra }\IeC {\cyrb }\IeC {\cyre }\IeC {\cyrz }\IeC {\cyrp }\IeC {\cyre }\IeC {\cyrch }\IeC {\cyre }\IeC {\cyrn }\IeC {\cyrn }\IeC {\cyrya }}{33}
\contentsline {subsection}{\numberline {3.1}\IeC {\CYRT }\IeC {\cyre }\IeC {\cyrs }\IeC {\cyrt }\IeC {\cyru }\IeC {\cyrv }\IeC {\cyra }\IeC {\cyrn }\IeC {\cyrn }\IeC {\cyrya } \IeC {\cyrp }\IeC {\cyrr }\IeC {\cyro }\IeC {\cyrg }\IeC {\cyrr }\IeC {\cyra }\IeC {\cyrm }\IeC {\cyrn }\IeC {\cyro }\IeC {\cyrg }\IeC {\cyro } \IeC {\cyrz }\IeC {\cyra }\IeC {\cyrb }\IeC {\cyre }\IeC {\cyrz }\IeC {\cyrp }\IeC {\cyre }\IeC {\cyrch }\IeC {\cyre }\IeC {\cyrn }\IeC {\cyrn }\IeC {\cyrya } \IeC {\cyrd }\IeC {\cyrl }\IeC {\cyrya } \IeC {\cyrs }\IeC {\cyri }\IeC {\cyrs }\IeC {\cyrt }\IeC {\cyre }\IeC {\cyrm }\IeC {\cyri } \IeC {\cyrz }\IeC {\cyrii } \IeC {\cyrs }\IeC {\cyrp }\IeC {\cyrii }\IeC {\cyrl }\IeC {\cyrsftsn }\IeC {\cyrn }\IeC {\cyro }\IeC {\cyryu } \IeC {\cyrp }\IeC {\cyra }\IeC {\cyrm }'\IeC {\cyrya }\IeC {\cyrt }\IeC {\cyrt }\IeC {\cyryu }}{33}
\contentsline {subsection}{\numberline {3.2}\IeC {\CYRT }\IeC {\cyre }\IeC {\cyrs }\IeC {\cyrt }\IeC {\cyru }\IeC {\cyrv }\IeC {\cyra }\IeC {\cyrn }\IeC {\cyrn }\IeC {\cyrya } \IeC {\cyrp }\IeC {\cyrr }\IeC {\cyro }\IeC {\cyrg }\IeC {\cyrr }\IeC {\cyra }\IeC {\cyrm }\IeC {\cyrn }\IeC {\cyro }\IeC {\cyrg }\IeC {\cyro } \IeC {\cyrz }\IeC {\cyra }\IeC {\cyrb }\IeC {\cyre }\IeC {\cyrz }\IeC {\cyrp }\IeC {\cyre }\IeC {\cyrch }\IeC {\cyre }\IeC {\cyrn }\IeC {\cyrn }\IeC {\cyrya } \IeC {\cyrd }\IeC {\cyrl }\IeC {\cyrya } \IeC {\cyrs }\IeC {\cyri }\IeC {\cyrs }\IeC {\cyrt }\IeC {\cyre }\IeC {\cyrm }\IeC {\cyri } \IeC {\cyrz } \IeC {\cyrl }\IeC {\cyro }\IeC {\cyrk }\IeC {\cyra }\IeC {\cyrl }\IeC {\cyrsftsn }\IeC {\cyrn }\IeC {\cyro }\IeC {\cyryu } \IeC {\cyrp }\IeC {\cyra }\IeC {\cyrm }'\IeC {\cyrya }\IeC {\cyrt }\IeC {\cyrt }\IeC {\cyryu }}{39}
\contentsline {subsection}{\numberline {3.3}\IeC {\CYRV }\IeC {\cyri }\IeC {\cyrs }\IeC {\cyrn }\IeC {\cyro }\IeC {\cyrv }\IeC {\cyrk }\IeC {\cyri } \IeC {\cyrd }\IeC {\cyro } \IeC {\cyrr }\IeC {\cyro }\IeC {\cyrz }\IeC {\cyrd }\IeC {\cyrii }\IeC {\cyrl }\IeC {\cyru } 3}{43}
\contentsline {section}{\IeC {\CYRD }\IeC {\cyro }\IeC {\cyrd }\IeC {\cyra }\IeC {\cyrt }\IeC {\cyro }\IeC {\cyrk } \IeC {\CYRA }. \IeC {\CYRS }\IeC {\cyrt }\IeC {\cyrr }\IeC {\cyru }\IeC {\cyrk }\IeC {\cyrt }\IeC {\cyru }\IeC {\cyrr }\IeC {\cyra } \IeC {\CYRP }\IeC {\CYRO }\IeC {\CYRS } \IeC {\cyrz }\IeC {\cyrii } \IeC {\cyrs }\IeC {\cyrp }\IeC {\cyrii }\IeC {\cyrl }\IeC {\cyrsftsn }\IeC {\cyrn }\IeC {\cyro }\IeC {\cyryu } \IeC {\cyrp }\IeC {\cyra }\IeC {\cyrm }'\IeC {\cyrya }\IeC {\cyrt }\IeC {\cyrt }\IeC {\cyryu }}{46}
\contentsline {section}{\IeC {\CYRD }\IeC {\cyro }\IeC {\cyrd }\IeC {\cyra }\IeC {\cyrt }\IeC {\cyro }\IeC {\cyrk } \IeC {\CYRB }. \IeC {\CYRS }\IeC {\cyrt }\IeC {\cyrr }\IeC {\cyru }\IeC {\cyrk }\IeC {\cyrt }\IeC {\cyru }\IeC {\cyrr }\IeC {\cyra } \IeC {\CYRP }\IeC {\CYRO }\IeC {\CYRS } \IeC {\cyrz } \IeC {\cyrl }\IeC {\cyro }\IeC {\cyrk }\IeC {\cyra }\IeC {\cyrl }\IeC {\cyrsftsn }\IeC {\cyrn }\IeC {\cyro }\IeC {\cyryu } \IeC {\cyrp }\IeC {\cyra }\IeC {\cyrm }'\IeC {\cyrya }\IeC {\cyrt }\IeC {\cyrt }\IeC {\cyryu }}{47}
\contentsline {section}{\IeC {\CYRD }\IeC {\cyro }\IeC {\cyrd }\IeC {\cyra }\IeC {\cyrt }\IeC {\cyro }\IeC {\cyrk } \IeC {\CYRV }. \IeC {\CYRA }\IeC {\cyrl }\IeC {\cyrg }\IeC {\cyro }\IeC {\cyrr }\IeC {\cyri }\IeC {\cyrt }\IeC {\cyrm }\IeC {\cyri }}{48}
\contentsline {section}{\IeC {\CYRD }\IeC {\cyro }\IeC {\cyrd }\IeC {\cyra }\IeC {\cyrt }\IeC {\cyro }\IeC {\cyrk } \IeC {\CYRG }. \IeC {\CYRA }\IeC {\cyrl }\IeC {\cyrg }\IeC {\cyro }\IeC {\cyrr }\IeC {\cyri }\IeC {\cyrt }\IeC {\cyrm } \IeC {\cyro }\IeC {\cyrs }\IeC {\cyrn }\IeC {\cyro }\IeC {\cyrv }\IeC {\cyrn }\IeC {\cyro }\IeC {\cyryi } \IeC {\cyrp }\IeC {\cyrr }\IeC {\cyro }\IeC {\cyrc }\IeC {\cyre }\IeC {\cyrd }\IeC {\cyru }\IeC {\cyrr }\IeC {\cyri }}{48}
\contentsline {section}{\IeC {\CYRD }\IeC {\cyro }\IeC {\cyrd }\IeC {\cyra }\IeC {\cyrt }\IeC {\cyro }\IeC {\cyrk } \IeC {\CYRD }. \IeC {\CYRL }\IeC {\cyrii }\IeC {\cyrs }\IeC {\cyrt }\IeC {\cyri }\IeC {\cyrn }\IeC {\cyrg }\IeC {\cyri }}{50}
\contentsfinish 
