%!PS-Adobe-3.0 EPSF-3.0 
%%BoundingBox: 0 0 555 735
%%Pages: 0
%%Creator: Sun Microsystems, Inc.
%%Title: none
%%CreationDate: none
%%LanguageLevel: 2
%%EndComments
%%BeginProlog
%%BeginResource: procset SDRes-Prolog 1.0 0
/b4_inc_state save def
/dict_count countdictstack def
/op_count count 1 sub def
userdict begin
0 setgray 0 setlinecap 1 setlinewidth 0 setlinejoin 10 setmiterlimit[] 0 setdash newpath
/languagelevel where {pop languagelevel 1 ne {false setstrokeadjust false setoverprint} if} if
/bdef {bind def} bind def
/c {setgray} bdef
/l {neg lineto} bdef
/rl {neg rlineto} bdef
/lc {setlinecap} bdef
/lj {setlinejoin} bdef
/lw {setlinewidth} bdef
/ml {setmiterlimit} bdef
/ld {setdash} bdef
/m {neg moveto} bdef
/ct {6 2 roll neg 6 2 roll neg 6 2 roll neg curveto} bdef
/r {rotate} bdef
/t {neg translate} bdef
/s {scale} bdef
/sw {show} bdef
/gs {gsave} bdef
/gr {grestore} bdef
/f {findfont dup length dict begin
{1 index /FID ne {def} {pop pop} ifelse} forall /Encoding ISOLatin1Encoding def
currentdict end /NFont exch definefont pop /NFont findfont} bdef
/p {closepath} bdef
/sf {scalefont setfont} bdef
/ef {eofill}bdef
/pc {closepath stroke}bdef
/ps {stroke}bdef
/pum {matrix currentmatrix}bdef
/pom {setmatrix}bdef
/bs {/aString exch def /nXOfs exch def /nWidth exch def currentpoint nXOfs 0 rmoveto pum nWidth aString stringwidth pop div 1 scale aString show pom moveto} bdef
%%EndResource
%%EndProlog
%%BeginSetup
%%EndSetup
%%Page: 1 1
%%BeginPageSetup
%%EndPageSetup
pum
0.02833 0.02833 s 
0 -25940 t
/tm matrix currentmatrix def
gs
tm setmatrix
-1000 -1000 t 
1 1 s 
1000 1000 m 20589 1000 l 20589 26939 l 1000 26939 l 1000 1000 l eoclip newpath
gs
0 0 m 19589 0 l 19589 25939 l 0 25939 l 0 0 l eoclip newpath
0.996 c 6815 8620 m  6180 8620 l  6180 7350 l  7450 7350 l  7450 8620 l 
6815 8620 l  p ef
0 lw 1 lj 0.000 c 6815 8620 m  6180 8620 l  6180 7350 l  7450 7350 l  7450 8620 l 
6815 8620 l  pc
pum
6640 8206 t
0.101 c 237 0 m  181 0 l  181 -356 l  167 -343 150 -330 128 -317 ct 106 -305 87 -295 69 -289 ct 
69 -343 l  100 -357 128 -375 151 -396 ct 174 -417 191 -437 201 -457 ct 237 -457 l 
237 0 l  p ef
pom
0.996 c 3640 8620 m  3005 8620 l  3005 7350 l  4275 7350 l  4275 8620 l 
3640 8620 l  p ef
0.000 c 3640 8620 m  3005 8620 l  3005 7350 l  4275 7350 l  4275 8620 l 
3640 8620 l  pc
pum
3340 8206 t
pom
pum
3518 8206 t
0.101 c 49 0 m  49 -455 l  220 -455 l  251 -455 274 -454 290 -451 ct 312 -447 331 -440 346 -429 ct 
361 -419 373 -404 382 -385 ct 391 -367 396 -346 396 -323 ct 396 -285 384 -252 359 -225 ct 
334 -198 290 -185 226 -185 ct 109 -185 l  109 0 l  49 0 l  p
109 -239 m  227 -239 l  266 -239 293 -246 309 -260 ct 326 -275 334 -295 334 -322 ct 
334 -341 329 -357 320 -370 ct 310 -384 297 -393 282 -397 ct 271 -400 253 -401 225 -401 ct 
109 -401 l  109 -239 l  p ef
pom
0.996 c 6815 9890 m  6815 9890 l  7162 9890 7451 9962 7451 10048 ct 7451 11002 l 
7451 11088 7162 11160 6815 11160 ct 6468 11160 6180 11088 6180 11002 ct 6180 10048 l 
6180 9962 6468 9890 6815 9890 ct p
6180 9890 m  6180 9890 l  p
7451 11161 m  7451 11161 l  p ef
0.000 c 6815 9890 m  6468 9890 6180 9962 6180 10048 ct 6180 11002 l  6180 11088 6468 11160 6815 11160 ct 
7162 11160 7451 11088 7451 11002 ct 7451 10048 l  7451 9962 7162 9890 6815 9890 ct 
6815 9890 l  pc
6180 9890 m  6180 9890 l  pc
7451 11161 m  7451 11161 l  pc
0.996 c 6815 9890 m  6815 9890 l  7162 9890 7451 9962 7451 10048 ct 7451 10135 7162 10207 6815 10207 ct 
6468 10207 6180 10135 6180 10048 ct 6180 9962 6468 9890 6815 9890 ct p
6180 9890 m  6180 9890 l  p
7451 11161 m  7451 11161 l  p ef
0.000 c 6815 9890 m  6468 9890 6180 9962 6180 10048 ct 6180 10135 6468 10207 6815 10207 ct 
7162 10207 7451 10135 7451 10048 ct 7451 9962 7162 9890 6815 9890 ct 6815 9890 l 
pc
6180 9890 m  6180 9890 l  pc
7451 11161 m  7451 11161 l  pc

pum
5795 12093 t
0.101 c 257 -41 m  236 -24 216 -11 197 -4 ct 178 3 157 7 136 7 ct 99 7 72 -2 52 -20 ct 
33 -37 23 -60 23 -87 ct 23 -103 27 -118 34 -131 ct 41 -145 51 -156 63 -164 ct 75 -172 88 -178 103 -182 ct 
114 -185 130 -188 153 -190 ct 198 -196 231 -202 252 -209 ct 252 -217 252 -222 252 -224 ct 
252 -247 247 -263 237 -272 ct 222 -285 201 -291 173 -291 ct 147 -291 127 -286 115 -277 ct 
102 -268 93 -252 87 -228 ct 33 -236 l  38 -259 46 -278 57 -292 ct 68 -307 85 -318 106 -326 ct 
128 -333 153 -337 181 -337 ct 209 -337 232 -334 250 -327 ct 267 -321 280 -312 288 -302 ct 
297 -292 302 -280 306 -264 ct 308 -255 309 -238 309 -213 ct 309 -138 l  309 -87 310 -54 312 -40 ct 
314 -26 319 -13 326 0 ct 268 0 l  262 -12 258 -26 257 -41 ct p
252 -166 m  232 -157 201 -150 161 -145 ct 138 -141 122 -138 112 -133 ct 103 -129 95 -123 90 -115 ct 
85 -107 82 -99 82 -89 ct 82 -74 88 -62 99 -52 ct 111 -42 127 -37 149 -37 ct 170 -37 189 -41 206 -51 ct 
223 -60 235 -73 243 -89 ct 249 -102 252 -121 252 -145 ct 252 -166 l  p ef
407 0 m  407 -64 l  471 -64 l  471 0 l  471 23 467 42 459 57 ct 450 71 437 82 419 90 ct 
404 66 l  416 61 424 53 430 43 ct 435 33 438 19 439 0 ct 407 0 l  p ef
754 0 m  754 -455 l  845 -455 l  952 -133 l  962 -103 969 -80 974 -65 ct 
979 -82 987 -106 998 -138 ct 1107 -455 l  1188 -455 l  1188 0 l  1130 0 l 
1130 -381 l  998 0 l  944 0 l  812 -387 l  812 0 l  754 0 l  p ef
1283 0 m  1283 -455 l  1453 -455 l  1488 -455 1516 -450 1537 -441 ct 1558 -432 1574 -418 1586 -399 ct 
1598 -380 1604 -359 1604 -339 ct 1604 -319 1598 -301 1588 -284 ct 1577 -266 1561 -253 1540 -242 ct 
1568 -234 1589 -220 1604 -201 ct 1618 -181 1626 -158 1626 -132 ct 1626 -111 1621 -91 1612 -72 ct 
1603 -54 1592 -40 1579 -30 ct 1566 -20 1549 -13 1529 -8 ct 1509 -3 1485 0 1456 0 ct 
1283 0 l  p
1343 -264 m  1441 -264 l  1468 -264 1487 -265 1498 -269 ct 1514 -274 1525 -281 1533 -292 ct 
1541 -302 1545 -315 1545 -331 ct 1545 -347 1541 -360 1534 -371 ct 1526 -383 1516 -391 1503 -395 ct 
1489 -399 1466 -401 1434 -401 ct 1343 -401 l  1343 -264 l  p
1343 -54 m  1456 -54 l  1475 -54 1489 -54 1497 -56 ct 1511 -58 1522 -62 1531 -68 ct 
1541 -74 1548 -82 1554 -94 ct 1560 -105 1563 -117 1563 -132 ct 1563 -149 1559 -164 1550 -176 ct 
1542 -189 1530 -197 1514 -202 ct 1499 -207 1477 -210 1448 -210 ct 1343 -210 l 
1343 -54 l  p ef
1715 0 m  1715 -64 l  1779 -64 l  1779 0 l  1779 23 1775 42 1767 57 ct 1758 71 1745 82 1727 90 ct 
1712 66 l  1724 61 1732 53 1738 43 ct 1743 33 1746 19 1747 0 ct 1715 0 l  p ef
pom
pum
5795 12804 t
47 0 m  47 -455 l  138 -455 l  245 -133 l  255 -103 262 -80 267 -65 ct 272 -82 280 -106 291 -138 ct 
400 -455 l  481 -455 l  481 0 l  423 0 l  423 -381 l  291 0 l  237 0 l 
105 -387 l  105 0 l  47 0 l  p ef
902 -159 m  962 -144 l  950 -95 927 -57 894 -31 ct 862 -5 822 8 774 8 ct 725 8 685 -2 655 -22 ct 
624 -42 601 -71 585 -109 ct 569 -147 561 -187 561 -231 ct 561 -278 570 -319 588 -355 ct 
606 -390 632 -417 665 -435 ct 698 -453 735 -463 775 -463 ct 821 -463 859 -451 890 -428 ct 
921 -405 943 -372 955 -330 ct 895 -316 l  885 -349 870 -373 850 -388 ct 830 -403 804 -411 774 -411 ct 
739 -411 710 -403 686 -386 ct 663 -369 646 -347 637 -318 ct 627 -290 623 -261 623 -231 ct 
623 -192 628 -159 640 -130 ct 651 -101 668 -79 692 -65 ct 716 -51 742 -44 769 -44 ct 
803 -44 832 -53 855 -73 ct 878 -92 894 -121 902 -159 ct p ef
1042 0 m  1042 -64 l  1106 -64 l  1106 0 l  1106 23 1102 42 1094 57 ct 1085 71 1072 82 1054 90 ct 
1039 66 l  1051 61 1059 53 1065 43 ct 1070 33 1073 19 1074 0 ct 1042 0 l  p ef
1389 0 m  1389 -455 l  1480 -455 l  1587 -133 l  1597 -103 1604 -80 1609 -65 ct 
1614 -82 1622 -106 1633 -138 ct 1742 -455 l  1823 -455 l  1823 0 l  1765 0 l 
1765 -381 l  1633 0 l  1579 0 l  1447 -387 l  1447 0 l  1389 0 l  p ef
1920 0 m  1920 -455 l  2077 -455 l  2112 -455 2139 -453 2158 -448 ct 2184 -442 2206 -432 2224 -416 ct 
2248 -396 2266 -370 2278 -338 ct 2290 -307 2296 -271 2296 -230 ct 2296 -195 2292 -165 2284 -138 ct 
2276 -111 2265 -89 2253 -72 ct 2240 -54 2226 -41 2211 -31 ct 2196 -21 2178 -13 2157 -8 ct 
2136 -3 2112 0 2084 0 ct 1920 0 l  p
1980 -54 m  2077 -54 l  2107 -54 2131 -56 2148 -62 ct 2165 -68 2178 -76 2189 -86 ct 
2203 -100 2214 -119 2222 -143 ct 2230 -167 2234 -197 2234 -231 ct 2234 -279 2226 -315 2210 -341 ct 
2195 -366 2176 -383 2153 -392 ct 2137 -398 2111 -401 2076 -401 ct 1980 -401 l 
1980 -54 l  p ef
pom
0.996 c 2270 5445 m  1635 5445 l  1635 4175 l  2905 4175 l  2905 5445 l 
2270 5445 l  p ef
0.000 c 2270 5445 m  1635 5445 l  1635 4175 l  2905 4175 l  2905 5445 l 
2270 5445 l  pc
pum
1688 5031 t
pom
pum
1866 5031 t
0.101 c 49 0 m  49 -455 l  220 -455 l  251 -455 274 -454 290 -451 ct 312 -447 331 -440 346 -429 ct 
361 -419 373 -404 382 -385 ct 391 -367 396 -346 396 -323 ct 396 -285 384 -252 359 -225 ct 
334 -198 290 -185 226 -185 ct 109 -185 l  109 0 l  49 0 l  p
109 -239 m  227 -239 l  266 -239 293 -246 309 -260 ct 326 -275 334 -295 334 -322 ct 
334 -341 329 -357 320 -370 ct 310 -384 297 -393 282 -397 ct 271 -400 253 -401 225 -401 ct 
109 -401 l  109 -239 l  p ef
443 -137 m  443 -193 l  615 -193 l  615 -137 l  443 -137 l  p ef
872 0 m  816 0 l  816 -356 l  802 -343 785 -330 763 -317 ct 741 -305 722 -295 704 -289 ct 
704 -343 l  735 -357 763 -375 786 -396 ct 809 -417 826 -437 836 -457 ct 872 -457 l 
872 0 l  p ef
pom
0.996 c 8085 5445 m  7450 5445 l  7450 4175 l  8720 4175 l  8720 5445 l 
8085 5445 l  p ef
0.000 c 8085 5445 m  7450 5445 l  7450 4175 l  8720 4175 l  8720 5445 l 
8085 5445 l  pc
pum
7910 5031 t
0.101 c 320 -54 m  320 0 l  19 0 l  19 -13 21 -26 26 -39 ct 33 -59 46 -79 62 -99 ct 
79 -119 104 -142 136 -168 ct 185 -209 218 -241 236 -265 ct 253 -288 262 -311 262 -332 ct 
262 -354 254 -373 238 -388 ct 222 -403 202 -411 176 -411 ct 149 -411 128 -403 112 -387 ct 
96 -370 87 -348 87 -319 ct 30 -325 l  34 -368 48 -401 74 -423 ct 100 -446 134 -457 177 -457 ct 
221 -457 255 -445 281 -421 ct 306 -396 319 -366 319 -331 ct 319 -312 315 -295 308 -277 ct 
300 -259 288 -241 271 -221 ct 254 -202 225 -175 185 -141 ct 151 -113 130 -94 120 -84 ct 
111 -74 103 -64 97 -54 ct 320 -54 l  p ef
pom
0.996 c 5045 2905 m  4410 2905 l  4410 1635 l  5680 1635 l  5680 2905 l 
5045 2905 l  p ef
0.000 c 5045 2905 m  4410 2905 l  4410 1635 l  5680 1635 l  5680 2905 l 
5045 2905 l  pc
pum
4728 2491 t
pom
pum
4906 2491 t
0.101 c 48 0 m  48 -455 l  110 -455 l  349 -98 l  349 -455 l  406 -455 l 
406 0 l  345 0 l  106 -357 l  106 0 l  48 0 l  p ef
pom
0.000 c 6180 7985 m  4275 7985 l  ps
6815 7350 m  8085 5445 l  ps
6815 8620 m  6815 9890 l  ps
3640 7350 m  2270 5445 l  ps

pum
6365 2721 t
pom
pum
6543 2721 t
0.101 c 46 0 m  46 -87 l  133 -87 l  133 0 l  46 0 l  p ef
402 0 m  402 -87 l  489 -87 l  489 0 l  402 0 l  p ef
757 0 m  757 -87 l  844 -87 l  844 0 l  757 0 l  p ef
pom

pum
2585 2721 t
pom
pum
2763 2721 t
46 0 m  46 -87 l  133 -87 l  133 0 l  46 0 l  p ef
402 0 m  402 -87 l  489 -87 l  489 0 l  402 0 l  p ef
757 0 m  757 -87 l  844 -87 l  844 0 l  757 0 l  p ef
pom
gr
gs
0 0 m 19589 0 l 19589 25939 l 0 25939 l 0 0 l eoclip newpath
gr
gr
0 25940 t 
pom
count op_count sub {pop} repeat countdictstack dict_count sub {end} repeat b4_inc_state restore
%%PageTrailer
%%Trailer
%%EOF
