Direct Internal RAM:
   Name             Start    End      Size     Max     
   ---------------- -------- -------- -------- --------
   REG_BANK_0       0x00     0x07         8        8   
   REG_BANK_1       0x08                  0        8   
   REG_BANK_2       0x10                  0        8   
   REG_BANK_3       0x18                  0        8   
   BSEG_BYTES       0x20                  0       16   
   DATA             0x08     0x10         9      128   
   ---------------- -------- -------- -------- --------
   TOTAL:           0x00     0x10        17      128   

Stack starts at: 0x11 with 239 bytes available

Other memory:
   Name             Start    End      Size     Max     
   ---------------- -------- -------- -------- --------
   INDIRECT RAM     0x80                  0      128   
   EXTERNAL RAM     0x0000                0    65536   
   ROM/EPROM/FLASH  0x0000   0x02c0     705    65536   
