<?xml version="1.0" encoding="UTF-8" standalone="no"?>
<!-- Created with Inkscape (http://www.inkscape.org/) -->

<svg
   xmlns:dc="http://purl.org/dc/elements/1.1/"
   xmlns:cc="http://creativecommons.org/ns#"
   xmlns:rdf="http://www.w3.org/1999/02/22-rdf-syntax-ns#"
   xmlns:svg="http://www.w3.org/2000/svg"
   xmlns="http://www.w3.org/2000/svg"
   xmlns:sodipodi="http://sodipodi.sourceforge.net/DTD/sodipodi-0.dtd"
   xmlns:inkscape="http://www.inkscape.org/namespaces/inkscape"
   width="744.09448819"
   height="1052.3622047"
   id="svg2"
   version="1.1"
   inkscape:version="0.48.0 r9654"
   sodipodi:docname="v1.png">
  <defs
     id="defs4" />
  <sodipodi:namedview
     id="base"
     pagecolor="#ffffff"
     bordercolor="#666666"
     borderopacity="1.0"
     inkscape:pageopacity="0.0"
     inkscape:pageshadow="2"
     inkscape:zoom="2.8"
     inkscape:cx="87.376659"
     inkscape:cy="926.3282"
     inkscape:document-units="px"
     inkscape:current-layer="layer1"
     showgrid="false"
     inkscape:window-width="1440"
     inkscape:window-height="826"
     inkscape:window-x="0"
     inkscape:window-y="25"
     inkscape:window-maximized="1" />
  <metadata
     id="metadata7">
    <rdf:RDF>
      <cc:Work
         rdf:about="">
        <dc:format>image/svg+xml</dc:format>
        <dc:type
           rdf:resource="http://purl.org/dc/dcmitype/StillImage" />
        <dc:title></dc:title>
      </cc:Work>
    </rdf:RDF>
  </metadata>
  <g
     inkscape:label="Layer 1"
     inkscape:groupmode="layer"
     id="layer1">
    <path
       style="fill:none;stroke:#000000;stroke-width:0.53958809px;stroke-linecap:butt;stroke-linejoin:miter;stroke-opacity:1"
       d="m 43.815753,220.0631 0,-77.94448"
       id="path3028"
       inkscape:connector-curvature="0" />
    <path
       style="fill:none;stroke:#000000;stroke-width:0.53958809px;stroke-linecap:butt;stroke-linejoin:miter;stroke-opacity:1"
       d="m 136.47702,218.4279 0,-75.21915"
       id="path3030"
       inkscape:connector-curvature="0" />
    <path
       style="fill:none;stroke:#000000;stroke-width:0.53958809px;stroke-linecap:butt;stroke-linejoin:miter;stroke-opacity:1"
       d="m 229.68336,219.51803 0,-76.85435"
       id="path3032"
       inkscape:connector-curvature="0" />
    <path
       style="fill:none;stroke:#000000;stroke-width:0.53958809px;stroke-linecap:butt;stroke-linejoin:miter;stroke-opacity:1"
       d="m 289.09559,166.6466 0,-77.39942"
       id="path3034"
       inkscape:connector-curvature="0" />
    <path
       style="fill:none;stroke:#000000;stroke-width:0.53958809px;stroke-linecap:butt;stroke-linejoin:miter;stroke-opacity:1"
       d="m 189.89352,166.10153 0,-76.85435"
       id="path3036"
       inkscape:connector-curvature="0" />
    <path
       style="fill:none;stroke:#000000;stroke-width:0.53958809px;stroke-linecap:butt;stroke-linejoin:miter;stroke-opacity:1"
       d="m 97.232253,166.10153 0,-76.85435"
       id="path3038"
       inkscape:connector-curvature="0" />
    <path
       style="fill:none;stroke:#000000;stroke-width:0.53958809px;stroke-linecap:butt;stroke-linejoin:miter;stroke-opacity:1"
       d="m 43.815753,142.66368 0,-65.95302"
       id="path3040"
       inkscape:connector-curvature="0"
       sodipodi:nodetypes="cc" />
    <path
       sodipodi:type="arc"
       style="fill:none;stroke:#000000;stroke-width:1px;stroke-linecap:butt;stroke-linejoin:miter;stroke-opacity:1"
       id="path3044"
       sodipodi:cx="140.71428"
       sodipodi:cy="274.50504"
       sodipodi:rx="5.7142859"
       sodipodi:ry="5.7142859"
       d="m 146.42857,274.50504 a 5.7142859,5.7142859 0 1 1 -11.42858,0 5.7142859,5.7142859 0 1 1 11.42858,0 z"
       transform="translate(-97.142857,-55)" />
    <path
       sodipodi:type="arc"
       style="fill:none;stroke:#000000;stroke-width:1px;stroke-linecap:butt;stroke-linejoin:miter;stroke-opacity:1"
       id="path3044-6"
       sodipodi:cx="140.71428"
       sodipodi:cy="274.50504"
       sodipodi:rx="5.7142859"
       sodipodi:ry="5.7142859"
       d="m 146.42857,274.50504 a 5.7142859,5.7142859 0 1 1 -11.42858,0 5.7142859,5.7142859 0 1 1 11.42858,0 z"
       transform="translate(-4.2857072,-54.285711)" />
    <path
       sodipodi:type="arc"
       style="fill:none;stroke:#000000;stroke-width:1px;stroke-linecap:butt;stroke-linejoin:miter;stroke-opacity:1"
       id="path3044-64"
       sodipodi:cx="140.71428"
       sodipodi:cy="274.50504"
       sodipodi:rx="5.7142859"
       sodipodi:ry="5.7142859"
       d="m 146.42857,274.50504 a 5.7142859,5.7142859 0 1 1 -11.42858,0 5.7142859,5.7142859 0 1 1 11.42858,0 z"
       transform="translate(47.857143,-107.85714)" />
    <path
       sodipodi:type="arc"
       style="fill:none;stroke:#000000;stroke-width:1px;stroke-linecap:butt;stroke-linejoin:miter;stroke-opacity:1"
       id="path3044-62"
       sodipodi:cx="140.71428"
       sodipodi:cy="274.50504"
       sodipodi:rx="5.7142859"
       sodipodi:ry="5.7142859"
       d="m 146.42857,274.50504 a 5.7142859,5.7142859 0 1 1 -11.42858,0 5.7142859,5.7142859 0 1 1 11.42858,0 z"
       transform="translate(-42.857136,-107.85714)" />
    <path
       sodipodi:type="arc"
       style="fill:none;stroke:#000000;stroke-width:1px;stroke-linecap:butt;stroke-linejoin:miter;stroke-opacity:1"
       id="path3044-8"
       sodipodi:cx="140.71428"
       sodipodi:cy="274.50504"
       sodipodi:rx="5.7142859"
       sodipodi:ry="5.7142859"
       d="m 146.42857,274.50504 a 5.7142859,5.7142859 0 1 1 -11.42858,0 5.7142859,5.7142859 0 1 1 11.42858,0 z"
       transform="translate(89.285723,-54.999997)" />
    <path
       sodipodi:type="arc"
       style="fill:none;stroke:#000000;stroke-width:1px;stroke-linecap:butt;stroke-linejoin:miter;stroke-opacity:1"
       id="path3044-9"
       sodipodi:cx="140.71428"
       sodipodi:cy="274.50504"
       sodipodi:rx="5.7142859"
       sodipodi:ry="5.7142859"
       d="m 146.42857,274.50504 a 5.7142859,5.7142859 0 1 1 -11.42858,0 5.7142859,5.7142859 0 1 1 11.42858,0 z"
       transform="translate(145.71429,-108.57143)" />
    <path
       sodipodi:type="arc"
       style="fill:none;stroke:#000000;stroke-width:1px;stroke-linecap:butt;stroke-linejoin:miter;stroke-opacity:1"
       id="path3044-60"
       sodipodi:cx="140.71428"
       sodipodi:cy="274.50504"
       sodipodi:rx="5.7142859"
       sodipodi:ry="5.7142859"
       d="m 146.42857,274.50504 a 5.7142859,5.7142859 0 1 1 -11.42858,0 5.7142859,5.7142859 0 1 1 11.42858,0 z"
       transform="translate(-96.428565,-198.57142)" />
    <path
       sodipodi:type="arc"
       style="fill:none;stroke:#000000;stroke-width:1px;stroke-linecap:butt;stroke-linejoin:miter;stroke-opacity:1"
       id="path3044-7"
       sodipodi:cx="140.71428"
       sodipodi:cy="274.50504"
       sodipodi:rx="5.7142859"
       sodipodi:ry="5.7142859"
       d="m 146.42857,274.50504 a 5.7142859,5.7142859 0 1 1 -11.42858,0 5.7142859,5.7142859 0 1 1 11.42858,0 z"
       transform="translate(-43.571422,-249.99999)" />
    <text
       xml:space="preserve"
       style="font-size:12px;font-style:normal;font-weight:normal;line-height:125%;letter-spacing:0px;word-spacing:0px;fill:#000000;fill-opacity:1;stroke:none;font-family:Bitstream Vera Sans"
       x="37.375645"
       y="246.26045"
       id="text3912"
       sodipodi:linespacing="125%"><tspan
         sodipodi:role="line"
         id="tspan3914"
         x="37.375645"
         y="246.26045">1</tspan></text>
    <text
       xml:space="preserve"
       style="font-size:12px;font-style:normal;font-weight:normal;line-height:125%;letter-spacing:0px;word-spacing:0px;fill:#000000;fill-opacity:1;stroke:none;font-family:Bitstream Vera Sans"
       x="135.36044"
       y="244.24014"
       id="text3916"
       sodipodi:linespacing="125%"><tspan
         sodipodi:role="line"
         id="tspan3918"
         x="135.36044"
         y="244.24014">2</tspan></text>
    <text
       xml:space="preserve"
       style="font-size:12px;font-style:normal;font-weight:normal;line-height:125%;letter-spacing:0px;word-spacing:0px;fill:#000000;fill-opacity:1;stroke:none;font-family:Bitstream Vera Sans"
       x="230.31477"
       y="249.29091"
       id="text3920"
       sodipodi:linespacing="125%"><tspan
         sodipodi:role="line"
         id="tspan3922"
         x="230.31477"
         y="249.29091">3</tspan></text>
    <text
       xml:space="preserve"
       style="font-size:12px;font-style:normal;font-weight:normal;line-height:125%;letter-spacing:0px;word-spacing:0px;fill:#000000;fill-opacity:1;stroke:none;font-family:Bitstream Vera Sans"
       x="92.934036"
       y="185.65131"
       id="text3924"
       sodipodi:linespacing="125%"><tspan
         sodipodi:role="line"
         id="tspan3926"
         x="92.934036"
         y="185.65131">4</tspan></text>
    <text
       xml:space="preserve"
       style="font-size:12px;font-style:normal;font-weight:normal;line-height:125%;letter-spacing:0px;word-spacing:0px;fill:#000000;fill-opacity:1;stroke:none;font-family:Bitstream Vera Sans"
       x="193.9493"
       y="189.69191"
       id="text3928"
       sodipodi:linespacing="125%"><tspan
         sodipodi:role="line"
         id="tspan3930"
         x="193.9493"
         y="189.69191">5</tspan></text>
    <text
       xml:space="preserve"
       style="font-size:12px;font-style:normal;font-weight:normal;line-height:125%;letter-spacing:0px;word-spacing:0px;fill:#000000;fill-opacity:1;stroke:none;font-family:Bitstream Vera Sans"
       x="293.95438"
       y="187.6716"
       id="text3932"
       sodipodi:linespacing="125%"><tspan
         sodipodi:role="line"
         id="tspan3934"
         x="293.95438"
         y="187.6716">6</tspan></text>
    <path
       sodipodi:type="arc"
       style="fill:none;stroke:#000000;stroke-width:1px;stroke-linecap:butt;stroke-linejoin:miter;stroke-opacity:1"
       id="path3044-73"
       sodipodi:cx="140.71428"
       sodipodi:cy="274.50504"
       sodipodi:rx="5.7142859"
       sodipodi:ry="5.7142859"
       d="m 146.42857,274.50504 a 5.7142859,5.7142859 0 1 1 -11.42858,0 5.7142859,5.7142859 0 1 1 11.42858,0 z"
       transform="translate(-96.022466,-131.94367)" />
    <path
       sodipodi:type="arc"
       style="fill:none;stroke:#000000;stroke-width:1px;stroke-linecap:butt;stroke-linejoin:miter;stroke-opacity:1"
       id="path3044-2"
       sodipodi:cx="140.71428"
       sodipodi:cy="274.50504"
       sodipodi:rx="5.7142859"
       sodipodi:ry="5.7142859"
       d="m 146.42857,274.50504 a 5.7142859,5.7142859 0 1 1 -11.42858,0 5.7142859,5.7142859 0 1 1 11.42858,0 z"
       transform="translate(-4.2857075,-130.71428)" />
    <path
       sodipodi:type="arc"
       style="fill:none;stroke:#000000;stroke-width:1px;stroke-linecap:butt;stroke-linejoin:miter;stroke-opacity:1"
       id="path3044-4"
       sodipodi:cx="140.71428"
       sodipodi:cy="274.50504"
       sodipodi:rx="5.7142859"
       sodipodi:ry="5.7142859"
       d="m 146.42857,274.50504 a 5.7142859,5.7142859 0 1 1 -11.42858,0 5.7142859,5.7142859 0 1 1 11.42858,0 z"
       transform="translate(87.85715,-132.14286)" />
    <path
       sodipodi:type="arc"
       style="fill:none;stroke:#000000;stroke-width:1px;stroke-linecap:butt;stroke-linejoin:miter;stroke-opacity:1"
       id="path3044-44"
       sodipodi:cx="140.71428"
       sodipodi:cy="274.50504"
       sodipodi:rx="5.7142859"
       sodipodi:ry="5.7142859"
       d="m 146.42857,274.50504 a 5.7142859,5.7142859 0 1 1 -11.42858,0 5.7142859,5.7142859 0 1 1 11.42858,0 z"
       transform="translate(147.85715,-184.28571)" />
    <path
       sodipodi:type="arc"
       style="fill:none;stroke:#000000;stroke-width:1px;stroke-linecap:butt;stroke-linejoin:miter;stroke-opacity:1"
       id="path3044-99"
       sodipodi:cx="140.71428"
       sodipodi:cy="274.50504"
       sodipodi:rx="5.7142859"
       sodipodi:ry="5.7142859"
       d="m 146.42857,274.50504 a 5.7142859,5.7142859 0 1 1 -11.42858,0 5.7142859,5.7142859 0 1 1 11.42858,0 z"
       transform="translate(50.000007,-184.64285)" />
    <path
       sodipodi:type="arc"
       style="fill:none;stroke:#000000;stroke-width:1px;stroke-linecap:butt;stroke-linejoin:miter;stroke-opacity:1"
       id="path3044-3"
       sodipodi:cx="140.71428"
       sodipodi:cy="274.50504"
       sodipodi:rx="5.7142859"
       sodipodi:ry="5.7142859"
       d="m 146.42857,274.50504 a 5.7142859,5.7142859 0 1 1 -11.42858,0 5.7142859,5.7142859 0 1 1 11.42858,0 z"
       transform="translate(-43.214279,-184.28571)" />
    <text
       xml:space="preserve"
       style="font-size:12px;font-style:normal;font-weight:normal;line-height:125%;letter-spacing:0px;word-spacing:0px;fill:#000000;fill-opacity:1;stroke:none;font-family:Bitstream Vera Sans"
       x="22.857143"
       y="138.79076"
       id="text3989"
       sodipodi:linespacing="125%"><tspan
         sodipodi:role="line"
         id="tspan3991"
         x="22.857143"
         y="138.79076">7</tspan></text>
    <text
       xml:space="preserve"
       style="font-size:12px;font-style:normal;font-weight:normal;line-height:125%;letter-spacing:0px;word-spacing:0px;fill:#000000;fill-opacity:1;stroke:none;font-family:Bitstream Vera Sans"
       x="124.28571"
       y="130.21931"
       id="text3993"
       sodipodi:linespacing="125%"><tspan
         sodipodi:role="line"
         id="tspan3995"
         x="124.28571"
         y="130.21931">8</tspan></text>
    <text
       xml:space="preserve"
       style="font-size:12px;font-style:normal;font-weight:normal;line-height:125%;letter-spacing:0px;word-spacing:0px;fill:#000000;fill-opacity:1;stroke:none;font-family:Bitstream Vera Sans"
       x="215.71429"
       y="131.6479"
       id="text3997"
       sodipodi:linespacing="125%"><tspan
         sodipodi:role="line"
         id="tspan3999"
         x="215.71429"
         y="131.6479">9</tspan></text>
    <flowRoot
       xml:space="preserve"
       id="flowRoot4001"
       style="fill:black;stroke:none;stroke-opacity:1;stroke-width:1px;stroke-linejoin:miter;stroke-linecap:butt;fill-opacity:1;font-family:Bitstream Vera Sans;font-style:normal;font-weight:normal;font-size:12;line-height:125%;letter-spacing:0px;word-spacing:0px"><flowRegion
         id="flowRegion4003"><rect
           id="rect4005"
           width="42.142857"
           height="19.285715"
           x="245.71428"
           y="93.790756" /></flowRegion><flowPara
         id="flowPara4007"></flowPara></flowRoot>    <text
       xml:space="preserve"
       style="font-size:12px;font-style:normal;font-weight:normal;line-height:125%;letter-spacing:0px;word-spacing:0px;fill:#000000;fill-opacity:1;stroke:none;font-family:Bitstream Vera Sans"
       x="302.85715"
       y="84.505035"
       id="text4009"
       sodipodi:linespacing="125%"><tspan
         sodipodi:role="line"
         id="tspan4011"
         x="302.85715"
         y="84.505035">10</tspan></text>
    <text
       xml:space="preserve"
       style="font-size:12px;font-style:normal;font-weight:normal;line-height:125%;letter-spacing:0px;word-spacing:0px;fill:#000000;fill-opacity:1;stroke:none;font-family:Bitstream Vera Sans"
       x="208.57143"
       y="73.790756"
       id="text4013"
       sodipodi:linespacing="125%"><tspan
         sodipodi:role="line"
         id="tspan4015"
         x="208.57143"
         y="73.790756">11</tspan></text>
    <text
       xml:space="preserve"
       style="font-size:12px;font-style:normal;font-weight:normal;line-height:125%;letter-spacing:0px;word-spacing:0px;fill:#000000;fill-opacity:1;stroke:none;font-family:Bitstream Vera Sans"
       x="111.42857"
       y="78.076469"
       id="text4017"
       sodipodi:linespacing="125%"><tspan
         sodipodi:role="line"
         id="tspan4019"
         x="111.42857"
         y="78.076469">12</tspan></text>
    <text
       xml:space="preserve"
       style="font-size:12px;font-style:normal;font-weight:normal;line-height:125%;letter-spacing:0px;word-spacing:0px;fill:#000000;fill-opacity:1;stroke:none;font-family:Bitstream Vera Sans"
       x="30"
       y="62.362183"
       id="text4021"
       sodipodi:linespacing="125%"><tspan
         sodipodi:role="line"
         id="tspan4023"
         x="30"
         y="62.362183">13</tspan></text>
    <text
       xml:space="preserve"
       style="font-size:12px;font-style:normal;font-weight:normal;line-height:125%;letter-spacing:0px;word-spacing:0px;fill:#000000;fill-opacity:1;stroke:none;font-family:Bitstream Vera Sans"
       x="112.85714"
       y="14.505039"
       id="text4025"
       sodipodi:linespacing="125%"><tspan
         sodipodi:role="line"
         id="tspan4027"
         x="112.85714"
         y="14.505039">14</tspan></text>
    <path
       style="fill:none;stroke:#000000;stroke-width:0.41363105px;stroke-linecap:butt;stroke-linejoin:miter;stroke-opacity:1"
       d="m 97.175705,89.664316 0,-64.381034 0.126368,0"
       id="path4050"
       inkscape:connector-curvature="0" />
    <path
       style="fill:none;stroke:#000000;stroke-width:1px;stroke-linecap:butt;stroke-linejoin:miter;stroke-opacity:1"
       d="m 43.941636,219.74395 92.681494,0 93.06031,0 0,-0.0631"
       id="path4054"
       inkscape:connector-curvature="0" />
    <path
       style="fill:none;stroke:#000000;stroke-width:1px;stroke-linecap:butt;stroke-linejoin:miter;stroke-opacity:1"
       d="m 136.37059,219.74395 53.9169,-53.9169"
       id="path4056"
       inkscape:connector-curvature="0" />
    <path
       style="fill:none;stroke:#000000;stroke-width:1px;stroke-linecap:butt;stroke-linejoin:miter;stroke-opacity:1"
       d="m 97.142857,165.93361 191.071433,0"
       id="path4098"
       inkscape:connector-curvature="0" />
  </g>
</svg>
