\relax 
\catcode`"\active
\select@language{ukrainian}
\@writefile{toc}{\select@language{ukrainian}}
\@writefile{lof}{\select@language{ukrainian}}
\@writefile{lot}{\select@language{ukrainian}}
\@writefile{toc}{\contentsline {section}{\numberline {1}\IeC {\CYRR }\IeC {\cyra }\IeC {\cyrz }\IeC {\cyrd }\IeC {\cyre }\IeC {\cyrl } 1. \IeC {\CYRT }\IeC {\cyre }\IeC {\cyro }\IeC {\cyrr }\IeC {\cyre }\IeC {\cyrt }\IeC {\cyri }\IeC {\cyrch }\IeC {\cyre }\IeC {\cyrs }\IeC {\cyrk }\IeC {\cyri }\IeC {\cyre } \IeC {\cyro }\IeC {\cyrs }\IeC {\cyrn }\IeC {\cyro }\IeC {\cyrv }\IeC {\cyrery } \IeC {\cyri }\IeC {\cyrz }\IeC {\cyrm }\IeC {\cyre }\IeC {\cyrr }\IeC {\cyri }\IeC {\cyrt }\IeC {\cyre }\IeC {\cyrl }\IeC {\cyrsftsn }\IeC {\cyrn }\IeC {\cyro }\IeC {\cyrishrt } \IeC {\cyrt }\IeC {\cyre }\IeC {\cyrh }\IeC {\cyrn }\IeC {\cyri }\IeC {\cyrk }\IeC {\cyri }\IeC {\cyri } \IeC {\cyrp }\IeC {\cyrr }\IeC {\cyro }\IeC {\cyrv }\IeC {\cyre }\IeC {\cyrd }\IeC {\cyre }\IeC {\cyrn }\IeC {\cyri }\IeC {\cyrya } \IeC {\cyrn }\IeC {\cyra }\IeC {\cyru }\IeC {\cyrch }\IeC {\cyrn }\IeC {\cyrery }\IeC {\cyrh } \IeC {\cyrerev }\IeC {\cyrk }\IeC {\cyrs }\IeC {\cyrp }\IeC {\cyre }\IeC {\cyrr }\IeC {\cyri }\IeC {\cyrm }\IeC {\cyre }\IeC {\cyrn }\IeC {\cyrt }\IeC {\cyra }\IeC {\cyrl }\IeC {\cyrsftsn }\IeC {\cyrn }\IeC {\cyrery }\IeC {\cyrh } \IeC {\cyri }\IeC {\cyrs }\IeC {\cyrs }\IeC {\cyrl }\IeC {\cyre }\IeC {\cyrd }\IeC {\cyro }\IeC {\cyrv }\IeC {\cyra }\IeC {\cyrn }\IeC {\cyri }\IeC {\cyrishrt }}{1}}
\@writefile{toc}{\contentsline {subsection}{\numberline {1.1} \IeC {\CYRO }\IeC {\cyrs }\IeC {\cyrn }\IeC {\cyro }\IeC {\cyrv }\IeC {\cyrn }\IeC {\cyrery }\IeC {\cyre } \IeC {\cyrp }\IeC {\cyro }\IeC {\cyrn }\IeC {\cyrya }\IeC {\cyrt }\IeC {\cyri }\IeC {\cyrya } \IeC {\cyri } \IeC {\cyro }\IeC {\cyrp }\IeC {\cyrr }\IeC {\cyre }\IeC {\cyrd }\IeC {\cyre }\IeC {\cyrl }\IeC {\cyre }\IeC {\cyrn }\IeC {\cyri }\IeC {\cyrya }}{1}}
\@writefile{toc}{\contentsline {subsection}{\numberline {1.2} \IeC {\CYRO }\IeC {\cyrs }\IeC {\cyrn }\IeC {\cyro }\IeC {\cyrv }\IeC {\cyrn }\IeC {\cyrery }\IeC {\cyre } \IeC {\cyrf }\IeC {\cyri }\IeC {\cyrz }\IeC {\cyri }\IeC {\cyrch }\IeC {\cyre }\IeC {\cyrs }\IeC {\cyrk }\IeC {\cyri }\IeC {\cyre } \IeC {\cyrv }\IeC {\cyre }\IeC {\cyrl }\IeC {\cyri }\IeC {\cyrch }\IeC {\cyri }\IeC {\cyrn }\IeC {\cyrery } \IeC {\cyri } \IeC {\cyri }\IeC {\cyrh } \IeC {\cyrh }\IeC {\cyra }\IeC {\cyrr }\IeC {\cyra }\IeC {\cyrk }\IeC {\cyrt }\IeC {\cyre }\IeC {\cyrr }\IeC {\cyri }\IeC {\cyrs }\IeC {\cyrt }\IeC {\cyri }\IeC {\cyrk }\IeC {\cyri }}{2}}
\@writefile{toc}{\contentsline {subsection}{\numberline {1.3}\IeC {\CYRI }\IeC {\cyrz }\IeC {\cyrm }\IeC {\cyre }\IeC {\cyrr }\IeC {\cyri }\IeC {\cyrt }\IeC {\cyre }\IeC {\cyrl }\IeC {\cyrsftsn }\IeC {\cyrn }\IeC {\cyra }\IeC {\cyrya } \IeC {\cyrt }\IeC {\cyre }\IeC {\cyrh }\IeC {\cyrn }\IeC {\cyri }\IeC {\cyrk }\IeC {\cyra } \IeC {\cyrv } \IeC {\cyrs }\IeC {\cyri }\IeC {\cyrs }\IeC {\cyrt }\IeC {\cyre }\IeC {\cyrm }\IeC {\cyra }\IeC {\cyrh } \IeC {\cyru }\IeC {\cyrp }\IeC {\cyrr }\IeC {\cyra }\IeC {\cyrv }\IeC {\cyrl }\IeC {\cyre }\IeC {\cyrn }\IeC {\cyri }\IeC {\cyrya }}{3}}
\@writefile{lof}{\contentsline {figure}{\numberline {1}{\ignorespaces }}{4}}
\newlabel{fig1}{{1}{4}}
\@writefile{toc}{\contentsline {subsection}{\numberline {1.4}\IeC {\CYRV }\IeC {\cyri }\IeC {\cyrd }\IeC {\cyrery } \IeC {\cyri }\IeC {\cyrz }\IeC {\cyrm }\IeC {\cyre }\IeC {\cyrr }\IeC {\cyre }\IeC {\cyrn }\IeC {\cyri }\IeC {\cyrishrt }}{4}}
\@writefile{toc}{\contentsline {subsection}{\numberline {1.5}\IeC {\CYRM }\IeC {\cyre }\IeC {\cyrt }\IeC {\cyro }\IeC {\cyrd }\IeC {\cyrery } \IeC {\cyri }\IeC {\cyrz }\IeC {\cyrm }\IeC {\cyre }\IeC {\cyrr }\IeC {\cyre }\IeC {\cyrn }\IeC {\cyri }\IeC {\cyrishrt }}{6}}
\@writefile{lof}{\contentsline {figure}{\numberline {2}{\ignorespaces }}{6}}
\newlabel{fig1}{{2}{6}}
\@writefile{lof}{\contentsline {figure}{\numberline {3}{\ignorespaces }}{7}}
\newlabel{fig1}{{3}{7}}
\@writefile{toc}{\contentsline {subsection}{\numberline {1.6}\IeC {\CYRK }\IeC {\cyrl }\IeC {\cyra }\IeC {\cyrs }\IeC {\cyrs }\IeC {\cyri }\IeC {\cyrf }\IeC {\cyri }\IeC {\cyrk }\IeC {\cyra }\IeC {\cyrc }\IeC {\cyri }\IeC {\cyrya } \IeC {\cyrs }\IeC {\cyrr }\IeC {\cyre }\IeC {\cyrd }\IeC {\cyrs }\IeC {\cyrt }\IeC {\cyrv } \IeC {\cyri }\IeC {\cyrz }\IeC {\cyrm }\IeC {\cyre }\IeC {\cyrr }\IeC {\cyre }\IeC {\cyrn }\IeC {\cyri }\IeC {\cyrya }}{7}}
\@writefile{toc}{\contentsline {subsection}{\numberline {1.7}\IeC {\CYRO }\IeC {\cyrs }\IeC {\cyrn }\IeC {\cyro }\IeC {\cyrv }\IeC {\cyrn }\IeC {\cyrery }\IeC {\cyre } \IeC {\cyrh }\IeC {\cyra }\IeC {\cyrr }\IeC {\cyra }\IeC {\cyrk }\IeC {\cyrt }\IeC {\cyre }\IeC {\cyrr }\IeC {\cyri }\IeC {\cyrs }\IeC {\cyrt }\IeC {\cyri }\IeC {\cyrk }\IeC {\cyri } \IeC {\cyrs }\IeC {\cyrr }\IeC {\cyre }\IeC {\cyrd }\IeC {\cyrs }\IeC {\cyrt }\IeC {\cyrv } \IeC {\cyri }\IeC {\cyrz }\IeC {\cyrm }\IeC {\cyre }\IeC {\cyrr }\IeC {\cyre }\IeC {\cyrn }\IeC {\cyri }\IeC {\cyrya }}{8}}
\@writefile{lof}{\contentsline {figure}{\numberline {4}{\ignorespaces }}{9}}
\newlabel{fig1}{{4}{9}}
\@writefile{toc}{\contentsline {subsection}{\numberline {1.8}\IeC {\CYRP }\IeC {\cyro }\IeC {\cyrg }\IeC {\cyrr }\IeC {\cyre }\IeC {\cyrsh }\IeC {\cyrn }\IeC {\cyro }\IeC {\cyrs }\IeC {\cyrt }\IeC {\cyri } \IeC {\cyri }\IeC {\cyrz }\IeC {\cyrm }\IeC {\cyre }\IeC {\cyrr }\IeC {\cyre }\IeC {\cyrn }\IeC {\cyri }\IeC {\cyrishrt }}{9}}
\@writefile{toc}{\contentsline {subsection}{\numberline {1.9}\IeC {\CYRO }\IeC {\cyrc }\IeC {\cyre }\IeC {\cyrn }\IeC {\cyrk }\IeC {\cyra } \IeC {\cyrs }\IeC {\cyrl }\IeC {\cyru }\IeC {\cyrch }\IeC {\cyra }\IeC {\cyrishrt }\IeC {\cyrn }\IeC {\cyrery }\IeC {\cyrh } \IeC {\cyrp }\IeC {\cyro }\IeC {\cyrg }\IeC {\cyrr }\IeC {\cyre }\IeC {\cyrsh }\IeC {\cyrn }\IeC {\cyro }\IeC {\cyrs }\IeC {\cyrt }\IeC {\cyre }\IeC {\cyrishrt }}{10}}
\@writefile{toc}{\contentsline {subsection}{\numberline {1.10}\IeC {\CYRS }\IeC {\cyri }\IeC {\cyrs }\IeC {\cyrt }\IeC {\cyre }\IeC {\cyrm }\IeC {\cyra }\IeC {\cyrt }\IeC {\cyri }\IeC {\cyrch }\IeC {\cyre }\IeC {\cyrs }\IeC {\cyrk }\IeC {\cyra }\IeC {\cyrya } \IeC {\cyrp }\IeC {\cyro }\IeC {\cyrg }\IeC {\cyrr }\IeC {\cyre }\IeC {\cyrsh }\IeC {\cyrn }\IeC {\cyro }\IeC {\cyrs }\IeC {\cyrt }\IeC {\cyrsftsn }}{10}}
\@writefile{lof}{\contentsline {figure}{\numberline {5}{\ignorespaces }}{11}}
\newlabel{fig1}{{5}{11}}
\@writefile{lof}{\contentsline {figure}{\numberline {6}{\ignorespaces }}{11}}
\newlabel{fig1}{{6}{11}}
\@writefile{toc}{\contentsline {subsection}{\numberline {1.11}\IeC {\CYRM }\IeC {\cyre }\IeC {\cyrt }\IeC {\cyro }\IeC {\cyrd }\IeC {\cyri }\IeC {\cyrk }\IeC {\cyri } \IeC {\cyro }\IeC {\cyrc }\IeC {\cyre }\IeC {\cyrn }\IeC {\cyrk }\IeC {\cyri } \IeC {\cyrr }\IeC {\cyre }\IeC {\cyrz }\IeC {\cyru }\IeC {\cyrl }\IeC {\cyrsftsn }\IeC {\cyrt }\IeC {\cyra }\IeC {\cyrt }\IeC {\cyro }\IeC {\cyrv } \IeC {\cyrp }\IeC {\cyrr }\IeC {\cyri } \IeC {\cyrr }\IeC {\cyra }\IeC {\cyrz }\IeC {\cyrl }\IeC {\cyri }\IeC {\cyrch }\IeC {\cyrn }\IeC {\cyrery }\IeC {\cyrh } \IeC {\cyrm }\IeC {\cyre }\IeC {\cyrt }\IeC {\cyro }\IeC {\cyrd }\IeC {\cyra }\IeC {\cyrh } \IeC {\cyri }\IeC {\cyrz }\IeC {\cyrm }\IeC {\cyre }\IeC {\cyrr }\IeC {\cyre }\IeC {\cyrn }\IeC {\cyri }\IeC {\cyrishrt }}{12}}
\@writefile{toc}{\contentsline {subsection}{\numberline {1.12}\IeC {\CYRP }\IeC {\cyro }\IeC {\cyrd }\IeC {\cyrh }\IeC {\cyro }\IeC {\cyrd }\IeC {\cyrery } \IeC {\cyrk } \IeC {\cyrr }\IeC {\cyre }\IeC {\cyra }\IeC {\cyrl }\IeC {\cyri }\IeC {\cyrz }\IeC {\cyra }\IeC {\cyrc }\IeC {\cyri }\IeC {\cyri } \IeC {\cyrm }\IeC {\cyrn }\IeC {\cyro }\IeC {\cyrg }\IeC {\cyro }\IeC {\cyrk }\IeC {\cyrr }\IeC {\cyra }\IeC {\cyrt }\IeC {\cyrn }\IeC {\cyrery }\IeC {\cyrh } \IeC {\cyri }\IeC {\cyrz }\IeC {\cyrm }\IeC {\cyre }\IeC {\cyrr }\IeC {\cyre }\IeC {\cyrn }\IeC {\cyri }\IeC {\cyrishrt }}{13}}
\@writefile{toc}{\contentsline {subsection}{\numberline {1.13}\IeC {\CYRM }\IeC {\cyre }\IeC {\cyrt }\IeC {\cyro }\IeC {\cyrd }\IeC {\cyri }\IeC {\cyrk }\IeC {\cyri } \IeC {\cyro }\IeC {\cyrc }\IeC {\cyre }\IeC {\cyrn }\IeC {\cyrk }\IeC {\cyri } \IeC {\cyrp }\IeC {\cyro }\IeC {\cyrg }\IeC {\cyrr }\IeC {\cyre }\IeC {\cyrsh }\IeC {\cyrn }\IeC {\cyro }\IeC {\cyrs }\IeC {\cyrt }\IeC {\cyre }\IeC {\cyrishrt } \IeC {\cyrp }\IeC {\cyrr }\IeC {\cyri } \IeC {\cyrp }\IeC {\cyrr }\IeC {\cyro }\IeC {\cyrv }\IeC {\cyre }\IeC {\cyrd }\IeC {\cyre }\IeC {\cyrn }\IeC {\cyri }\IeC {\cyri } \IeC {\cyrk }\IeC {\cyro }\IeC {\cyrs }\IeC {\cyrv }\IeC {\cyre }\IeC {\cyrn }\IeC {\cyrn }\IeC {\cyrery }\IeC {\cyrh } \IeC {\cyri }\IeC {\cyrz }\IeC {\cyrm }\IeC {\cyre }\IeC {\cyrr }\IeC {\cyre }\IeC {\cyrn }\IeC {\cyri }\IeC {\cyrishrt }}{13}}
\@writefile{toc}{\contentsline {subsection}{\numberline {1.14}\IeC {\CYRM }\IeC {\cyre }\IeC {\cyrt }\IeC {\cyro }\IeC {\cyrd }\IeC {\cyri }\IeC {\cyrk }\IeC {\cyra } \IeC {\cyro }\IeC {\cyrc }\IeC {\cyre }\IeC {\cyrn }\IeC {\cyrk }\IeC {\cyri } \IeC {\cyrr }\IeC {\cyre }\IeC {\cyrz }\IeC {\cyru }\IeC {\cyrl }\IeC {\cyrsftsn }\IeC {\cyrt }\IeC {\cyra }\IeC {\cyrt }\IeC {\cyro }\IeC {\cyrv } \IeC {\cyrd }\IeC {\cyrl }\IeC {\cyrya } \IeC {\cyrs }\IeC {\cyro }\IeC {\cyrv }\IeC {\cyro }\IeC {\cyrk }\IeC {\cyru }\IeC {\cyrp }\IeC {\cyrn }\IeC {\cyrery }\IeC {\cyrh } \IeC {\cyri } \IeC {\cyrs }\IeC {\cyro }\IeC {\cyrv }\IeC {\cyrm }\IeC {\cyre }\IeC {\cyrs }\IeC {\cyrt }\IeC {\cyrn }\IeC {\cyrery }\IeC {\cyrh } \IeC {\cyri }\IeC {\cyrz }\IeC {\cyrm }\IeC {\cyre }\IeC {\cyrr }\IeC {\cyre }\IeC {\cyrn }\IeC {\cyri }\IeC {\cyrishrt }}{14}}
\@writefile{toc}{\contentsline {subsection}{\numberline {1.15}\IeC {\CYRS }\IeC {\cyru }\IeC {\cyrm }\IeC {\cyrm }\IeC {\cyri }\IeC {\cyrr }\IeC {\cyro }\IeC {\cyrv }\IeC {\cyra }\IeC {\cyrn }\IeC {\cyri }\IeC {\cyre } \IeC {\cyrr }\IeC {\cyre }\IeC {\cyrz }\IeC {\cyru }\IeC {\cyrl }\IeC {\cyrsftsn }\IeC {\cyrt }\IeC {\cyra }\IeC {\cyrt }\IeC {\cyro }\IeC {\cyrv } \IeC {\cyri }\IeC {\cyrz }\IeC {\cyrm }\IeC {\cyre }\IeC {\cyrr }\IeC {\cyre }\IeC {\cyrn }\IeC {\cyri }\IeC {\cyrishrt }}{15}}
\@writefile{toc}{\contentsline {subsection}{\numberline {1.16}\IeC {\CYRM }\IeC {\cyre }\IeC {\cyrt }\IeC {\cyrr }\IeC {\cyro }\IeC {\cyrl }\IeC {\cyro }\IeC {\cyrg }\IeC {\cyri }\IeC {\cyrch }\IeC {\cyre }\IeC {\cyrs }\IeC {\cyrk }\IeC {\cyri }\IeC {\cyre } \IeC {\cyrk }\IeC {\cyrl }\IeC {\cyra }\IeC {\cyrs }\IeC {\cyrs }\IeC {\cyrery } \IeC {\cyrt }\IeC {\cyro }\IeC {\cyrch }\IeC {\cyrn }\IeC {\cyro }\IeC {\cyrs }\IeC {\cyrt }\IeC {\cyri }}{15}}
\ttl@finishall
