\relax 
\@writefile{toc}{\contentsline {subsection}{\numberline {5.1}\IeC {\CYRZ }\IeC {\cyra }\IeC {\cyrd }\IeC {\cyra }\IeC {\cyrn }\IeC {\cyri }\IeC {\cyre }}{30}}
\@writefile{toc}{\contentsline {paragraph}{\IeC {\CYRV }\IeC {\cyra }\IeC {\cyrr }\IeC {\cyri }\IeC {\cyra }\IeC {\cyrn }\IeC {\cyrt }:}{30}}
\@writefile{toc}{\contentsline {subsection}{\numberline {5.2}\IeC {\CYRO }\IeC {\cyrp }\IeC {\cyrr }\IeC {\cyre }\IeC {\cyrd }\IeC {\cyre }\IeC {\cyrl }\IeC {\cyre }\IeC {\cyrn }\IeC {\cyri }\IeC {\cyre } \IeC {\cyrf }\IeC {\cyru }\IeC {\cyrn }\IeC {\cyrk }\IeC {\cyrc }\IeC {\cyri }\IeC {\cyri } \IeC {\cyrn }\IeC {\cyra }\IeC {\cyrd }\IeC {\cyryo }\IeC {\cyrzh }\IeC {\cyrn }\IeC {\cyro }\IeC {\cyrs }\IeC {\cyrt }\IeC {\cyri }}{31}}
\@writefile{lof}{\contentsline {figure}{\numberline {15}{\ignorespaces \IeC {\CYRM }\IeC {\cyra }\IeC {\cyrr }\IeC {\cyrk }\IeC {\cyro }\IeC {\cyrv }\IeC {\cyrs }\IeC {\cyrk }\IeC {\cyra }\IeC {\cyrya } \IeC {\cyrc }\IeC {\cyre }\IeC {\cyrp }\IeC {\cyrsftsn }, \IeC {\cyro }\IeC {\cyrp }\IeC {\cyri }\IeC {\cyrs }\IeC {\cyrery }\IeC {\cyrv }\IeC {\cyra }\IeC {\cyryu }\IeC {\cyrshch }\IeC {\cyra }\IeC {\cyrya } \IeC {\cyrs }\IeC {\cyro }\IeC {\cyrs }\IeC {\cyrt }\IeC {\cyro }\IeC {\cyrya }\IeC {\cyrn }\IeC {\cyri }\IeC {\cyre } \IeC {\cyrs }\IeC {\cyri }\IeC {\cyrs }\IeC {\cyrt }\IeC {\cyre }\IeC {\cyrm }\IeC {\cyrery }}}{31}}
\@writefile{lof}{\contentsline {figure}{\numberline {16}{\ignorespaces \IeC {\CYRG }\IeC {\cyrr }\IeC {\cyra }\IeC {\cyrf }\IeC {\cyri }\IeC {\cyrk } \IeC {\cyrz }\IeC {\cyra }\IeC {\cyrv }\IeC {\cyri }\IeC {\cyrs }\IeC {\cyri }\IeC {\cyrm }\IeC {\cyro }\IeC {\cyrs }\IeC {\cyrt }\IeC {\cyri } P(t)}}{32}}
\@writefile{toc}{\contentsline {subsection}{\numberline {5.3}\IeC {\CYRV }\IeC {\cyrery }\IeC {\cyrb }\IeC {\cyro }\IeC {\cyrr } \IeC {\cyro }\IeC {\cyrp }\IeC {\cyrt }\IeC {\cyri }\IeC {\cyrm }\IeC {\cyra }\IeC {\cyrl }\IeC {\cyrsftsn }\IeC {\cyrn }\IeC {\cyro }\IeC {\cyrg }\IeC {\cyro } \IeC {\cyrs }\IeC {\cyrp }\IeC {\cyro }\IeC {\cyrs }\IeC {\cyro }\IeC {\cyrb }\IeC {\cyra } \IeC {\cyrr }\IeC {\cyre }\IeC {\cyrm }\IeC {\cyro }\IeC {\cyrn }\IeC {\cyrt }\IeC {\cyra }}{32}}
\@setckpt{./Lab5/Lab5}{
\setcounter{page}{34}
\setcounter{equation}{0}
\setcounter{enumi}{2}
\setcounter{enumii}{0}
\setcounter{enumiii}{0}
\setcounter{enumiv}{0}
\setcounter{footnote}{0}
\setcounter{mpfootnote}{0}
\setcounter{part}{0}
\setcounter{section}{5}
\setcounter{subsection}{3}
\setcounter{subsubsection}{0}
\setcounter{paragraph}{0}
\setcounter{subparagraph}{0}
\setcounter{figure}{16}
\setcounter{table}{8}
\setcounter{parentequation}{0}
\setcounter{lstnumber}{1}
\setcounter{float@type}{8}
\setcounter{lstlisting}{0}
}
