\relax 
\catcode`"\active
\select@language{ukrainian}
\@writefile{toc}{\select@language{ukrainian}}
\@writefile{lof}{\select@language{ukrainian}}
\@writefile{lot}{\select@language{ukrainian}}
\@writefile{toc}{\contentsline {section}{\numberline {1}\IeC {\CYRL }\IeC {\cyre }\IeC {\cyrk }\IeC {\cyrc }\IeC {\cyrii }\IeC {\cyrya } \IeC {\textnumero }1}{1}}
\@writefile{toc}{\contentsline {subsection}{\numberline {1.1}\IeC {\CYRP }\IeC {\cyrl }\IeC {\cyra }\IeC {\cyrn }}{1}}
\@writefile{toc}{\contentsline {subsection}{\numberline {1.2}\IeC {\CYRP }\IeC {\cyrii }\IeC {\cyrd }\IeC {\cyrp }\IeC {\cyrr }\IeC {\cyri }\IeC {\cyrie }\IeC {\cyrm }\IeC {\cyrs }\IeC {\cyrt }\IeC {\cyrv }\IeC {\cyro }: \IeC {\cyrm }\IeC {\cyre }\IeC {\cyrt }\IeC {\cyra } \IeC {\cyrt }\IeC {\cyra } \IeC {\cyro }\IeC {\cyrs }\IeC {\cyrn }\IeC {\cyro }\IeC {\cyrv }\IeC {\cyrn }\IeC {\cyrii } \IeC {\cyrn }\IeC {\cyra }\IeC {\cyrp }\IeC {\cyrr }\IeC {\cyrya }\IeC {\cyrm }\IeC {\cyri } \IeC {\cyrd }\IeC {\cyrii }\IeC {\cyrya }\IeC {\cyrl }\IeC {\cyrsftsn }\IeC {\cyrn }\IeC {\cyro }\IeC {\cyrs }\IeC {\cyrt }\IeC {\cyrii }}{1}}
\@writefile{toc}{\contentsline {paragraph}{\IeC {\CYRN }\IeC {\cyra }\IeC {\cyrp }\IeC {\cyrr }\IeC {\cyrya }\IeC {\cyrm }\IeC {\cyri } \IeC {\cyrd }\IeC {\cyrii }\IeC {\cyrya }\IeC {\cyrl }\IeC {\cyrsftsn }\IeC {\cyrn }\IeC {\cyro }\IeC {\cyrs }\IeC {\cyrt }\IeC {\cyrii } \IeC {\cyrp }\IeC {\cyrii }\IeC {\cyrd }\IeC {\cyrp }\IeC {\cyrr }\IeC {\cyri }\IeC {\cyrie }\IeC {\cyrm }\IeC {\cyrs }\IeC {\cyrt }\IeC {\cyrv }\IeC {\cyra }}{1}}
\@writefile{toc}{\contentsline {subsection}{\numberline {1.3}\IeC {\CYRP }\IeC {\cyrr }\IeC {\cyra }\IeC {\cyrv }\IeC {\cyro }\IeC {\cyrv }\IeC {\cyrii } \IeC {\cyro }\IeC {\cyrs }\IeC {\cyrn }\IeC {\cyro }\IeC {\cyrv }\IeC {\cyri } \IeC {\cyrf }\IeC {\cyru }\IeC {\cyrn }\IeC {\cyrk }\IeC {\cyrc }\IeC {\cyrii }\IeC {\cyro }\IeC {\cyrn }\IeC {\cyru }\IeC {\cyrv }\IeC {\cyra }\IeC {\cyrn }\IeC {\cyrn }\IeC {\cyrya } \IeC {\cyrp }\IeC {\cyrii }\IeC {\cyrd }\IeC {\cyrp }\IeC {\cyrr }\IeC {\cyri }\IeC {\cyrie }\IeC {\cyrm }\IeC {\cyrs }\IeC {\cyrt }\IeC {\cyrv }.}{2}}
\@writefile{toc}{\contentsline {paragraph}{\IeC {\CYRO }\IeC {\cyrs }\IeC {\cyrn }\IeC {\cyro }\IeC {\cyrv }\IeC {\cyrn }\IeC {\cyrii } \IeC {\cyrp }\IeC {\cyrr }\IeC {\cyri }\IeC {\cyrn }\IeC {\cyrc }\IeC {\cyri }\IeC {\cyrp }\IeC {\cyri } \IeC {\cyrp }\IeC {\cyrii }\IeC {\cyrd }\IeC {\cyrp }\IeC {\cyrr }\IeC {\cyri }\IeC {\cyrie }\IeC {\cyrm }\IeC {\cyrn }\IeC {\cyri }\IeC {\cyrc }\IeC {\cyrsftsn }\IeC {\cyrk }\IeC {\cyro }\IeC {\cyryi } \IeC {\cyrd }\IeC {\cyrii }\IeC {\cyrya }\IeC {\cyrl }\IeC {\cyrsftsn }\IeC {\cyrn }\IeC {\cyro }\IeC {\cyrs }\IeC {\cyrt }\IeC {\cyrii }}{2}}
\@writefile{toc}{\contentsline {paragraph}{\IeC {\CYRM }\IeC {\cyra }\IeC {\cyrishrt }\IeC {\cyrn }\IeC {\cyro } \IeC {\cyrp }\IeC {\cyrii }\IeC {\cyrd }\IeC {\cyrp }\IeC {\cyrr }\IeC {\cyri }\IeC {\cyrie }\IeC {\cyrm }\IeC {\cyrs }\IeC {\cyrt }\IeC {\cyrv }\IeC {\cyra }}{2}}
\@writefile{toc}{\contentsline {paragraph}{\IeC {\CYRD }\IeC {\cyrzh }\IeC {\cyre }\IeC {\cyrr }\IeC {\cyre }\IeC {\cyrl }\IeC {\cyra } \IeC {\cyrm }\IeC {\cyra }\IeC {\cyrishrt }\IeC {\cyrn }\IeC {\cyra }}{3}}
\@writefile{toc}{\contentsline {subsection}{\numberline {1.4}\IeC {\CYRZH }\IeC {\cyri }\IeC {\cyrt }\IeC {\cyrt }\IeC {\cyrie }\IeC {\cyrv }\IeC {\cyri }\IeC {\cyrishrt } \IeC {\cyrc }\IeC {\cyri }\IeC {\cyrk }\IeC {\cyrl } \IeC {\cyrp }\IeC {\cyrii }\IeC {\cyrd }\IeC {\cyrp }\IeC {\cyrr }\IeC {\cyri }\IeC {\cyrie }\IeC {\cyrm }\IeC {\cyrs }\IeC {\cyrt }\IeC {\cyrv }\IeC {\cyra }}{3}}
\@writefile{lof}{\contentsline {figure}{\numberline {1}{\ignorespaces \IeC {\CYRE }\IeC {\cyrt }\IeC {\cyra }\IeC {\cyrp }\IeC {\cyri } \IeC {\cyrzh }\IeC {\cyri }\IeC {\cyrt }\IeC {\cyrt }\IeC {\cyrie }\IeC {\cyrv }\IeC {\cyro }\IeC {\cyrg }\IeC {\cyro } \IeC {\cyrc }\IeC {\cyri }\IeC {\cyrk }\IeC {\cyrl }\IeC {\cyru } \IeC {\cyrp }\IeC {\cyrii }\IeC {\cyrd }\IeC {\cyrp }\IeC {\cyrr }\IeC {\cyri }\IeC {\cyrie }\IeC {\cyrm }\IeC {\cyrs }\IeC {\cyrt }\IeC {\cyrv }\IeC {\cyra }}}{3}}
\@writefile{toc}{\contentsline {section}{\numberline {2}\IeC {\CYRL }\IeC {\cyre }\IeC {\cyrk }\IeC {\cyrc }\IeC {\cyrii }\IeC {\cyrya } \IeC {\textnumero }2}{5}}
\@writefile{toc}{\contentsline {subsection}{\numberline {2.1}\IeC {\CYRK }\IeC {\cyrl }\IeC {\cyra }\IeC {\cyrs }\IeC {\cyri }\IeC {\cyrf }\IeC {\cyrii }\IeC {\cyrk }\IeC {\cyra }\IeC {\cyrc }\IeC {\cyrii }\IeC {\cyrya } \IeC {\cyrp }\IeC {\cyrii }\IeC {\cyrd }\IeC {\cyrp }\IeC {\cyrr }\IeC {\cyri }\IeC {\cyrie }\IeC {\cyrm }\IeC {\cyrs }\IeC {\cyrt }\IeC {\cyrv }}{5}}
\@writefile{toc}{\contentsline {subsection}{\numberline {2.2}\IeC {\CYRO }\IeC {\cyrb }'\IeC {\cyrie }\IeC {\cyrd }\IeC {\cyrn }\IeC {\cyra }\IeC {\cyrn }\IeC {\cyrn }\IeC {\cyrya } \IeC {\cyrp }\IeC {\cyrii }\IeC {\cyrd }\IeC {\cyrp }\IeC {\cyrr }\IeC {\cyri }\IeC {\cyrie }\IeC {\cyrm }\IeC {\cyrs }\IeC {\cyrt }\IeC {\cyrv }}{6}}
\@writefile{toc}{\contentsline {section}{\numberline {3}\IeC {\CYRL }\IeC {\cyre }\IeC {\cyrk }\IeC {\cyrc }\IeC {\cyrii }\IeC {\cyrya } \IeC {\textnumero }3}{7}}
\@writefile{toc}{\contentsline {subsection}{\numberline {3.1}\IeC {\CYRP }\IeC {\cyrl }\IeC {\cyra }\IeC {\cyrn }}{7}}
\@writefile{toc}{\contentsline {subsection}{\numberline {3.2}\IeC {\CYRP }\IeC {\cyro }\IeC {\cyrn }\IeC {\cyrya }\IeC {\cyrt }\IeC {\cyrt }\IeC {\cyrya } \IeC {\cyrt }\IeC {\cyra } \IeC {\cyrk }\IeC {\cyrl }\IeC {\cyra }\IeC {\cyrs }\IeC {\cyri }\IeC {\cyrf }\IeC {\cyrii }\IeC {\cyrk }\IeC {\cyra }\IeC {\cyrc }\IeC {\cyrii }\IeC {\cyrya } \IeC {\cyro }\IeC {\cyrs }\IeC {\cyrn }\IeC {\cyro }\IeC {\cyrv }\IeC {\cyrn }\IeC {\cyri }\IeC {\cyrh } \IeC {\cyrf }\IeC {\cyro }\IeC {\cyrn }\IeC {\cyrd }\IeC {\cyrii }\IeC {\cyrv }.}{7}}
\@writefile{toc}{\contentsline {subsection}{\numberline {3.3}\IeC {\CYRO }\IeC {\cyrb }\IeC {\cyrl }\IeC {\cyrii }\IeC {\cyrk } \IeC {\cyrt }\IeC {\cyra } \IeC {\cyro }\IeC {\cyrc }\IeC {\cyrii }\IeC {\cyrn }\IeC {\cyrk }\IeC {\cyra } \IeC {\cyro }\IeC {\cyrs }\IeC {\cyrn }\IeC {\cyro }\IeC {\cyrv }\IeC {\cyrn }\IeC {\cyri }\IeC {\cyrh } \IeC {\cyrf }\IeC {\cyro }\IeC {\cyrn }\IeC {\cyrd }\IeC {\cyrii }\IeC {\cyrv }.}{8}}
\@writefile{toc}{\contentsline {section}{\numberline {4}\IeC {\CYRL }\IeC {\cyre }\IeC {\cyrk }\IeC {\cyrc }\IeC {\cyrii }\IeC {\cyrya } \IeC {\textnumero }4}{9}}
\@writefile{toc}{\contentsline {subsection}{\numberline {4.1}\IeC {\CYRZ }\IeC {\cyrn }\IeC {\cyro }\IeC {\cyrs } \IeC {\cyrt }\IeC {\cyra } \IeC {\cyra }\IeC {\cyrm }\IeC {\cyro }\IeC {\cyrr }\IeC {\cyrt }\IeC {\cyri }\IeC {\cyrz }\IeC {\cyra }\IeC {\cyrc }\IeC {\cyrii }\IeC {\cyrya } \IeC {\cyro }\IeC {\cyrs }\IeC {\cyrn }\IeC {\cyro }\IeC {\cyrv }\IeC {\cyrn }\IeC {\cyri }\IeC {\cyrh } \IeC {\cyrf }\IeC {\cyro }\IeC {\cyrn }\IeC {\cyrd }\IeC {\cyrii }\IeC {\cyrv }}{9}}
\@writefile{toc}{\contentsline {subsection}{\numberline {4.2}\IeC {\CYRO }\IeC {\cyrr }\IeC {\cyre }\IeC {\cyrn }\IeC {\cyrd }\IeC {\cyrn }\IeC {\cyrii } \IeC {\cyrv }\IeC {\cyrii }\IeC {\cyrd }\IeC {\cyrn }\IeC {\cyro }\IeC {\cyrs }\IeC {\cyri }\IeC {\cyrn }\IeC {\cyri } \IeC {\cyrt }\IeC {\cyra } \IeC {\cyrl }\IeC {\cyrii }\IeC {\cyrz }\IeC {\cyri }\IeC {\cyrn }\IeC {\cyrg }}{10}}
\@writefile{toc}{\contentsline {section}{\numberline {5}\IeC {\CYRL }\IeC {\cyre }\IeC {\cyrk }\IeC {\cyrc }\IeC {\cyrii }\IeC {\cyrya } \IeC {\textnumero }5}{11}}
\@writefile{toc}{\contentsline {subsection}{\numberline {5.1}\IeC {\CYRP }\IeC {\cyrl }\IeC {\cyra }\IeC {\cyrn }}{11}}
\@writefile{toc}{\contentsline {subsection}{\numberline {5.2}\IeC {\CYRS }\IeC {\cyrk }\IeC {\cyrl }\IeC {\cyra }\IeC {\cyrd } \IeC {\cyrii } \IeC {\cyrs }\IeC {\cyrt }\IeC {\cyrr }\IeC {\cyru }\IeC {\cyrk }\IeC {\cyrt }\IeC {\cyru }\IeC {\cyrr }\IeC {\cyra } \IeC {\cyro }\IeC {\cyrb }\IeC {\cyro }\IeC {\cyrr }\IeC {\cyro }\IeC {\cyrt }\IeC {\cyrn }\IeC {\cyri }\IeC {\cyrh } \IeC {\cyrf }\IeC {\cyro }\IeC {\cyrn }\IeC {\cyrd }\IeC {\cyrii }\IeC {\cyrv }}{11}}
\@writefile{toc}{\contentsline {subsection}{\numberline {5.3}\IeC {\CYRO }\IeC {\cyrb }\IeC {\cyro }\IeC {\cyrr }\IeC {\cyro }\IeC {\cyrt }\IeC {\cyrn }\IeC {\cyrii }\IeC {\cyrs }\IeC {\cyrt }\IeC {\cyrsftsn } \IeC {\cyrt }\IeC {\cyra } \IeC {\cyrk }\IeC {\cyrr }\IeC {\cyru }\IeC {\cyrg }\IeC {\cyro }\IeC {\cyro }\IeC {\cyrb }\IeC {\cyrii }\IeC {\cyrg } \IeC {\cyro }\IeC {\cyrb }\IeC {\cyro }\IeC {\cyrr }\IeC {\cyro }\IeC {\cyrt }\IeC {\cyrn }\IeC {\cyri }\IeC {\cyrh } \IeC {\cyrf }\IeC {\cyro }\IeC {\cyrn }\IeC {\cyrd }\IeC {\cyrii }\IeC {\cyrv }}{12}}
\@writefile{toc}{\contentsline {subsection}{\numberline {5.4}\IeC {\CYRN }\IeC {\cyro }\IeC {\cyrr }\IeC {\cyrm }\IeC {\cyru }\IeC {\cyrv }\IeC {\cyra }\IeC {\cyrn }\IeC {\cyrn }\IeC {\cyrya } \IeC {\cyrv }\IeC {\cyri }\IeC {\cyrt }\IeC {\cyrr }\IeC {\cyra }\IeC {\cyrt } \IeC {\cyro }\IeC {\cyrb }\IeC {\cyro }\IeC {\cyrr }\IeC {\cyro }\IeC {\cyrt }\IeC {\cyrn }\IeC {\cyri }\IeC {\cyrh } \IeC {\cyrf }\IeC {\cyro }\IeC {\cyrn }\IeC {\cyrd }\IeC {\cyrii }\IeC {\cyrv }}{13}}
\@writefile{toc}{\contentsline {subsection}{\numberline {5.5}\IeC {\CYRE }\IeC {\cyrf }\IeC {\cyre }\IeC {\cyrk }\IeC {\cyrt }\IeC {\cyri }\IeC {\cyrv }\IeC {\cyrn }\IeC {\cyrii }\IeC {\cyrs }\IeC {\cyrt }\IeC {\cyrsftsn } \IeC {\cyrv }\IeC {\cyri }\IeC {\cyrk }\IeC {\cyro }\IeC {\cyrr }\IeC {\cyri }\IeC {\cyrs }\IeC {\cyrt }\IeC {\cyra }\IeC {\cyrn }\IeC {\cyrn }\IeC {\cyrya } \IeC {\cyro }\IeC {\cyrb }\IeC {\cyro }\IeC {\cyrr }\IeC {\cyro }\IeC {\cyrt }\IeC {\cyrn }\IeC {\cyri }\IeC {\cyrh } \IeC {\cyrf }\IeC {\cyro }\IeC {\cyrn }\IeC {\cyrd }\IeC {\cyrii }\IeC {\cyrv }}{14}}
\@writefile{toc}{\contentsline {section}{\numberline {6}\IeC {\CYRL }\IeC {\cyre }\IeC {\cyrk }\IeC {\cyrc }\IeC {\cyrii }\IeC {\cyrya } \IeC {\textnumero }6}{16}}
\@writefile{toc}{\contentsline {subsection}{\numberline {6.1}\IeC {\CYRP }\IeC {\cyro }\IeC {\cyrn }\IeC {\cyrya }\IeC {\cyrt }\IeC {\cyrt }\IeC {\cyrya } \IeC {\cyrt }\IeC {\cyra } \IeC {\cyrk }\IeC {\cyrl }\IeC {\cyra }\IeC {\cyrs }\IeC {\cyri }\IeC {\cyrf }\IeC {\cyrii }\IeC {\cyrk }\IeC {\cyra }\IeC {\cyrc }\IeC {\cyrii }\IeC {\cyrya } \IeC {\cyrn }\IeC {\cyre }\IeC {\cyrm }\IeC {\cyra }\IeC {\cyrt }\IeC {\cyre }\IeC {\cyrr }\IeC {\cyrii }\IeC {\cyra }\IeC {\cyrl }\IeC {\cyrsftsn }\IeC {\cyrn }\IeC {\cyri }\IeC {\cyrh } \IeC {\cyra }\IeC {\cyrk }\IeC {\cyrt }\IeC {\cyri }\IeC {\cyrv }\IeC {\cyrii }\IeC {\cyrv }}{16}}
\@writefile{toc}{\contentsline {paragraph}{\IeC {\CYRO }\IeC {\cyrb }'\IeC {\cyrie }\IeC {\cyrk }\IeC {\cyrt }\IeC {\cyri } \IeC {\cyrp }\IeC {\cyrr }\IeC {\cyro }\IeC {\cyrm }\IeC {\cyri }\IeC {\cyrs }\IeC {\cyrl }\IeC {\cyro }\IeC {\cyrv }\IeC {\cyro }\IeC {\cyryi } \IeC {\cyrv }\IeC {\cyrl }\IeC {\cyra }\IeC {\cyrs }\IeC {\cyrt }\IeC {\cyrn }\IeC {\cyro }\IeC {\cyrs }\IeC {\cyrt }\IeC {\cyrii }}{16}}
\@writefile{toc}{\contentsline {paragraph}{\IeC {\CYRO }\IeC {\cyrb }'\IeC {\cyrie }\IeC {\cyrk }\IeC {\cyrt }\IeC {\cyri } \IeC {\cyrii }\IeC {\cyrn }\IeC {\cyrt }\IeC {\cyre }\IeC {\cyrl }\IeC {\cyre }\IeC {\cyrk }\IeC {\cyrt }\IeC {\cyru }\IeC {\cyra }\IeC {\cyrl }\IeC {\cyrsftsn }\IeC {\cyrn }\IeC {\cyro }\IeC {\cyryi } \IeC {\cyrv }\IeC {\cyrl }\IeC {\cyra }\IeC {\cyrs }\IeC {\cyrn }\IeC {\cyro }\IeC {\cyrs }\IeC {\cyrt }\IeC {\cyrii }}{17}}
\@writefile{toc}{\contentsline {paragraph}{\IeC {\CYRN }\IeC {\cyre }\IeC {\cyrt }\IeC {\cyrr }\IeC {\cyra }\IeC {\cyrd }\IeC {\cyri }\IeC {\cyrc }\IeC {\cyrii }\IeC {\cyrishrt }\IeC {\cyrn }\IeC {\cyrii } \IeC {\cyro }\IeC {\cyrb }'\IeC {\cyrie }\IeC {\cyrk }\IeC {\cyrt }\IeC {\cyri } \IeC {\cyrii }\IeC {\cyrn }\IeC {\cyrt }\IeC {\cyre }\IeC {\cyrl }\IeC {\cyre }\IeC {\cyrk }\IeC {\cyrt }\IeC {\cyru }\IeC {\cyra }\IeC {\cyrl }\IeC {\cyrsftsn }\IeC {\cyrn }\IeC {\cyro }\IeC {\cyryi } \IeC {\cyrv }\IeC {\cyrl }\IeC {\cyra }\IeC {\cyrs }\IeC {\cyrt }\IeC {\cyrn }\IeC {\cyro }\IeC {\cyrs }\IeC {\cyrt }\IeC {\cyrii }}{17}}
\@writefile{toc}{\contentsline {subsection}{\numberline {6.2}\IeC {\CYRO }\IeC {\cyrh }\IeC {\cyro }\IeC {\cyrr }\IeC {\cyro }\IeC {\cyrn }\IeC {\cyrn }\IeC {\cyrii } \IeC {\cyrd }\IeC {\cyro }\IeC {\cyrk }\IeC {\cyru }\IeC {\cyrm }\IeC {\cyre }\IeC {\cyrn }\IeC {\cyrt }\IeC {\cyri }}{17}}
\@writefile{toc}{\contentsline {subsection}{\numberline {6.3}\IeC {\CYRA }\IeC {\cyrv }\IeC {\cyrt }\IeC {\cyro }\IeC {\cyrr }\IeC {\cyrs }\IeC {\cyrsftsn }\IeC {\cyrk }\IeC {\cyre } \IeC {\cyrp }\IeC {\cyrr }\IeC {\cyra }\IeC {\cyrv }\IeC {\cyro }}{18}}
\@writefile{toc}{\contentsline {section}{\numberline {7}\IeC {\CYRL }\IeC {\cyre }\IeC {\cyrk }\IeC {\cyrc }\IeC {\cyrii }\IeC {\cyrya } \IeC {\textnumero }7}{18}}
\@writefile{toc}{\contentsline {subsection}{\numberline {7.1}\IeC {\CYRP }\IeC {\cyrl }\IeC {\cyra }\IeC {\cyrn }}{18}}
\@writefile{toc}{\contentsline {subsection}{\numberline {7.2}\IeC {\CYRK }\IeC {\cyrl }\IeC {\cyra }\IeC {\cyrs }\IeC {\cyri }\IeC {\cyrf }\IeC {\cyrii }\IeC {\cyrk }\IeC {\cyra }\IeC {\cyrc }\IeC {\cyrii }\IeC {\cyrya } \IeC {\cyrp }\IeC {\cyre }\IeC {\cyrr }\IeC {\cyrs }\IeC {\cyro }\IeC {\cyrn }\IeC {\cyra }\IeC {\cyrl }\IeC {\cyru }}{19}}
\@writefile{toc}{\contentsline {subsection}{\numberline {7.3}\IeC {\CYRP }\IeC {\cyrr }\IeC {\cyro }\IeC {\cyrd }\IeC {\cyru }\IeC {\cyrk }\IeC {\cyrt }\IeC {\cyri }\IeC {\cyrv }\IeC {\cyrn }\IeC {\cyrii }\IeC {\cyrs }\IeC {\cyrt }\IeC {\cyrsftsn } \IeC {\cyrp }\IeC {\cyrr }\IeC {\cyra }\IeC {\cyrc }\IeC {\cyrii }}{20}}
\@writefile{toc}{\contentsline {subsection}{\numberline {7.4}\IeC {\CYRN }\IeC {\cyro }\IeC {\cyrr }\IeC {\cyrm }\IeC {\cyru }\IeC {\cyrv }\IeC {\cyra }\IeC {\cyrn }\IeC {\cyrn }\IeC {\cyrya } \IeC {\cyrp }\IeC {\cyrr }\IeC {\cyra }\IeC {\cyrc }\IeC {\cyrii }}{20}}
\@writefile{toc}{\contentsline {section}{\numberline {8}\IeC {\CYRL }\IeC {\cyre }\IeC {\cyrk }\IeC {\cyrc }\IeC {\cyrii }\IeC {\cyrya } \IeC {\textnumero }8}{21}}
\@writefile{toc}{\contentsline {subsection}{\numberline {8.1}\IeC {\CYRP }\IeC {\cyrl }\IeC {\cyra }\IeC {\cyrn }}{21}}
\@writefile{toc}{\contentsline {subsection}{\numberline {8.2}\IeC {\CYRS }\IeC {\cyru }\IeC {\cyrt }\IeC {\cyrn }\IeC {\cyrii }\IeC {\cyrs }\IeC {\cyrt }\IeC {\cyrsftsn } \IeC {\cyrt }\IeC {\cyra } \IeC {\cyrs }\IeC {\cyrt }\IeC {\cyrr }\IeC {\cyru }\IeC {\cyrk }\IeC {\cyrt }\IeC {\cyru }\IeC {\cyrr }\IeC {\cyra } \IeC {\cyrz }\IeC {\cyra }\IeC {\cyrr }\IeC {\cyro }\IeC {\cyrb }\IeC {\cyrii }\IeC {\cyrt }\IeC {\cyrn }\IeC {\cyro }\IeC {\cyryi } \IeC {\cyrp }\IeC {\cyrl }\IeC {\cyra }\IeC {\cyrt }\IeC {\cyri }}{21}}
\@writefile{toc}{\contentsline {subsection}{\numberline {8.3}\IeC {\CYRP }\IeC {\cyro }\IeC {\cyrl }\IeC {\cyrii }\IeC {\cyrt }\IeC {\cyri }\IeC {\cyrk }\IeC {\cyra } \IeC {\cyrd }\IeC {\cyre }\IeC {\cyrr }\IeC {\cyrzh }\IeC {\cyra }\IeC {\cyrv }\IeC {\cyri } \IeC {\cyrshch }\IeC {\cyro }\IeC {\cyrd }\IeC {\cyro } \IeC {\cyrz }\IeC {\cyra }\IeC {\cyrr }\IeC {\cyro }\IeC {\cyrb }\IeC {\cyrii }\IeC {\cyrt }\IeC {\cyrn }\IeC {\cyro }\IeC {\cyryi } \IeC {\cyrp }\IeC {\cyrl }\IeC {\cyra }\IeC {\cyrt }\IeC {\cyri }}{21}}
\@writefile{toc}{\contentsline {section}{\numberline {9}\IeC {\CYRL }\IeC {\cyre }\IeC {\cyrk }\IeC {\cyrc }\IeC {\cyrii }\IeC {\cyrya } \IeC {\textnumero }9}{22}}
\@writefile{toc}{\contentsline {subsection}{\numberline {9.1}\IeC {\CYRF }\IeC {\cyro }\IeC {\cyrr }\IeC {\cyrm }\IeC {\cyri } \IeC {\cyrt }\IeC {\cyra } \IeC {\cyrs }\IeC {\cyri }\IeC {\cyrs }\IeC {\cyrt }\IeC {\cyre }\IeC {\cyrm }\IeC {\cyri } \IeC {\cyro }\IeC {\cyrp }\IeC {\cyrl }\IeC {\cyra }\IeC {\cyrt }\IeC {\cyri } \IeC {\cyrp }\IeC {\cyrr }\IeC {\cyra }\IeC {\cyrc }\IeC {\cyrii }}{23}}
\@writefile{toc}{\contentsline {section}{\numberline {10}\IeC {\CYRL }\IeC {\cyre }\IeC {\cyrk }\IeC {\cyrc }\IeC {\cyrii }\IeC {\cyrya } \IeC {\textnumero }10}{24}}
\@writefile{toc}{\contentsline {subsection}{\numberline {10.1}\IeC {\CYRP }\IeC {\cyrl }\IeC {\cyra }\IeC {\cyrn }}{24}}
\@writefile{toc}{\contentsline {subsection}{\numberline {10.2}\IeC {\CYRZ }\IeC {\cyra }\IeC {\cyrg }\IeC {\cyra }\IeC {\cyrl }\IeC {\cyrsftsn }\IeC {\cyrn }\IeC {\cyra } \IeC {\cyrh }\IeC {\cyra }\IeC {\cyrr }\IeC {\cyra }\IeC {\cyrk }\IeC {\cyrt }\IeC {\cyre }\IeC {\cyrr }\IeC {\cyri }\IeC {\cyrs }\IeC {\cyrt }\IeC {\cyri }\IeC {\cyrk }\IeC {\cyra } \IeC {\cyrii } \IeC {\cyrk }\IeC {\cyrl }\IeC {\cyra }\IeC {\cyrs }\IeC {\cyri }\IeC {\cyrf }\IeC {\cyrii }\IeC {\cyrk }\IeC {\cyra }\IeC {\cyrc }\IeC {\cyrii }\IeC {\cyrya } \IeC {\cyrv }\IeC {\cyri }\IeC {\cyrt }\IeC {\cyrr }\IeC {\cyra }\IeC {\cyrt } \IeC {\cyrp }\IeC {\cyrii }\IeC {\cyrd }\IeC {\cyrp }\IeC {\cyrr }\IeC {\cyri }\IeC {\cyrie }\IeC {\cyrm }\IeC {\cyrs }\IeC {\cyrt }\IeC {\cyrv }\IeC {\cyra }}{24}}
\@writefile{lof}{\contentsline {figure}{\numberline {2}{\ignorespaces \IeC {\CYRT }\IeC {\cyri }\IeC {\cyrp }\IeC {\cyri } \IeC {\cyrv }\IeC {\cyri }\IeC {\cyrt }\IeC {\cyrr }\IeC {\cyra }\IeC {\cyrt }}}{26}}
\newlabel{pic91}{{2}{26}}
\@writefile{toc}{\contentsline {subsection}{\numberline {10.3}\IeC {\CYRS }\IeC {\cyro }\IeC {\cyrb }\IeC {\cyrii }\IeC {\cyrv }\IeC {\cyra }\IeC {\cyrr }\IeC {\cyrt }\IeC {\cyrii }\IeC {\cyrs }\IeC {\cyrt }\IeC {\cyrsftsn } \IeC {\cyrp }\IeC {\cyrr }\IeC {\cyro }\IeC {\cyrd }\IeC {\cyru }\IeC {\cyrk }\IeC {\cyrc }\IeC {\cyrii }\IeC {\cyryi }. \IeC {\CYRK }\IeC {\cyra }\IeC {\cyrl }\IeC {\cyrsftsn }\IeC {\cyrk }\IeC {\cyru }\IeC {\cyrl }\IeC {\cyryu }\IeC {\cyrv }\IeC {\cyra }\IeC {\cyrn }\IeC {\cyrn }\IeC {\cyrya } \IeC {\cyrp }\IeC {\cyrr }\IeC {\cyro }\IeC {\cyrd }\IeC {\cyru }\IeC {\cyrk }\IeC {\cyrc }\IeC {\cyrii }\IeC {\cyryi }}{26}}
\@writefile{toc}{\contentsline {section}{\numberline {11}\IeC {\CYRL }\IeC {\cyre }\IeC {\cyrk }\IeC {\cyrc }\IeC {\cyrii }\IeC {\cyrya } \IeC {\textnumero }11}{27}}
\@writefile{toc}{\contentsline {subsection}{\numberline {11.1}\IeC {\CYRK }\IeC {\cyro }\IeC {\cyrsh }\IeC {\cyrt }\IeC {\cyro }\IeC {\cyrr }\IeC {\cyri }\IeC {\cyrs } \IeC {\cyrv }\IeC {\cyri }\IeC {\cyrt }\IeC {\cyrr }\IeC {\cyra }\IeC {\cyrt } \IeC {\cyrn }\IeC {\cyra } \IeC {\cyrv }\IeC {\cyri }\IeC {\cyrr }\IeC {\cyro }\IeC {\cyrb }\IeC {\cyrn }\IeC {\cyri }\IeC {\cyrc }\IeC {\cyrt }\IeC {\cyrv }\IeC {\cyrii }}{27}}
\@writefile{toc}{\contentsline {subsection}{\numberline {11.2}\IeC {\CYRP }\IeC {\cyrl }\IeC {\cyra }\IeC {\cyrn }}{27}}
\@writefile{toc}{\contentsline {subsection}{\numberline {11.3}\IeC {\CYRP }\IeC {\cyro }\IeC {\cyrn }\IeC {\cyrya }\IeC {\cyrt }\IeC {\cyrt }\IeC {\cyrya }, \IeC {\cyrv }\IeC {\cyri }\IeC {\cyrd }\IeC {\cyri } \IeC {\cyrt }\IeC {\cyra } \IeC {\cyrs }\IeC {\cyrt }\IeC {\cyrr }\IeC {\cyru }\IeC {\cyrk }\IeC {\cyrt }\IeC {\cyru }\IeC {\cyrr }\IeC {\cyri } \IeC {\cyrc }\IeC {\cyrii }\IeC {\cyrn }}{28}}
\@writefile{toc}{\contentsline {subsection}{\numberline {11.4}\IeC {\CYRC }\IeC {\cyrii }\IeC {\cyrn }\IeC {\cyro }\IeC {\cyrv }\IeC {\cyra } \IeC {\cyrp }\IeC {\cyro }\IeC {\cyrl }\IeC {\cyrii }\IeC {\cyrt }\IeC {\cyri }\IeC {\cyrk }\IeC {\cyra } \IeC {\cyrp }\IeC {\cyrii }\IeC {\cyrd }\IeC {\cyrp }\IeC {\cyrr }\IeC {\cyri }\IeC {\cyrie }\IeC {\cyrm }\IeC {\cyrs }\IeC {\cyrt }\IeC {\cyrv }\IeC {\cyra }. \IeC {\CYRCH }\IeC {\cyri }\IeC {\cyrn }\IeC {\cyrn }\IeC {\cyri }\IeC {\cyrk }\IeC {\cyri } \IeC {\cyrc }\IeC {\cyrii }\IeC {\cyrn }\IeC {\cyro }\IeC {\cyru }\IeC {\cyrt }\IeC {\cyrv }\IeC {\cyro }\IeC {\cyrr }\IeC {\cyre }\IeC {\cyrn }\IeC {\cyrn }\IeC {\cyrya }}{29}}
\@writefile{toc}{\contentsline {section}{\numberline {12}\IeC {\CYRL }\IeC {\cyre }\IeC {\cyrk }\IeC {\cyrc }\IeC {\cyrii }\IeC {\cyrya } \IeC {\textnumero }12}{29}}
\@writefile{toc}{\contentsline {subsection}{\numberline {12.1}\IeC {\CYRP }\IeC {\cyrl }\IeC {\cyra }\IeC {\cyrn }}{29}}
\@writefile{toc}{\contentsline {subsection}{\numberline {12.2}\IeC {\CYRF }\IeC {\cyro }\IeC {\cyrr }\IeC {\cyrm }\IeC {\cyru }\IeC {\cyrv }\IeC {\cyra }\IeC {\cyrn }\IeC {\cyrn }\IeC {\cyrya } \IeC {\cyrii } \IeC {\cyrv }\IeC {\cyri }\IeC {\cyrk }\IeC {\cyro }\IeC {\cyrr }\IeC {\cyri }\IeC {\cyrs }\IeC {\cyrt }\IeC {\cyra }\IeC {\cyrn }\IeC {\cyrn }\IeC {\cyrya } \IeC {\cyrp }\IeC {\cyrr }\IeC {\cyri }\IeC {\cyrb }\IeC {\cyru }\IeC {\cyrt }\IeC {\cyrk }\IeC {\cyru }}{29}}
\@writefile{toc}{\contentsline {subsection}{\numberline {12.3}\IeC {\CYRO }\IeC {\cyrc }\IeC {\cyrii }\IeC {\cyrn }\IeC {\cyrk }\IeC {\cyra } \IeC {\cyrf }\IeC {\cyrii }\IeC {\cyrn }\IeC {\cyra }\IeC {\cyrn }\IeC {\cyrs }\IeC {\cyro }\IeC {\cyrv }\IeC {\cyro }-\IeC {\cyre }\IeC {\cyrk }\IeC {\cyro }\IeC {\cyrn }\IeC {\cyro }\IeC {\cyrm }\IeC {\cyrii }\IeC {\cyrch }\IeC {\cyrn }\IeC {\cyro }\IeC {\cyrg }\IeC {\cyro } \IeC {\cyrs }\IeC {\cyrt }\IeC {\cyra }\IeC {\cyrn }\IeC {\cyru } \IeC {\cyrp }\IeC {\cyrii }\IeC {\cyrd }\IeC {\cyrp }\IeC {\cyrr }\IeC {\cyri }\IeC {\cyrie }\IeC {\cyrm }\IeC {\cyrs }\IeC {\cyrt }\IeC {\cyrv }\IeC {\cyra }}{30}}
\@writefile{toc}{\contentsline {subsection}{\numberline {12.4}\IeC {\CYRP }\IeC {\cyrr }\IeC {\cyri }\IeC {\cyrb }\IeC {\cyru }\IeC {\cyrt }\IeC {\cyrk }\IeC {\cyro }\IeC {\cyrv }\IeC {\cyrii }\IeC {\cyrs }\IeC {\cyrt }\IeC {\cyrsftsn } \IeC {\cyrp }\IeC {\cyrii }\IeC {\cyrd }\IeC {\cyrp }\IeC {\cyrr }\IeC {\cyri }\IeC {\cyrie }\IeC {\cyrm }\IeC {\cyrs }\IeC {\cyrt }\IeC {\cyrv }\IeC {\cyra }}{30}}
\@writefile{toc}{\contentsline {subsection}{\numberline {12.5}\IeC {\CYRD }\IeC {\cyrii }\IeC {\cyrl }\IeC {\cyro }\IeC {\cyrv }\IeC {\cyra } \IeC {\cyra }\IeC {\cyrk }\IeC {\cyrt }\IeC {\cyri }\IeC {\cyrv }\IeC {\cyrn }\IeC {\cyrii }\IeC {\cyrs }\IeC {\cyrt }\IeC {\cyrsftsn } \IeC {\cyrp }\IeC {\cyrii }\IeC {\cyrd }\IeC {\cyrp }\IeC {\cyrr }\IeC {\cyri }\IeC {\cyrie }\IeC {\cyrm }\IeC {\cyrs }\IeC {\cyrt }\IeC {\cyrv }\IeC {\cyra }}{31}}
\@writefile{toc}{\contentsline {subsection}{\numberline {12.6}\IeC {\CYRO }\IeC {\cyrc }\IeC {\cyrii }\IeC {\cyrn }\IeC {\cyrk }\IeC {\cyra } \IeC {\cyrf }\IeC {\cyrii }\IeC {\cyrn }\IeC {\cyra }\IeC {\cyrn }\IeC {\cyrs }\IeC {\cyro }\IeC {\cyrv }\IeC {\cyro }\IeC {\cyryi } \IeC {\cyrs }\IeC {\cyrt }\IeC {\cyrii }\IeC {\cyrishrt }\IeC {\cyrk }\IeC {\cyro }\IeC {\cyrs }\IeC {\cyrt }\IeC {\cyrii }}{31}}
\@writefile{toc}{\contentsline {subsection}{\numberline {12.7}\IeC {\CYRP }\IeC {\cyrl }\IeC {\cyra }\IeC {\cyrt }\IeC {\cyro }\IeC {\cyrs }\IeC {\cyrp }\IeC {\cyrr }\IeC {\cyro }\IeC {\cyrm }\IeC {\cyro }\IeC {\cyrzh }\IeC {\cyrn }\IeC {\cyrii }\IeC {\cyrs }\IeC {\cyrt }\IeC {\cyrsftsn } \IeC {\cyrp }\IeC {\cyrii }\IeC {\cyrd }\IeC {\cyrp }\IeC {\cyrr }\IeC {\cyri }\IeC {\cyrie }\IeC {\cyrm }\IeC {\cyrs }\IeC {\cyrt }\IeC {\cyrv }\IeC {\cyra }}{31}}
