<?xml version="1.0" encoding="UTF-8" standalone="no"?>
<!-- Created with Inkscape (http://www.inkscape.org/) -->

<svg
   xmlns:dc="http://purl.org/dc/elements/1.1/"
   xmlns:cc="http://creativecommons.org/ns#"
   xmlns:rdf="http://www.w3.org/1999/02/22-rdf-syntax-ns#"
   xmlns:svg="http://www.w3.org/2000/svg"
   xmlns="http://www.w3.org/2000/svg"
   xmlns:sodipodi="http://sodipodi.sourceforge.net/DTD/sodipodi-0.dtd"
   xmlns:inkscape="http://www.inkscape.org/namespaces/inkscape"
   width="744.09448819"
   height="1052.3622047"
   id="svg2"
   version="1.1"
   inkscape:version="0.47 r22583"
   sodipodi:docname="class-diagram1.svg">
  <defs
     id="defs4">
    <marker
       inkscape:stockid="Arrow1Lend"
       orient="auto"
       refY="0.0"
       refX="0.0"
       id="Arrow1Lend"
       style="overflow:visible;">
      <path
         id="path3818"
         d="M 0.0,0.0 L 5.0,-5.0 L -12.5,0.0 L 5.0,5.0 L 0.0,0.0 z "
         style="fill-rule:evenodd;stroke:#000000;stroke-width:1.0pt;marker-start:none;"
         transform="scale(0.8) rotate(180) translate(12.5,0)" />
    </marker>
    <marker
       inkscape:stockid="Arrow1Lstart"
       orient="auto"
       refY="0.0"
       refX="0.0"
       id="Arrow1Lstart"
       style="overflow:visible">
      <path
         id="path3815"
         d="M 0.0,0.0 L 5.0,-5.0 L -12.5,0.0 L 5.0,5.0 L 0.0,0.0 z "
         style="fill-rule:evenodd;stroke:#000000;stroke-width:1.0pt;marker-start:none"
         transform="scale(0.8) translate(12.5,0)" />
    </marker>
    <inkscape:perspective
       sodipodi:type="inkscape:persp3d"
       inkscape:vp_x="0 : 526.18109 : 1"
       inkscape:vp_y="0 : 1000 : 0"
       inkscape:vp_z="744.09448 : 526.18109 : 1"
       inkscape:persp3d-origin="372.04724 : 350.78739 : 1"
       id="perspective10" />
    <inkscape:perspective
       id="perspective2832"
       inkscape:persp3d-origin="0.5 : 0.33333333 : 1"
       inkscape:vp_z="1 : 0.5 : 1"
       inkscape:vp_y="0 : 1000 : 0"
       inkscape:vp_x="0 : 0.5 : 1"
       sodipodi:type="inkscape:persp3d" />
    <inkscape:perspective
       id="perspective2858"
       inkscape:persp3d-origin="0.5 : 0.33333333 : 1"
       inkscape:vp_z="1 : 0.5 : 1"
       inkscape:vp_y="0 : 1000 : 0"
       inkscape:vp_x="0 : 0.5 : 1"
       sodipodi:type="inkscape:persp3d" />
    <inkscape:perspective
       id="perspective2884"
       inkscape:persp3d-origin="0.5 : 0.33333333 : 1"
       inkscape:vp_z="1 : 0.5 : 1"
       inkscape:vp_y="0 : 1000 : 0"
       inkscape:vp_x="0 : 0.5 : 1"
       sodipodi:type="inkscape:persp3d" />
    <inkscape:perspective
       id="perspective2884-9"
       inkscape:persp3d-origin="0.5 : 0.33333333 : 1"
       inkscape:vp_z="1 : 0.5 : 1"
       inkscape:vp_y="0 : 1000 : 0"
       inkscape:vp_x="0 : 0.5 : 1"
       sodipodi:type="inkscape:persp3d" />
    <inkscape:perspective
       id="perspective2884-99"
       inkscape:persp3d-origin="0.5 : 0.33333333 : 1"
       inkscape:vp_z="1 : 0.5 : 1"
       inkscape:vp_y="0 : 1000 : 0"
       inkscape:vp_x="0 : 0.5 : 1"
       sodipodi:type="inkscape:persp3d" />
    <inkscape:perspective
       id="perspective2924"
       inkscape:persp3d-origin="0.5 : 0.33333333 : 1"
       inkscape:vp_z="1 : 0.5 : 1"
       inkscape:vp_y="0 : 1000 : 0"
       inkscape:vp_x="0 : 0.5 : 1"
       sodipodi:type="inkscape:persp3d" />
    <inkscape:perspective
       id="perspective2946"
       inkscape:persp3d-origin="0.5 : 0.33333333 : 1"
       inkscape:vp_z="1 : 0.5 : 1"
       inkscape:vp_y="0 : 1000 : 0"
       inkscape:vp_x="0 : 0.5 : 1"
       sodipodi:type="inkscape:persp3d" />
    <inkscape:perspective
       id="perspective2988"
       inkscape:persp3d-origin="0.5 : 0.33333333 : 1"
       inkscape:vp_z="1 : 0.5 : 1"
       inkscape:vp_y="0 : 1000 : 0"
       inkscape:vp_x="0 : 0.5 : 1"
       sodipodi:type="inkscape:persp3d" />
    <inkscape:perspective
       id="perspective3018"
       inkscape:persp3d-origin="0.5 : 0.33333333 : 1"
       inkscape:vp_z="1 : 0.5 : 1"
       inkscape:vp_y="0 : 1000 : 0"
       inkscape:vp_x="0 : 0.5 : 1"
       sodipodi:type="inkscape:persp3d" />
  </defs>
  <sodipodi:namedview
     id="base"
     pagecolor="#ffffff"
     bordercolor="#666666"
     borderopacity="1.0"
     inkscape:pageopacity="0.0"
     inkscape:pageshadow="2"
     inkscape:zoom="0.98994949"
     inkscape:cx="508.04148"
     inkscape:cy="537.40687"
     inkscape:document-units="px"
     inkscape:current-layer="layer1"
     showgrid="false"
     inkscape:snap-grids="true"
     inkscape:window-width="1440"
     inkscape:window-height="826"
     inkscape:window-x="0"
     inkscape:window-y="25"
     inkscape:window-maximized="1" />
  <metadata
     id="metadata7">
    <rdf:RDF>
      <cc:Work
         rdf:about="">
        <dc:format>image/svg+xml</dc:format>
        <dc:type
           rdf:resource="http://purl.org/dc/dcmitype/StillImage" />
        <dc:title />
      </cc:Work>
    </rdf:RDF>
  </metadata>
  <g
     inkscape:label="Layer 1"
     inkscape:groupmode="layer"
     id="layer1">
    <path
       sodipodi:type="star"
       style="fill:none;stroke:#000000;stroke-width:1;stroke-miterlimit:4;stroke-opacity:1;stroke-dasharray:4, 1;stroke-dashoffset:0"
       id="path2818"
       sodipodi:sides="5"
       sodipodi:cx="121.42857"
       sodipodi:cy="103.79075"
       sodipodi:r1="55.714287"
       sodipodi:r2="81.190369"
       sodipodi:arg1="3.1415927"
       sodipodi:arg2="-2.2978595"
       inkscape:flatsided="false"
       inkscape:rounded="0"
       inkscape:randomized="0"
       d="m 65.714287,103.79075 1.748809,-60.659734 36.748814,7.672296 58.23125,-17.081671 4.05922,37.321074 34.24008,50.102675 -34.24008,15.3934 -37.06971,48.04683 -25.22076,-27.80744 -57.15042,-20.4081 18.652797,-32.57933 z"
       transform="matrix(1.2076137,0,0,0.93843053,19.431838,45.575486)" />
    <text
       xml:space="preserve"
       style="font-size:12px;font-style:normal;font-weight:normal;fill:#000000;fill-opacity:1;stroke:none;font-family:Bitstream Vera Sans"
       x="142.4315"
       y="148.27565"
       id="text2820"><tspan
         sodipodi:role="line"
         id="tspan2822"
         x="142.4315"
         y="148.27565">Деталь</tspan></text>
    <path
       sodipodi:type="star"
       style="fill:none;stroke:#000000;stroke-width:1;stroke-miterlimit:4;stroke-opacity:1;stroke-dasharray:4, 1;stroke-dashoffset:0"
       id="path2818-7"
       sodipodi:sides="5"
       sodipodi:cx="121.42857"
       sodipodi:cy="103.79075"
       sodipodi:r1="55.714287"
       sodipodi:r2="81.190369"
       sodipodi:arg1="3.1415927"
       sodipodi:arg2="-2.2978595"
       inkscape:flatsided="false"
       inkscape:rounded="0"
       inkscape:randomized="0"
       d="m 65.714287,103.79075 1.748809,-60.659734 36.748814,7.672296 58.23125,-17.081671 4.05922,37.321074 34.24008,50.102675 -34.24008,15.3934 -37.06971,48.04683 -25.22076,-27.80744 -57.15042,-20.4081 18.652797,-32.57933 z"
       transform="matrix(1.2076137,0,0,0.93843053,-5.350933,426.73642)" />
    <text
       xml:space="preserve"
       style="font-size:12px;font-style:normal;font-weight:normal;fill:#000000;fill-opacity:1;stroke:none;font-family:Bitstream Vera Sans"
       x="89.903572"
       y="540.21484"
       id="text2846"><tspan
         sodipodi:role="line"
         id="tspan2848"
         x="89.903572"
         y="540.21484">Деревянная деталь</tspan></text>
    <path
       sodipodi:type="star"
       style="fill:none;stroke:#000000;stroke-width:1;stroke-miterlimit:4;stroke-opacity:1;stroke-dasharray:4, 1;stroke-dashoffset:0"
       id="path2818-7-4"
       sodipodi:sides="5"
       sodipodi:cx="121.42857"
       sodipodi:cy="103.79075"
       sodipodi:r1="55.714287"
       sodipodi:r2="81.190369"
       sodipodi:arg1="3.1415927"
       sodipodi:arg2="-2.2978595"
       inkscape:flatsided="false"
       inkscape:rounded="0"
       inkscape:randomized="0"
       d="m 65.714287,103.79075 1.748809,-60.659734 36.748814,7.672296 58.23125,-17.081671 4.05922,37.321074 34.24008,50.102675 -34.24008,15.3934 -37.06971,48.04683 -25.22076,-27.80744 -57.15042,-20.4081 18.652797,-32.57933 z"
       transform="matrix(1.2076137,0,0,0.93843053,233.39914,364.72362)" />
    <text
       xml:space="preserve"
       style="font-size:12px;font-style:normal;font-weight:normal;fill:#000000;fill-opacity:1;stroke:none;font-family:Bitstream Vera Sans"
       x="319.20819"
       y="475.56506"
       id="text2872"><tspan
         sodipodi:role="line"
         id="tspan2874"
         x="319.20819"
         y="475.56506">Металическая деталь</tspan></text>
    <path
       sodipodi:type="star"
       style="fill:none;stroke:#000000;stroke-width:1;stroke-miterlimit:4;stroke-opacity:1;stroke-dasharray:4, 1;stroke-dashoffset:0"
       id="path2818-7-2"
       sodipodi:sides="5"
       sodipodi:cx="121.42857"
       sodipodi:cy="103.79075"
       sodipodi:r1="55.714287"
       sodipodi:r2="81.190369"
       sodipodi:arg1="3.1415927"
       sodipodi:arg2="-2.2978595"
       inkscape:flatsided="false"
       inkscape:rounded="0"
       inkscape:randomized="0"
       d="m 65.714287,103.79075 1.748809,-60.659734 36.748814,7.672296 58.23125,-17.081671 4.05922,37.321074 34.24008,50.102675 -34.24008,15.3934 -37.06971,48.04683 -25.22076,-27.80744 -57.15042,-20.4081 18.652797,-32.57933 z"
       transform="matrix(1.2076137,0,0,0.93843053,-30.42772,604.45692)" />
    <path
       sodipodi:type="star"
       style="fill:none;stroke:#000000;stroke-width:1;stroke-miterlimit:4;stroke-opacity:1;stroke-dasharray:4, 1;stroke-dashoffset:0"
       id="path2818-7-1"
       sodipodi:sides="5"
       sodipodi:cx="121.42857"
       sodipodi:cy="103.79075"
       sodipodi:r1="55.714287"
       sodipodi:r2="81.190369"
       sodipodi:arg1="3.1415927"
       sodipodi:arg2="-2.2978595"
       inkscape:flatsided="false"
       inkscape:rounded="0"
       inkscape:randomized="0"
       d="m 65.714287,103.79075 1.748809,-60.659734 36.748814,7.672296 58.23125,-17.081671 4.05922,37.321074 34.24008,50.102675 -34.24008,15.3934 -37.06971,48.04683 -25.22076,-27.80744 -57.15042,-20.4081 18.652797,-32.57933 z"
       transform="matrix(1.2076137,0,0,0.93843053,170.59264,593.34523)" />
    <path
       sodipodi:type="star"
       style="fill:none;stroke:#000000;stroke-width:1;stroke-miterlimit:4;stroke-opacity:1;stroke-dasharray:4, 1;stroke-dashoffset:0"
       id="path2818-7-12"
       sodipodi:sides="5"
       sodipodi:cx="121.42857"
       sodipodi:cy="103.79075"
       sodipodi:r1="55.714287"
       sodipodi:r2="81.190369"
       sodipodi:arg1="3.1415927"
       sodipodi:arg2="-2.2978595"
       inkscape:flatsided="false"
       inkscape:rounded="0"
       inkscape:randomized="0"
       d="m 65.714287,103.79075 1.748809,-60.659734 36.748814,7.672296 58.23125,-17.081671 4.05922,37.321074 34.24008,50.102675 -34.24008,15.3934 -37.06971,48.04683 -25.22076,-27.80744 -57.15042,-20.4081 18.652797,-32.57933 z"
       transform="matrix(1.2076137,0,0,0.93843053,23.110364,222.61925)" />
    <path
       sodipodi:type="star"
       style="fill:none;stroke:#000000;stroke-width:1;stroke-miterlimit:4;stroke-opacity:1;stroke-dasharray:4, 1;stroke-dashoffset:0"
       id="path2818-7-12-6"
       sodipodi:sides="5"
       sodipodi:cx="121.42857"
       sodipodi:cy="103.79075"
       sodipodi:r1="55.714287"
       sodipodi:r2="81.190369"
       sodipodi:arg1="3.1415927"
       sodipodi:arg2="-2.2978595"
       inkscape:flatsided="false"
       inkscape:rounded="0"
       inkscape:randomized="0"
       d="m 65.714287,103.79075 1.748809,-60.659734 36.748814,7.672296 58.23125,-17.081671 4.05922,37.321074 34.24008,50.102675 -34.24008,15.3934 -37.06971,48.04683 -25.22076,-27.80744 -57.15042,-20.4081 18.652797,-32.57933 z"
       transform="matrix(1.2076137,0,0,0.93843053,327.16628,156.95934)" />
    <text
       xml:space="preserve"
       style="font-size:12px;font-style:normal;font-weight:normal;fill:#000000;fill-opacity:1;stroke:none;font-family:Bitstream Vera Sans"
       x="112.12693"
       y="335.15387"
       id="text2960"><tspan
         sodipodi:role="line"
         id="tspan2962"
         x="112.12693"
         y="335.15387">Простая деталь</tspan></text>
    <text
       xml:space="preserve"
       style="font-size:12px;font-style:normal;font-weight:normal;fill:#000000;fill-opacity:1;stroke:none;font-family:Bitstream Vera Sans"
       x="427.29453"
       y="261.41275"
       id="text2964"><tspan
         sodipodi:role="line"
         id="tspan2966"
         x="427.29453"
         y="261.41275">Сложная деталь</tspan></text>
    <text
       xml:space="preserve"
       style="font-size:12px;font-style:normal;font-weight:normal;fill:#000000;fill-opacity:1;stroke:none;font-family:Bitstream Vera Sans"
       x="81.822357"
       y="707.90015"
       id="text2968"><tspan
         sodipodi:role="line"
         id="tspan2970"
         x="81.822357"
         y="707.90015">Ножка</tspan></text>
    <text
       xml:space="preserve"
       style="font-size:12px;font-style:normal;font-weight:normal;fill:#000000;fill-opacity:1;stroke:none;font-family:Bitstream Vera Sans"
       x="295.9747"
       y="695.77832"
       id="text2972"><tspan
         sodipodi:role="line"
         id="tspan2974"
         x="295.9747"
         y="695.77832">Панель</tspan></text>
    <path
       sodipodi:type="star"
       style="fill:none;stroke:#000000;stroke-width:1;stroke-miterlimit:4;stroke-opacity:1;stroke-dasharray:4, 1;stroke-dashoffset:0;marker-start:none"
       id="path2818-7-45-0"
       sodipodi:sides="5"
       sodipodi:cx="121.42857"
       sodipodi:cy="103.79075"
       sodipodi:r1="55.714287"
       sodipodi:r2="81.190369"
       sodipodi:arg1="3.1415927"
       sodipodi:arg2="-2.2978595"
       inkscape:flatsided="false"
       inkscape:rounded="0"
       inkscape:randomized="0"
       d="m 65.714287,103.79075 1.748809,-60.659734 36.748814,7.672296 58.23125,-17.081671 4.05922,37.321074 34.24008,50.102675 -34.24008,15.3934 -37.06971,48.04683 -25.22076,-27.80744 -57.15042,-20.4081 18.652797,-32.57933 z"
       transform="matrix(1.2076137,0,0,0.93843053,467.57748,419.59899)" />
    <text
       xml:space="preserve"
       style="font-size:12px;font-style:normal;font-weight:normal;fill:#000000;fill-opacity:1;stroke:none;font-family:Bitstream Vera Sans"
       x="587.90881"
       y="526.07269"
       id="text3002"><tspan
         sodipodi:role="line"
         id="tspan3004"
         x="587.90881"
         y="526.07269">Шасси</tspan></text>
    <path
       sodipodi:type="star"
       style="fill:none;stroke:#000000;stroke-width:1;stroke-miterlimit:4;stroke-opacity:1;stroke-dasharray:4, 1;stroke-dashoffset:0"
       id="path2818-7-45-0-6"
       sodipodi:sides="5"
       sodipodi:cx="121.42857"
       sodipodi:cy="103.79075"
       sodipodi:r1="55.714287"
       sodipodi:r2="81.190369"
       sodipodi:arg1="3.1415927"
       sodipodi:arg2="-2.2978595"
       inkscape:flatsided="false"
       inkscape:rounded="0"
       inkscape:randomized="0"
       d="m 65.714287,103.79075 1.748809,-60.659734 36.748814,7.672296 58.23125,-17.081671 4.05922,37.321074 34.24008,50.102675 -34.24008,15.3934 -37.06971,48.04683 -25.22076,-27.80744 -57.15042,-20.4081 18.652797,-32.57933 z"
       transform="matrix(1.2076137,0,0,0.93843053,480.70947,252.92383)" />
    <text
       xml:space="preserve"
       style="font-size:12px;font-style:normal;font-weight:normal;fill:#000000;fill-opacity:1;stroke:none;font-family:Bitstream Vera Sans"
       x="601.04077"
       y="359.39752"
       id="text3002-7"><tspan
         sodipodi:role="line"
         id="tspan3004-0"
         x="601.04077"
         y="359.39752">Ручка</tspan></text>
    <path
       style="fill:none;stroke:#000000;stroke-width:1px;stroke-linecap:butt;stroke-linejoin:miter;stroke-opacity:1;marker-start:url(#Arrow1Lstart)"
       d="m 173.74624,219.99649 c -24.24366,47.47716 -23.23351,48.48732 -23.23351,48.48732"
       id="path5930" />
    <path
       style="fill:none;stroke:#000000;stroke-width:1px;stroke-linecap:butt;stroke-linejoin:miter;stroke-opacity:1;marker-start:url(#Arrow1Lstart)"
       d="m 262.63966,161.40764 144.45182,44.44671"
       id="path6304" />
    <path
       style="fill:none;stroke:#000000;stroke-width:1px;stroke-linecap:butt;stroke-linejoin:miter;stroke-opacity:1;marker-start:url(#Arrow1Lstart)"
       d="M 434.36559,430.10821 536.391,380.61074"
       id="path6492" />
    <path
       style="fill:none;stroke:#000000;stroke-width:1px;stroke-linecap:butt;stroke-linejoin:miter;stroke-opacity:1;marker-start:url(#Arrow1Lstart)"
       d="m 473.76154,479.60569 71.72083,33.33503"
       id="path6680" />
    <path
       style="fill:none;stroke:#000000;stroke-width:1px;stroke-linecap:butt;stroke-linejoin:miter;stroke-opacity:1;marker-start:url(#Arrow1Lstart)"
       d="M 199.00005,553.34683 297.995,638.19964"
       id="path7056" />
    <path
       style="fill:none;stroke:#000000;stroke-width:1px;stroke-linecap:butt;stroke-linejoin:miter;stroke-opacity:1;marker-start:url(#Arrow1Lstart)"
       d="m 113.13709,571.52957 -16.162446,78.7919"
       id="path7244" />
    <path
       style="fill:none;stroke:#000000;stroke-width:1px;stroke-linecap:butt;stroke-linejoin:miter;stroke-opacity:1;marker-start:url(#Arrow1Lstart)"
       d="m 147.48227,368.48891 -29.29442,104.04571 -1.01015,-1.01015"
       id="path7432" />
    <path
       style="fill:none;stroke:#000000;stroke-width:1px;stroke-linecap:butt;stroke-linejoin:miter;stroke-opacity:1;marker-start:url(#Arrow1Lstart)"
       d="m 225.26402,354.34677 89.90357,104.04572"
       id="path7620" />
  </g>
</svg>
