\relax 
\catcode`"\active
\select@language{ukrainian}
\@writefile{toc}{\select@language{ukrainian}}
\@writefile{lof}{\select@language{ukrainian}}
\@writefile{lot}{\select@language{ukrainian}}
\@writefile{toc}{\contentsline {section}{\numberline {1}\IeC {\CYRZ }\IeC {\cyra }\IeC {\cyrd }\IeC {\cyra }\IeC {\cyrn }\IeC {\cyri }\IeC {\cyre }}{2}}
\@writefile{toc}{\contentsline {subsection}{\numberline {1.1}\IeC {\CYRV }\IeC {\cyra }\IeC {\cyrr }\IeC {\cyri }\IeC {\cyra }\IeC {\cyrn }\IeC {\cyrt }}{2}}
\@writefile{toc}{\contentsline {section}{\numberline {2}\IeC {\CYRZ }\IeC {\cyra }\IeC {\cyrd }\IeC {\cyra }\IeC {\cyrn }\IeC {\cyri }\IeC {\cyre } 1}{3}}
\@writefile{toc}{\contentsline {subsection}{\numberline {2.1}\IeC {\CYRN }\IeC {\cyra }\IeC {\cyrd }\IeC {\cyre }\IeC {\cyrzh }\IeC {\cyrn }\IeC {\cyro }\IeC {\cyrs }\IeC {\cyrt }\IeC {\cyrsftsn }}{3}}
\@writefile{lof}{\contentsline {figure}{\numberline {1}{\ignorespaces \IeC {\CYRN }\IeC {\cyra }\IeC {\cyrd }\IeC {\cyre }\IeC {\cyrzh }\IeC {\cyrn }\IeC {\cyro }\IeC {\cyrs }\IeC {\cyrt }\IeC {\cyrsftsn } \IeC {\cyro }\IeC {\cyrd }\IeC {\cyrn }\IeC {\cyro }\IeC {\cyrg }\IeC {\cyro } \IeC {\cyrp }\IeC {\cyrr }\IeC {\cyro }\IeC {\cyrc }\IeC {\cyre }\IeC {\cyrs }\IeC {\cyrs }\IeC {\cyro }\IeC {\cyrr }\IeC {\cyra }}}{3}}
\@writefile{lof}{\contentsline {figure}{\numberline {2}{\ignorespaces \IeC {\CYRN }\IeC {\cyra }\IeC {\cyrd }\IeC {\cyre }\IeC {\cyrzh }\IeC {\cyrn }\IeC {\cyro }\IeC {\cyrs }\IeC {\cyrt }\IeC {\cyrsftsn } \IeC {\CYRK }\IeC {\CYRS }}}{3}}
\@writefile{toc}{\contentsline {subsection}{\numberline {2.2}\IeC {\CYRN }\IeC {\cyre }\IeC {\cyrn }\IeC {\cyra }\IeC {\cyrd }\IeC {\cyre }\IeC {\cyrzh }\IeC {\cyrn }\IeC {\cyro }\IeC {\cyrs }\IeC {\cyrt }\IeC {\cyrsftsn }}{4}}
\@writefile{lof}{\contentsline {figure}{\numberline {3}{\ignorespaces \IeC {\CYRN }\IeC {\cyre }\IeC {\cyrn }\IeC {\cyra }\IeC {\cyrd }\IeC {\cyre }\IeC {\cyrzh }\IeC {\cyrn }\IeC {\cyro }\IeC {\cyrs }\IeC {\cyrt }\IeC {\cyrsftsn } \IeC {\cyro }\IeC {\cyrd }\IeC {\cyrn }\IeC {\cyro }\IeC {\cyrg }\IeC {\cyro } \IeC {\cyrp }\IeC {\cyrr }\IeC {\cyro }\IeC {\cyrc }\IeC {\cyre }\IeC {\cyrs }\IeC {\cyrs }\IeC {\cyro }\IeC {\cyrr }\IeC {\cyra }}}{4}}
\@writefile{lof}{\contentsline {figure}{\numberline {4}{\ignorespaces \IeC {\CYRN }\IeC {\cyre }\IeC {\cyrn }\IeC {\cyra }\IeC {\cyrd }\IeC {\cyre }\IeC {\cyrzh }\IeC {\cyrn }\IeC {\cyro }\IeC {\cyrs }\IeC {\cyrt }\IeC {\cyrsftsn } \IeC {\CYRK }\IeC {\CYRS }}}{4}}
\@writefile{toc}{\contentsline {subsection}{\numberline {2.3}\IeC {\CYRR }\IeC {\cyra }\IeC {\cyrs }\IeC {\cyrp }\IeC {\cyrr }\IeC {\cyre }\IeC {\cyrd }\IeC {\cyre }\IeC {\cyrl }\IeC {\cyre }\IeC {\cyrn }\IeC {\cyri }\IeC {\cyre } \IeC {\cyrv }\IeC {\cyrr }\IeC {\cyre }\IeC {\cyrm }\IeC {\cyre }\IeC {\cyrn }\IeC {\cyri } \IeC {\cyrb }\IeC {\cyre }\IeC {\cyrz }\IeC {\cyro }\IeC {\cyrt }\IeC {\cyrk }\IeC {\cyra }\IeC {\cyrz }\IeC {\cyrn }\IeC {\cyro }\IeC {\cyrishrt } \IeC {\cyrr }\IeC {\cyra }\IeC {\cyrb }\IeC {\cyro }\IeC {\cyrt }\IeC {\cyrery }}{5}}
\@writefile{lof}{\contentsline {figure}{\numberline {5}{\ignorespaces \IeC {\CYRR }\IeC {\cyra }\IeC {\cyrs }\IeC {\cyrp }\IeC {\cyrr }\IeC {\cyre }\IeC {\cyrd }\IeC {\cyre }\IeC {\cyrl }\IeC {\cyre }\IeC {\cyrn }\IeC {\cyri }\IeC {\cyre } \IeC {\cyrv }\IeC {\cyrr }\IeC {\cyre }\IeC {\cyrm }\IeC {\cyre }\IeC {\cyrn }\IeC {\cyri } \IeC {\cyrb }\IeC {\cyre }\IeC {\cyrz }\IeC {\cyro }\IeC {\cyrt }\IeC {\cyrk }\IeC {\cyra }\IeC {\cyrz }\IeC {\cyrn }\IeC {\cyro }\IeC {\cyrishrt } \IeC {\cyrr }\IeC {\cyra }\IeC {\cyrb }\IeC {\cyro }\IeC {\cyrt }\IeC {\cyrery } \IeC {\cyro }\IeC {\cyrd }\IeC {\cyrn }\IeC {\cyro }\IeC {\cyrg }\IeC {\cyro } \IeC {\cyrp }\IeC {\cyrr }\IeC {\cyro }\IeC {\cyrc }\IeC {\cyre }\IeC {\cyrs }\IeC {\cyrs }\IeC {\cyro }\IeC {\cyrr }\IeC {\cyra }}}{5}}
\@writefile{lof}{\contentsline {figure}{\numberline {6}{\ignorespaces \IeC {\CYRR }\IeC {\cyra }\IeC {\cyrs }\IeC {\cyrp }\IeC {\cyrr }\IeC {\cyre }\IeC {\cyrd }\IeC {\cyre }\IeC {\cyrl }\IeC {\cyre }\IeC {\cyrn }\IeC {\cyri }\IeC {\cyre } \IeC {\cyrv }\IeC {\cyrr }\IeC {\cyre }\IeC {\cyrm }\IeC {\cyre }\IeC {\cyrn }\IeC {\cyri } \IeC {\cyrb }\IeC {\cyre }\IeC {\cyrz }\IeC {\cyro }\IeC {\cyrt }\IeC {\cyrk }\IeC {\cyra }\IeC {\cyrz }\IeC {\cyrn }\IeC {\cyro }\IeC {\cyrishrt } \IeC {\cyrr }\IeC {\cyra }\IeC {\cyrb }\IeC {\cyro }\IeC {\cyrt }\IeC {\cyrery } \IeC {\CYRK }\IeC {\CYRS }}}{5}}
\@writefile{toc}{\contentsline {subsection}{\numberline {2.4}\IeC {\CYRP }\IeC {\cyrl }\IeC {\cyro }\IeC {\cyrt }\IeC {\cyrn }\IeC {\cyro }\IeC {\cyrs }\IeC {\cyrt }\IeC {\cyrsftsn } \IeC {\cyrr }\IeC {\cyra }\IeC {\cyrs }\IeC {\cyrp }\IeC {\cyrr }\IeC {\cyre }\IeC {\cyrd }\IeC {\cyre }\IeC {\cyrl }\IeC {\cyre }\IeC {\cyrn }\IeC {\cyri }\IeC {\cyrya } \IeC {\cyrv }\IeC {\cyrr }\IeC {\cyre }\IeC {\cyrm }\IeC {\cyre }\IeC {\cyrn }\IeC {\cyri } \IeC {\cyrb }\IeC {\cyre }\IeC {\cyrz }\IeC {\cyro }\IeC {\cyrt }\IeC {\cyrk }\IeC {\cyra }\IeC {\cyrz }\IeC {\cyrn }\IeC {\cyro }\IeC {\cyrishrt } \IeC {\cyrr }\IeC {\cyra }\IeC {\cyrb }\IeC {\cyro }\IeC {\cyrt }\IeC {\cyrery }}{6}}
\@writefile{lof}{\contentsline {figure}{\numberline {7}{\ignorespaces \IeC {\CYRP }\IeC {\cyrl }\IeC {\cyro }\IeC {\cyrt }\IeC {\cyrn }\IeC {\cyro }\IeC {\cyrs }\IeC {\cyrt }\IeC {\cyrsftsn } \IeC {\cyrr }\IeC {\cyra }\IeC {\cyrs }\IeC {\cyrp }\IeC {\cyrr }\IeC {\cyre }\IeC {\cyrd }\IeC {\cyre }\IeC {\cyrl }\IeC {\cyre }\IeC {\cyrn }\IeC {\cyri }\IeC {\cyrya } \IeC {\cyrv }\IeC {\cyrr }\IeC {\cyre }\IeC {\cyrm }\IeC {\cyre }\IeC {\cyrn }\IeC {\cyri } \IeC {\cyrb }\IeC {\cyre }\IeC {\cyrz }\IeC {\cyro }\IeC {\cyrt }\IeC {\cyrk }\IeC {\cyra }\IeC {\cyrz }\IeC {\cyrn }\IeC {\cyro }\IeC {\cyrishrt } \IeC {\cyrr }\IeC {\cyra }\IeC {\cyrb }\IeC {\cyro }\IeC {\cyrt }\IeC {\cyrery } \IeC {\cyro }\IeC {\cyrd }\IeC {\cyrn }\IeC {\cyro }\IeC {\cyrg }\IeC {\cyro } \IeC {\cyrp }\IeC {\cyrr }\IeC {\cyro }\IeC {\cyrc }\IeC {\cyre }\IeC {\cyrs }\IeC {\cyrs }\IeC {\cyro }\IeC {\cyrr }\IeC {\cyra }}}{6}}
\@writefile{lof}{\contentsline {figure}{\numberline {8}{\ignorespaces \IeC {\CYRP }\IeC {\cyrl }\IeC {\cyro }\IeC {\cyrt }\IeC {\cyrn }\IeC {\cyro }\IeC {\cyrs }\IeC {\cyrt }\IeC {\cyrsftsn } \IeC {\cyrr }\IeC {\cyra }\IeC {\cyrs }\IeC {\cyrp }\IeC {\cyrr }\IeC {\cyre }\IeC {\cyrd }\IeC {\cyre }\IeC {\cyrl }\IeC {\cyre }\IeC {\cyrn }\IeC {\cyri }\IeC {\cyrya } \IeC {\cyrv }\IeC {\cyrr }\IeC {\cyre }\IeC {\cyrm }\IeC {\cyre }\IeC {\cyrn }\IeC {\cyri } \IeC {\cyrb }\IeC {\cyre }\IeC {\cyrz }\IeC {\cyro }\IeC {\cyrt }\IeC {\cyrk }\IeC {\cyra }\IeC {\cyrz }\IeC {\cyrn }\IeC {\cyro }\IeC {\cyrishrt } \IeC {\cyrr }\IeC {\cyra }\IeC {\cyrb }\IeC {\cyro }\IeC {\cyrt }\IeC {\cyrery } \IeC {\CYRK }\IeC {\CYRS }}}{6}}
\@writefile{toc}{\contentsline {subsection}{\numberline {2.5}\IeC {\CYRI }\IeC {\cyrn }\IeC {\cyrt }\IeC {\cyre }\IeC {\cyrn }\IeC {\cyrs }\IeC {\cyri }\IeC {\cyrv }\IeC {\cyrn }\IeC {\cyro }\IeC {\cyrs }\IeC {\cyrt }\IeC {\cyrsftsn } \IeC {\cyro }\IeC {\cyrt }\IeC {\cyrk }\IeC {\cyra }\IeC {\cyrz }\IeC {\cyro }\IeC {\cyrv }}{7}}
\@writefile{lof}{\contentsline {figure}{\numberline {9}{\ignorespaces \IeC {\CYRI }\IeC {\cyrn }\IeC {\cyrt }\IeC {\cyre }\IeC {\cyrn }\IeC {\cyrs }\IeC {\cyri }\IeC {\cyrv }\IeC {\cyrn }\IeC {\cyro }\IeC {\cyrs }\IeC {\cyrt }\IeC {\cyrsftsn } \IeC {\cyro }\IeC {\cyrt }\IeC {\cyrk }\IeC {\cyra }\IeC {\cyrz }\IeC {\cyro }\IeC {\cyrv } \IeC {\cyro }\IeC {\cyrd }\IeC {\cyrn }\IeC {\cyro }\IeC {\cyrg }\IeC {\cyro } \IeC {\cyrp }\IeC {\cyrr }\IeC {\cyro }\IeC {\cyrc }\IeC {\cyre }\IeC {\cyrs }\IeC {\cyrs }\IeC {\cyro }\IeC {\cyrr }\IeC {\cyra }}}{7}}
\@writefile{lof}{\contentsline {figure}{\numberline {10}{\ignorespaces \IeC {\CYRI }\IeC {\cyrn }\IeC {\cyrt }\IeC {\cyre }\IeC {\cyrn }\IeC {\cyrs }\IeC {\cyri }\IeC {\cyrv }\IeC {\cyrn }\IeC {\cyro }\IeC {\cyrs }\IeC {\cyrt }\IeC {\cyrsftsn } \IeC {\cyro }\IeC {\cyrt }\IeC {\cyrk }\IeC {\cyra }\IeC {\cyrz }\IeC {\cyro }\IeC {\cyrv } \IeC {\CYRK }\IeC {\CYRS }}}{7}}
\@writefile{toc}{\contentsline {subsection}{\numberline {2.6}\IeC {\CYRN }\IeC {\cyra }\IeC {\cyrd }\IeC {\cyre }\IeC {\cyrzh }\IeC {\cyrn }\IeC {\cyro }\IeC {\cyrs }\IeC {\cyrt }\IeC {\cyrsftsn } \IeC {\cyrn }\IeC {\cyra } \IeC {\cyri }\IeC {\cyrn }\IeC {\cyrt }\IeC {\cyre }\IeC {\cyrr }\IeC {\cyrv }\IeC {\cyra }\IeC {\cyrl }\IeC {\cyre } \IeC {\cyrb }\IeC {\cyre }\IeC {\cyrz } \IeC {\cyro }\IeC {\cyrt }\IeC {\cyrk }\IeC {\cyra }\IeC {\cyrz }\IeC {\cyro }\IeC {\cyrv }}{8}}
\@writefile{lof}{\contentsline {figure}{\numberline {11}{\ignorespaces \IeC {\CYRN }\IeC {\cyra }\IeC {\cyrd }\IeC {\cyre }\IeC {\cyrzh }\IeC {\cyrn }\IeC {\cyro }\IeC {\cyrs }\IeC {\cyrt }\IeC {\cyrsftsn } \IeC {\cyrp }\IeC {\cyrr }\IeC {\cyro }\IeC {\cyrc }\IeC {\cyre }\IeC {\cyrs }\IeC {\cyrs }\IeC {\cyro }\IeC {\cyrr }\IeC {\cyra } \IeC {\cyrn }\IeC {\cyra } \IeC {\cyri }\IeC {\cyrn }\IeC {\cyrt }\IeC {\cyre }\IeC {\cyrr }\IeC {\cyrv }\IeC {\cyra }\IeC {\cyrl }\IeC {\cyre }}}{8}}
\@writefile{lof}{\contentsline {figure}{\numberline {12}{\ignorespaces \IeC {\CYRN }\IeC {\cyra }\IeC {\cyrd }\IeC {\cyre }\IeC {\cyrzh }\IeC {\cyrn }\IeC {\cyro }\IeC {\cyrs }\IeC {\cyrt }\IeC {\cyrsftsn } \IeC {\cyrs }\IeC {\cyri }\IeC {\cyrs }\IeC {\cyrt }\IeC {\cyre }\IeC {\cyrm }\IeC {\cyrii } \IeC {\cyrn }\IeC {\cyra } \IeC {\cyri }\IeC {\cyrn }\IeC {\cyrt }\IeC {\cyre }\IeC {\cyrr }\IeC {\cyrv }\IeC {\cyra }\IeC {\cyrl }\IeC {\cyre } \IeC {\cyrb }\IeC {\cyre }\IeC {\cyrz } \IeC {\cyrp }\IeC {\cyrr }\IeC {\cyre }\IeC {\cyrd }\IeC {\cyrv }\IeC {\cyra }\IeC {\cyrr }\IeC {\cyri }\IeC {\cyrt }\IeC {\cyre }\IeC {\cyrl }\IeC {\cyrsftsn }\IeC {\cyrn }\IeC {\cyrery }\IeC {\cyrh } \IeC {\cyro }\IeC {\cyrt }\IeC {\cyrk }\IeC {\cyra }\IeC {\cyrz }\IeC {\cyro }\IeC {\cyrv }}}{8}}
\@writefile{toc}{\contentsline {subsection}{\numberline {2.7}\IeC {\CYRN }\IeC {\cyra }\IeC {\cyrd }\IeC {\cyre }\IeC {\cyrzh }\IeC {\cyrn }\IeC {\cyro }\IeC {\cyrs }\IeC {\cyrt }\IeC {\cyrsftsn } \IeC {\cyrn }\IeC {\cyra } \IeC {\cyri }\IeC {\cyrn }\IeC {\cyrt }\IeC {\cyre }\IeC {\cyrr }\IeC {\cyrv }\IeC {\cyra }\IeC {\cyrl }\IeC {\cyre } \IeC {\cyrs } \IeC {\cyro }\IeC {\cyrt }\IeC {\cyrk }\IeC {\cyra }\IeC {\cyrz }\IeC {\cyra }\IeC {\cyrm }\IeC {\cyri }}{9}}
\@writefile{lof}{\contentsline {figure}{\numberline {13}{\ignorespaces \IeC {\CYRN }\IeC {\cyra }\IeC {\cyrd }\IeC {\cyre }\IeC {\cyrzh }\IeC {\cyrn }\IeC {\cyro }\IeC {\cyrs }\IeC {\cyrt }\IeC {\cyrsftsn } \IeC {\cyrs }\IeC {\cyri }\IeC {\cyrs }\IeC {\cyrt }\IeC {\cyre }\IeC {\cyrm }\IeC {\cyrery } \IeC {\cyrn }\IeC {\cyra } \IeC {\cyri }\IeC {\cyrn }\IeC {\cyrt }\IeC {\cyre }\IeC {\cyrr }\IeC {\cyrv }\IeC {\cyra }\IeC {\cyrl }\IeC {\cyre } \IeC {\cyrp }\IeC {\cyro }\IeC {\cyrs }\IeC {\cyrl }\IeC {\cyre } m \IeC {\cyro }\IeC {\cyrt }\IeC {\cyrk }\IeC {\cyra }\IeC {\cyrz }\IeC {\cyro }\IeC {\cyrv }}}{9}}
\@writefile{toc}{\contentsline {section}{\numberline {3}\IeC {\CYRZ }\IeC {\cyra }\IeC {\cyrd }\IeC {\cyra }\IeC {\cyrn }\IeC {\cyri }\IeC {\cyre } 2}{10}}
\@writefile{toc}{\contentsline {subsection}{\numberline {3.1}\IeC {\CYRN }\IeC {\cyra }\IeC {\cyrr }\IeC {\cyra }\IeC {\cyrb }\IeC {\cyro }\IeC {\cyrt }\IeC {\cyrk }\IeC {\cyra } \IeC {\cyrn }\IeC {\cyra } \IeC {\cyro }\IeC {\cyrt }\IeC {\cyrk }\IeC {\cyra }\IeC {\cyrz }}{10}}
\@writefile{toc}{\contentsline {paragraph}{\IeC {\CYRO }\IeC {\cyrd }\IeC {\cyri }\IeC {\cyrn } \IeC {\cyrp }\IeC {\cyrr }\IeC {\cyro }\IeC {\cyrc }\IeC {\cyre }\IeC {\cyrs }\IeC {\cyrs }\IeC {\cyro }\IeC {\cyrr }}{10}}
\@writefile{toc}{\contentsline {paragraph}{\IeC {\CYRK }\IeC {\cyro }\IeC {\cyrm }\IeC {\cyrp }\IeC {\cyrhrdsn }\IeC {\cyryu }\IeC {\cyrt }\IeC {\cyre }\IeC {\cyrr }\IeC {\cyrn }\IeC {\cyra }\IeC {\cyrya } \IeC {\cyrs }\IeC {\cyri }\IeC {\cyrs }\IeC {\cyrt }\IeC {\cyre }\IeC {\cyrm }\IeC {\cyra }}{10}}
\@writefile{toc}{\contentsline {subsection}{\numberline {3.2}\IeC {\CYREREV }\IeC {\cyrf }\IeC {\cyrf }\IeC {\cyre }\IeC {\cyrk }\IeC {\cyrt }\IeC {\cyri }\IeC {\cyrv }\IeC {\cyrn }\IeC {\cyra }\IeC {\cyrya } \IeC {\cyri }\IeC {\cyrn }\IeC {\cyrt }\IeC {\cyre }\IeC {\cyrn }\IeC {\cyrs }\IeC {\cyri }\IeC {\cyrv }\IeC {\cyrn }\IeC {\cyro }\IeC {\cyrs }\IeC {\cyrt }\IeC {\cyrsftsn } \IeC {\cyro }\IeC {\cyrt }\IeC {\cyrk }\IeC {\cyra }\IeC {\cyrz }\IeC {\cyro }\IeC {\cyrv }}{10}}
\@writefile{toc}{\contentsline {subsection}{\numberline {3.3}\IeC {\CYRS }\IeC {\cyrr }\IeC {\cyre }\IeC {\cyrd }\IeC {\cyrn }\IeC {\cyre }\IeC {\cyre } \IeC {\cyrv }\IeC {\cyrr }\IeC {\cyre }\IeC {\cyrm }\IeC {\cyrya } \IeC {\cyrb }\IeC {\cyru }\IeC {\cyrd }\IeC {\cyru }\IeC {\cyrshch }\IeC {\cyre }\IeC {\cyrishrt } \IeC {\cyrb }\IeC {\cyre }\IeC {\cyrz }\IeC {\cyro }\IeC {\cyrt }\IeC {\cyrk }\IeC {\cyra }\IeC {\cyrz }\IeC {\cyrn }\IeC {\cyro }\IeC {\cyrishrt } \IeC {\cyrr }\IeC {\cyra }\IeC {\cyrb }\IeC {\cyro }\IeC {\cyrt }\IeC {\cyrery }}{10}}
\@writefile{toc}{\contentsline {subsection}{\numberline {3.4}\IeC {\CYRS }\IeC {\cyrr }\IeC {\cyre }\IeC {\cyrd }\IeC {\cyrn }\IeC {\cyre }\IeC {\cyre } \IeC {\cyrv }\IeC {\cyrr }\IeC {\cyre }\IeC {\cyrm }\IeC {\cyrya } \IeC {\cyrb }\IeC {\cyru }\IeC {\cyrd }\IeC {\cyru }\IeC {\cyrshch }\IeC {\cyre }\IeC {\cyrishrt } \IeC {\cyrb }\IeC {\cyre }\IeC {\cyrz }\IeC {\cyro }\IeC {\cyrt }\IeC {\cyrk }\IeC {\cyra }\IeC {\cyrz }\IeC {\cyrn }\IeC {\cyro }\IeC {\cyrishrt } \IeC {\cyrr }\IeC {\cyra }\IeC {\cyrb }\IeC {\cyro }\IeC {\cyrt }\IeC {\cyrery } \IeC {\cyrs } \IeC {\cyrp }\IeC {\cyrr }\IeC {\cyre }\IeC {\cyrd }\IeC {\cyrv }\IeC {\cyra }\IeC {\cyrr }\IeC {\cyri }\IeC {\cyrt }\IeC {\cyre }\IeC {\cyrl }\IeC {\cyrsftsn }\IeC {\cyrn }\IeC {\cyrery }\IeC {\cyrm }\IeC {\cyri } \IeC {\cyro }\IeC {\cyrt }\IeC {\cyrk }\IeC {\cyra }\IeC {\cyrz }\IeC {\cyra }\IeC {\cyrm }\IeC {\cyri }}{11}}
\@writefile{toc}{\contentsline {subsection}{\numberline {3.5}\IeC {\CYRG }\IeC {\cyra }\IeC {\cyrr }\IeC {\cyra }\IeC {\cyrn }\IeC {\cyrt }\IeC {\cyri }\IeC {\cyrr }\IeC {\cyro }\IeC {\cyrv }\IeC {\cyra }\IeC {\cyrn }\IeC {\cyrery }\IeC {\cyrishrt } \IeC {\cyrt }\IeC {\cyre }\IeC {\cyrh }\IeC {\cyrn }\IeC {\cyri }\IeC {\cyrch }\IeC {\cyre }\IeC {\cyrs }\IeC {\cyrk }\IeC {\cyri }\IeC {\cyrishrt } \IeC {\cyrr }\IeC {\cyre }\IeC {\cyrs }\IeC {\cyru }\IeC {\cyrr }\IeC {\cyrs }}{11}}
\@writefile{toc}{\contentsline {section}{\numberline {4}\IeC {\CYRZ }\IeC {\cyra }\IeC {\cyrd }\IeC {\cyra }\IeC {\cyrn }\IeC {\cyri }\IeC {\cyre } 3}{11}}
\ttl@finishall
