\relax 
\catcode`"\active
\gdef \LT@i {\LT@entry 
    {1}{17.07161pt}\LT@entry 
    {1}{17.07161pt}\LT@entry 
    {1}{22.76216pt}\LT@entry 
    {1}{199.16925pt}\LT@entry 
    {1}{179.25232pt}\LT@entry 
    {1}{28.45271pt}\LT@entry 
    {1}{62.59602pt}}
\select@language{russian}
\@writefile{toc}{\select@language{russian}}
\@writefile{lof}{\select@language{russian}}
\@writefile{lot}{\select@language{russian}}
\newlabel{LastPage}{{}{1}}
\ttl@finishall
