\relax 
\catcode`"\active
\select@language{ukrainian}
\@writefile{toc}{\select@language{ukrainian}}
\@writefile{lof}{\select@language{ukrainian}}
\@writefile{lot}{\select@language{ukrainian}}
\@writefile{toc}{\contentsline {section}{\numberline {1}\IeC {\CYRZ }\IeC {\cyra }\IeC {\cyrd }\IeC {\cyra }\IeC {\cyrn }\IeC {\cyri }\IeC {\cyre }}{2}}
\@writefile{toc}{\contentsline {section}{\numberline {2}\IeC {\CYRR }\IeC {\cyre }\IeC {\cyrsh }\IeC {\cyre }\IeC {\cyrn }\IeC {\cyri }\IeC {\cyre }}{2}}
\@writefile{toc}{\contentsline {subsection}{\numberline {2.1}\IeC {\CYRP }\IeC {\cyrr }\IeC {\cyri }\IeC {\cyrm }\IeC {\cyre }\IeC {\cyrn }\IeC {\cyre }\IeC {\cyrn }\IeC {\cyri }\IeC {\cyre } UPS}{2}}
\@writefile{lof}{\contentsline {figure}{\numberline {1}{\ignorespaces \IeC {\CYRM }\IeC {\cyra }\IeC {\cyrr }\IeC {\cyrk }\IeC {\cyro }\IeC {\cyrv }\IeC {\cyrs }\IeC {\cyrk }\IeC {\cyri }\IeC {\cyrishrt } \IeC {\cyrg }\IeC {\cyrr }\IeC {\cyra }\IeC {\cyrf } \IeC {\cyrd }\IeC {\cyrl }\IeC {\cyrya } UPS}}{3}}
\@writefile{toc}{\contentsline {subsection}{\numberline {2.2}\IeC {\CYRP }\IeC {\cyro }\IeC {\cyrs }\IeC {\cyrl }\IeC {\cyre }\IeC {\cyrd }\IeC {\cyro }\IeC {\cyrv }\IeC {\cyra }\IeC {\cyrt }\IeC {\cyre }\IeC {\cyrl }\IeC {\cyrsftsn }\IeC {\cyrn }\IeC {\cyro }\IeC {\cyre } \IeC {\cyrv }\IeC {\cyrk }\IeC {\cyrl }\IeC {\cyryu }\IeC {\cyrch }\IeC {\cyre }\IeC {\cyrn }\IeC {\cyri }\IeC {\cyre } UPS}{3}}
\@writefile{toc}{\contentsline {subsection}{\numberline {2.3}\IeC {\CYRP }\IeC {\cyro }\IeC {\cyrv }\IeC {\cyrery }\IeC {\cyrsh }\IeC {\cyre }\IeC {\cyrn }\IeC {\cyri }\IeC {\cyre } \IeC {\cyrn }\IeC {\cyra }\IeC {\cyrd }\IeC {\cyryo }\IeC {\cyrzh }\IeC {\cyrn }\IeC {\cyro }\IeC {\cyrs }\IeC {\cyrt }\IeC {\cyri } CP}{4}}
\@writefile{lof}{\contentsline {figure}{\numberline {2}{\ignorespaces \IeC {\CYRM }\IeC {\cyra }\IeC {\cyrr }\IeC {\cyrk }\IeC {\cyro }\IeC {\cyrv }\IeC {\cyrs }\IeC {\cyrk }\IeC {\cyra }\IeC {\cyrya } \IeC {\cyrc }\IeC {\cyre }\IeC {\cyrp }\IeC {\cyrsftsn } \IeC {\cyrd }\IeC {\cyrl }\IeC {\cyrya } \IeC {\cyrp }\IeC {\cyro }\IeC {\cyrs }\IeC {\cyrl }\IeC {\cyre }\IeC {\cyrd }\IeC {\cyro }\IeC {\cyrv }\IeC {\cyra }\IeC {\cyrt }\IeC {\cyre }\IeC {\cyrl }\IeC {\cyrsftsn }\IeC {\cyrn }\IeC {\cyrery }\IeC {\cyrh } UP (n=2) \IeC {\cyri } RAID3 HDD (n=4)}}{4}}
\@writefile{toc}{\contentsline {paragraph}{\IeC {\CYRD }\IeC {\cyru }\IeC {\cyrb }\IeC {\cyrl }\IeC {\cyri }\IeC {\cyrr }\IeC {\cyro }\IeC {\cyrv }\IeC {\cyra }\IeC {\cyrn }\IeC {\cyri }\IeC {\cyre } UP}{4}}
\@writefile{toc}{\contentsline {paragraph}{\IeC {\CYRP }\IeC {\cyrr }\IeC {\cyri }\IeC {\cyrm }\IeC {\cyre }\IeC {\cyrn }\IeC {\cyre }\IeC {\cyrn }\IeC {\cyri }\IeC {\cyre } RAID3}{5}}
\@writefile{toc}{\contentsline {paragraph}{\IeC {\CYRD }\IeC {\cyru }\IeC {\cyrb }\IeC {\cyrl }\IeC {\cyri }\IeC {\cyrr }\IeC {\cyro }\IeC {\cyrv }\IeC {\cyra }\IeC {\cyrn }\IeC {\cyri }\IeC {\cyre } \IeC {\cyrv }\IeC {\cyrs }\IeC {\cyre }\IeC {\cyrg }\IeC {\cyro } \IeC {\CYRS }\IeC {\CYRK }}{5}}
\@writefile{toc}{\contentsline {subsection}{\numberline {2.4}\IeC {\CYRS }\IeC {\cyro }\IeC {\cyrz }\IeC {\cyrd }\IeC {\cyra }\IeC {\cyrn }\IeC {\cyri }\IeC {\cyre } \IeC {\cyrs }\IeC {\cyro }\IeC {\cyrb }\IeC {\cyrs }\IeC {\cyrt }\IeC {\cyrv }\IeC {\cyre }\IeC {\cyrn }\IeC {\cyrn }\IeC {\cyro }\IeC {\cyrishrt } \IeC {\cyrb }\IeC {\cyrr }\IeC {\cyri }\IeC {\cyrg }\IeC {\cyra }\IeC {\cyrd }\IeC {\cyrery } \IeC {\cyrr }\IeC {\cyre }\IeC {\cyrm }\IeC {\cyro }\IeC {\cyrn }\IeC {\cyrt }\IeC {\cyra } \IeC {\CYRS }\IeC {\CYRR }}{5}}
\@writefile{toc}{\contentsline {paragraph}{\IeC {\CYRO }\IeC {\cyrp }\IeC {\cyrt }\IeC {\cyri }\IeC {\cyrm }\IeC {\cyra }\IeC {\cyrl }\IeC {\cyrsftsn }\IeC {\cyrn }\IeC {\cyro }\IeC {\cyre } \IeC {\cyrk }\IeC {\cyro }\IeC {\cyrl }-\IeC {\cyrv }\IeC {\cyro } \IeC {\cyrr }\IeC {\cyre }\IeC {\cyrm }\IeC {\cyro }\IeC {\cyrn }\IeC {\cyrt }\IeC {\cyrn }\IeC {\cyri }\IeC {\cyrk }\IeC {\cyro }\IeC {\cyrv }}{6}}
\@writefile{lof}{\contentsline {figure}{\numberline {3}{\ignorespaces \IeC {\CYRM }\IeC {\cyra }\IeC {\cyrr }\IeC {\cyrk }\IeC {\cyro }\IeC {\cyrv }\IeC {\cyrs }\IeC {\cyrk }\IeC {\cyri }\IeC {\cyrishrt } \IeC {\cyrg }\IeC {\cyrr }\IeC {\cyra }\IeC {\cyrf } \IeC {\cyrd }\IeC {\cyrl }\IeC {\cyrya } \IeC {\cyro }\IeC {\cyrd }\IeC {\cyrn }\IeC {\cyro }\IeC {\cyrg }\IeC {\cyro } \IeC {\cyrr }\IeC {\cyre }\IeC {\cyrm }\IeC {\cyro }\IeC {\cyrn }\IeC {\cyrt }\IeC {\cyrn }\IeC {\cyri }\IeC {\cyrk }\IeC {\cyra }}}{6}}
\@writefile{lof}{\contentsline {figure}{\numberline {4}{\ignorespaces \IeC {\CYRM }\IeC {\cyra }\IeC {\cyrr }\IeC {\cyrk }\IeC {\cyro }\IeC {\cyrv }\IeC {\cyrs }\IeC {\cyrk }\IeC {\cyri }\IeC {\cyrishrt } \IeC {\cyrg }\IeC {\cyrr }\IeC {\cyra }\IeC {\cyrf } \IeC {\cyrd }\IeC {\cyrl }\IeC {\cyrya } \IeC {\cyrd }\IeC {\cyrv }\IeC {\cyru }\IeC {\cyrh } \IeC {\cyrr }\IeC {\cyre }\IeC {\cyrm }\IeC {\cyro }\IeC {\cyrn }\IeC {\cyrt }\IeC {\cyrn }\IeC {\cyri }\IeC {\cyrk }\IeC {\cyro }\IeC {\cyrv }}}{6}}
\@writefile{lof}{\contentsline {figure}{\numberline {5}{\ignorespaces \IeC {\CYRM }\IeC {\cyra }\IeC {\cyrr }\IeC {\cyrk }\IeC {\cyro }\IeC {\cyrv }\IeC {\cyrs }\IeC {\cyrk }\IeC {\cyri }\IeC {\cyrishrt } \IeC {\cyrg }\IeC {\cyrr }\IeC {\cyra }\IeC {\cyrf } \IeC {\cyrd }\IeC {\cyrl }\IeC {\cyrya } \IeC {\cyrt }\IeC {\cyrr }\IeC {\cyre }\IeC {\cyrh } \IeC {\cyrr }\IeC {\cyre }\IeC {\cyrm }\IeC {\cyro }\IeC {\cyrn }\IeC {\cyrt }\IeC {\cyrn }\IeC {\cyri }\IeC {\cyrk }\IeC {\cyro }\IeC {\cyrv }}}{7}}
\@writefile{toc}{\contentsline {paragraph}{\IeC {\CYRO }\IeC {\cyrp }\IeC {\cyrt }\IeC {\cyri }\IeC {\cyrm }\IeC {\cyra }\IeC {\cyrl }\IeC {\cyrsftsn }\IeC {\cyrn }\IeC {\cyro }\IeC {\cyre } \IeC {\cyrk }\IeC {\cyro }\IeC {\cyrl }\IeC {\cyri }\IeC {\cyrch }\IeC {\cyre }\IeC {\cyrs }\IeC {\cyrt }\IeC {\cyrv }\IeC {\cyro } \IeC {\cyrz }\IeC {\cyra }\IeC {\cyrp }\IeC {\cyra }\IeC {\cyrs }\IeC {\cyrn }\IeC {\cyrery }\IeC {\cyrh } \IeC {\cyru }\IeC {\cyrz }\IeC {\cyrl }\IeC {\cyro }\IeC {\cyrv }}{7}}
\@writefile{lot}{\contentsline {table}{\numberline {1}{\ignorespaces \IeC {\CYRT }\IeC {\cyra }\IeC {\cyrb }\IeC {\cyrl }\IeC {\cyri }\IeC {\cyrc }\IeC {\cyra } 1: \IeC {\CYRR }\IeC {\cyra }\IeC {\cyrs }\IeC {\cyrh }\IeC {\cyro }\IeC {\cyrd }\IeC {\cyrery } \IeC {\cyrp }\IeC {\cyrr }\IeC {\cyri } \IeC {\cyrr }\IeC {\cyra }\IeC {\cyrz }\IeC {\cyrl }\IeC {\cyri }\IeC {\cyrch }\IeC {\cyrn }\IeC {\cyro }\IeC {\cyrm } \IeC {\cyrk }\IeC {\cyro }\IeC {\cyrl }-\IeC {\cyrv }\IeC {\cyre } \IeC {\cyrz }\IeC {\cyra }\IeC {\cyrp }\IeC {\cyra }\IeC {\cyrs }\IeC {\cyrn }\IeC {\cyrery }\IeC {\cyrh } \IeC {\cyru }\IeC {\cyrz }\IeC {\cyrl }\IeC {\cyro }\IeC {\cyrv }}}{8}}
\ttl@finishall
