-----BEGIN PGP MESSAGE-----
Version: PGP 8.0.2

qANQR1DBwEwD0lCL6bhyeWMBCACCpPPlo0zoxkK/QOQrWWjvyqAracxfmkH8mv1z
ZAEbGxNnF4QJ/jrmo6CMQHPrYIrrd4GYR7kRX/1N+Ls+ki6Pxa2yLrU5sBz3pI+7
u+jAk4nFqdbUAy/1+Ag8BWDAOY1tKG/MWQ51GNooeLy57quAwOd8Vvhc9YNZeQRp
HXeSAc/IrWkE/TgGm1VOQIJx2/6WCi1OiFnBgTtqy30Ysk3FIfj/e+lqjcZbbTac
hbsmsrsFb3bKcaJX+oh+iayVMnuLnDzjny0bsPMp5rITI32tTKKDnb8dlYshn+7f
KrrxcxqAla6ThlRqJhPSy7c4db+jeJhO9pmW5Fie/jdTmaeW0ogBbHsFn+CZXRRi
Umouo/KHcXvWawDZB1TtQmyJV+1qEv65as3AjMa/J/GhvQwML0oy9T48jXJK0dd6
ZWAPipRW/S3GTzLCt0lHzo7d+tW5UrcrK+/loYjbSLbEV8OtAqRbhx0OzMrTJcbe
Ym90co0yM/Kamf09tEJinIS+56X3F2M8CIn20o1k
=3BPK
-----END PGP MESSAGE-----
