:100000007900D297780090F000E8F012001920975C
:100010000512002280EA0880ED7B017CFFDCFEDB1C
:10002000FA2202003901020408163264285612002E
:100030000000000000000102057A007E007F00E859
:1000400030E018EA900025932ED4FE30D705EF2437
:1000500001D4FFEA90002F932FD4FFE813F80ABAD7
:1000600008DDE930E018EA900025932ED4FE30D761
:1000700005EF2401D4FFEA90002F932FD4FFE9135A
:10008000F90ABA0ADDEE90B000F0EF90A000F0227D
:00000001FF
