\relax 
\@writefile{toc}{\contentsline {subsection}{\numberline {6.1}\IeC {\CYRZ }\IeC {\cyra }\IeC {\cyrd }\IeC {\cyra }\IeC {\cyrn }\IeC {\cyri }\IeC {\cyre }}{35}}
\@writefile{toc}{\contentsline {paragraph}{\IeC {\CYRV }\IeC {\cyra }\IeC {\cyrr }\IeC {\cyri }\IeC {\cyra }\IeC {\cyrn }\IeC {\cyrt }}{35}}
\@writefile{toc}{\contentsline {subsection}{\numberline {6.2}\IeC {\CYRP }\IeC {\CYRR } \IeC {\cyrp }\IeC {\cyro } \IeC {\cyrg }\IeC {\cyrr }\IeC {\cyra }\IeC {\cyrf }\IeC {\cyri }\IeC {\cyrk }\IeC {\cyru } \IeC {\cyri }\IeC {\cyrl }\IeC {\cyri } \IeC {\cyrp }\IeC {\cyrr }\IeC {\cyri } \IeC {\cyro }\IeC {\cyrt }\IeC {\cyrk }\IeC {\cyra }\IeC {\cyrz }\IeC {\cyre } \IeC {\CYRK }\IeC {\CYRS }}{35}}
\@writefile{lof}{\contentsline {figure}{\numberline {17}{\ignorespaces C\IeC {\cyrt }\IeC {\cyro }\IeC {\cyri }\IeC {\cyrm }\IeC {\cyro }\IeC {\cyrs }\IeC {\cyrt }\IeC {\cyrsftsn } S(T)}}{36}}
\@writefile{toc}{\contentsline {subsection}{\numberline {6.3}\IeC {\CYRP }\IeC {\CYRR } \IeC {\cyrp }\IeC {\cyrr }\IeC {\cyri } \IeC {\cyro }\IeC {\cyrt }\IeC {\cyrk }\IeC {\cyra }\IeC {\cyrz }\IeC {\cyre } i CPU}{36}}
\@setckpt{./Lab6/Lab6}{
\setcounter{page}{37}
\setcounter{equation}{0}
\setcounter{enumi}{2}
\setcounter{enumii}{0}
\setcounter{enumiii}{0}
\setcounter{enumiv}{0}
\setcounter{footnote}{0}
\setcounter{mpfootnote}{0}
\setcounter{part}{0}
\setcounter{section}{6}
\setcounter{subsection}{3}
\setcounter{subsubsection}{0}
\setcounter{paragraph}{0}
\setcounter{subparagraph}{0}
\setcounter{figure}{17}
\setcounter{table}{8}
\setcounter{parentequation}{0}
\setcounter{lstnumber}{1}
\setcounter{float@type}{8}
\setcounter{lstlisting}{0}
}
