:10000000FFFF00EE06F02C0EF66E060EF76E10EEF9
:1000100012F01CEC00F000EE00F010EE06F015EC13
:1000200000F0000EF86EE7EF13F0EE6AE550E150D5
:10003000FCE1E250FAE112000900F5CFEEFFE550D5
:0A004000E150FAE1E250F8E112008D
:1006000000BCBE4C97184B24744950C347401C464D
:10061000007A4400C84200204100803FCDCC3DD745
:10062000233C12833AB7D138000000003738392F05
:100630003435362A3132332D2E303D2B0010FFFF5A
:10064000010101011B511A11D8B401D001D00AD007
:100650001AC1E9FF1BC1EAFF010118C1EEFF010148
:1006600019C1EDFF04D001010101184B192B18C16C
:10067000E9FF19C1EAFFEF50010101011C6F0101FF
:100680001C5101010101246F2CEC13F0D8B001D0F2
:1006900001D0E9D70101236F000E010101011D6F97
:1006A00001012351010101011C512D0AD8A401D0DF
:1006B00001D00DD00101236F010E010101011D6F59
:1006C0000101235101010101184B192B0CD001012B
:1006D00001011C512B0AD8A401D001D004D0010182
:1006E0000101184B192B0101236F000E01010101BB
:1006F0001C6F01012351000E010101011F6F000E4B
:100700000101206F000E0101216F000E0101226F17
:100710000101236F000E010101011E6F0101235130
:10072000010101011DB901D001D011D02E0E18C157
:10073000E9FF19C1EAFFEF6201D001D008D0010141
:1007400001011D8901010101184B192B62D018C14B
:10075000E9FF19C1EAFFEF5001010101246F92EC9A
:1007600013F0D8B001D001D001D054D00101010163
:100770001D83010101011C51080AD8B401D001D028
:100780003BD0010101011DA901D001D003D001011D
:1007900001011E07010101011C2B0A0E01010101CB
:1007A000266F000E0101276F000E0101286F000E59
:1007B0000101296F01011F0E01010101246F0101D7
:1007C000010E0101256F2EEC12F018C1E9FF19C1CD
:1007D000EAFFEF500101236FD00E01012327010131
:1007E0002351010101011F27000E010120230101F6
:1007F00021230101222309D0010101011DB901D0EA
:1008000001D003D0010101011E2B01010101184B90
:10081000192B86D70101236F000E010101011C6F06
:100820000101235118C1E9FF19C1EAFFEF50650A20
:10083000D8B401D001D009D0450E18C1E9FF19C1C3
:10084000EAFFEF6201D001D099D02D0E0101010124
:10085000184B192B18C1E9FF19C1EAFFEF6201D04B
:1008600001D008D0010101011D8701010101184BD0
:10087000192B0DD02B0E18C1E9FF19C1EAFFEF6249
:1008800001D001D004D001010101184B192B04D073
:1008900001010101184B192B18C1E9FF19C1EAFF29
:1008A000EF50300AD8B401D001D0F2D718C1E9FF17
:1008B00019C1EAFFEF5001010101246F92EC13F01E
:1008C000D8A001D001D051D018C1E9FF19C1EAFF69
:1008D000EF50D00F010101011C6F01010101184B04
:1008E000192B18C1E9FF19C1EAFFEF5001010101FD
:1008F000246F92EC13F0D8A001D001D036D018C1EB
:10090000E9FF19C1EAFFEF500101236F0101010165
:100910001C510A0DF35001012325D00F01010101E3
:100920001C6F01010101184B192B18C1E9FF19C1F6
:10093000EAFFEF5001010101246F92EC13F0D8A0FF
:1009400001D001D012D018C1E9FF19C1EAFFEF5060
:100950000101236F010101011C510A0DF350010136
:100960002325D00F010101011C6F010101011DA709
:1009700001D001D003D0010101011C6D0101010171
:100980001C51010101011E27010101011B511A1116
:10099000D8B401D001D010D0010101011DA301D0B4
:1009A00001D00AD01AC1E9FF1BC1EAFF010118C139
:1009B000EEFF010119C1EDFF1FC124F120C125F196
:1009C00021C126F122C127F10DEC0EF024C11FF147
:1009D00025C120F126C121F1010101011F510101B1
:1009E000201101012111D8A401D001D00DD0000E99
:1009F00001010101186F000E01010101196F000EC4
:100A0000010101011A6F28D1010101011EAF01D0BE
:100A100001D082D0010101011E6D1BD0030E010126
:100A20000101266F150E01010101276F500E010112
:100A30000101286F01011F0E01010101246F010155
:100A4000010E0101256F5EEC12F0F60E01010101AD
:100A50001E27010101011E51800A760FD8B001D076
:100A600001D0DCD71AD0000E01010101266F200E43
:100A700001010101276F410E01010101286F0101F0
:100A80001F0E01010101246F0101010E0101256FFB
:100A90005EEC12F0010101011E07010101011E6758
:100AA00001D001D0E0D7000E01010101396F800EA5
:100AB000010101013A6F000E010101013B6F1FC1ED
:100AC00036F120C137F121C138F1F7EC0FF0D8B081
:100AD00001D001D020D0010101011DA101D001D020
:100AE0000DD0000E01010101186F800E01010101FE
:100AF000196F800E010101011A6FAED0000E0101C5
:100B00000101186F800E01010101196F000E010132
:100B100001011A6FA1D085D0010101011E51800A87
:100B20007F0FD8A001D001D07CD01BD0030E0101D3
:100B30000101266F150E01010101276F500E010101
:100B40000101286F01011F0E01010101246F010144
:100B5000010E0101256F82EC12F0F60E0101010178
:100B60001E270A0E010101011E6101D001D0DED74E
:100B70001AD0000E01010101266F200E01010101B2
:100B8000276F410E01010101286F01011F0E0101B4
:100B90000101246F0101010E0101256F82EC12F0A9
:100BA000010101011E07010101011E6701D001D0F1
:100BB000E0D71FC139F120C13AF121C13BF1FF0E4D
:100BC00001010101366F7F0E01010101376F7F0EB8
:100BD00001010101386FF7EC0FF0D8B001D001D05E
:100BE00020D0010101011DA101D001D00DD0000EC6
:100BF00001010101186F800E01010101196F800EC2
:100C0000010101011A6F28D0000E01010101186FC6
:100C1000800E01010101196F000E010101011A6F1F
:100C20001BD0010101011DA101D001D00ED01FC1B7
:100C30003DF120C13EF121C13FF1EEEC12F03DC18A
:100C40001FF13EC120F13FC121F11FC118F120C1A8
:100C500019F121C11AF100D01200FFFFFFFF000EB1
:100C600001010101186F000E0101196F000E010151
:100C700001011A6F000E01011B6F000E010101013D
:100C80001E6F000E01011F6F010101011751800A43
:100C9000800F07E1000E0101165D03E1000E010166
:100CA000155DD8A001D001D011D00101260E01019F
:100CB00001011E25E96EEA6A0101010EEA22200EF9
:100CC000EF6E010101011E4B1F2B1ED00101260EEC
:100CD000010101011E25E96EEA6A0101010EEA2205
:100CE0002D0EEF6E010101011E4B1F2B15C13DF1B1
:100CF00016C13EF117C13FF1EEEC12F03DC115F106
:100D00003EC116F13FC117F1010EF66E060EF76EE9
:100D10000900FFFFF5CF31F10900FFFFF5CF32F1F8
:100D20000900FFFFF5CF33F131C139F132C13AF19A
:100D300033C13BF115C136F116C137F117C138F196
:100D4000F7EC0FF0D8A001D001D011D00101260E90
:100D5000010101011E25E96EEA6A0101010EEA2284
:100D6000450EEF6E010101011E4B1F2B51D1ECD03E
:100D700023C139F124C13AF125C13BF115C136F146
:100D800016C137F117C138F144EC0DF036C141F10D
:100D900037C142F138C143F1CD0E01010101446F69
:100DA0004C0E01010101456F3D0E01010101466F2D
:100DB00021EC08F041C136F142C137F143C138F1AD
:100DC000B2EC0EF036C11CF137C11DF123C139F16F
:100DD00024C13AF125C13BF1520E01010101366FE8
:100DE000B80E01010101376F3D0E01010101386F9D
:100DF000F7EC0FF0D8B001D001D028D0480E010197
:100E00000101396FE10E010101013A6F3D0E01014F
:100E100001013B6F23C136F124C137F125C138F1FF
:100E2000F7EC0FF0D8B001D001D010D00101260EA0
:100E3000010101011E25E96EEA6A0101010EEA22A3
:100E40002E0EEF6E010101011E4B1F2B010101014E
:100E50001D511C11D8A401D001D018D0000E0101E1
:100E60000101396F200E010101013A6F410E0101AC
:100E700001013B6F23C136F124C137F125C138F19F
:100E8000F7EC0FF0D8B001D001D01BD00101260E35
:100E9000010101011E25E96EEA6A0101010EEA2243
:100EA000010101011C51300FEF6E010101011E4BC8
:100EB0001F2B010E010101011A6F000E01011B6FB2
:100EC00018D0010101011B511A11D8B401D001D071
:100ED00010D00101260E010101011E25E96EEA6A0A
:100EE0000101010EEA22300EEF6E010101011E4BDD
:100EF0001F2B1CC136F11DC137F169EC10F036C152
:100F000036F137C137F138C138F123C139F124C185
:100F10003AF125C13BF197EC0BF036C120F137C116
:100F200021F138C122F120C138F121C139F122C1AA
:100F30003AF10101150E01010101366F0101010EA7
:100F40000101376FA6EC12F0010101011F51800A67
:100F5000800F0A0ED8B41E5DD8B001D001D058D091
:100F6000000E01010101396F800E010101013A6F8C
:100F70003F0E010101013B6F010101011851010107
:100F8000316F0101010119510101326F0101184B4B
:100F9000192B01013151030D010EF324F66EF76A8E
:100FA000060EF7220900FFFFF5CF33F10900FFFF1E
:100FB000F5CF34F10900FFFFF5CF35F133C123F14F
:100FC00034C124F135C125F123C136F124C137F1F3
:100FD00025C138F1F7EC0FF0D8B001D001D0C8D658
:100FE00015C139F116C13AF117C13BF1B70E010134
:100FF0000101366FD10E01010101376F380E010179
:101000000101386FF7EC0FF0D8A001D001D0B0D6B5
:101010000101260E010101011E25E96EEA6A0101A6
:10102000010EEA22000EEF6E0101260E0101010100
:10103000366F0101010E0101376F7AEC11F01200D9
:10104000FFFFFFFF00D001014B0E010101014F6FB7
:101050000101010E0101506F0101410E0101010169
:101060004D6F0101010E01014E6FCFEC10F0010137
:101070000101496F010101014B6701D001D007D087
:1010800044C141F145C142F146C143F177D101016B
:101090004A0E010101014F6F0101010E0101506F64
:1010A0000101440E010101014D6F0101010E010119
:1010B0004E6FCFEC10F001010101476F01010101FA
:1010C0004A51D8B401D001D032D101014C6F060E83
:1010D00001010101486F01014C51010101014A5117
:1010E000010101014B6101D001D04FD0010101018B
:1010F0004B51010101014A5D01014C6F190E0101C3
:101100004C5DD8A001D001D011D0000E0101010129
:10111000416F000E01010101426F000E010101014A
:10112000436F4AC14BF147C149F12ED00101D8901C
:101130000101443701014537010146370101010131
:101140004A07010101014A51010101014B19D8B4BB
:1011500001D001D004D001010101482FE7D70BD005
:101160000101D890010143330101423301014133B0
:10117000010101014B2B010101014A510101010152
:101180004B6301D001D0ECD754D0010101014B5188
:10119000010101014A19D8B401D001D04AD001019E
:1011A00001014A51010101014B5D01014C6F190E12
:1011B00001014C5DD8A001D001D00DD0000E01017D
:1011C0000101446F000E01010101456F000E010194
:1011D0000101466F2ED00101D89001014137010174
:1011E000423701014337010101014B0701010101B0
:1011F0004A51010101014B19D8B401D001D004D0EA
:1012000001010101482FE7D70BD00101D89001015E
:1012100046330101453301014433010101014A2BE9
:10122000010101014A51010101014B6301D001D0CB
:10123000ECD7010101014951D8B401D001D018D037
:10124000FF0E01010101411BFF0E01010101421BC3
:10125000FF0E01010101431B010E010101014127A4
:10126000000E010101014223000E0101010143238F
:10127000010101014751D8B401D001D018D0FF0EAF
:1012800001010101441BFF0E01010101451BFF0E7D
:1012900001010101461B010E010101014427000E5D
:1012A000010101014523000E010101014623010155
:1012B0004C6F000E01010101496F01014C51010108
:1012C0000101445101010101412701010101455181
:1012D0000101010142230101010146510101010106
:1012E00043230101010143AF01D001D020D0FF0E03
:1012F00001010101411BFF0E01010101421BFF0E13
:1013000001010101431B010E010101014127000EF2
:10131000010101014223000E0101010143230101EA
:101320004C6F010E01010101496F01014C514BC18C
:101330004FF10101410E010101014D6F0101010E4B
:1013400001014E6F56EC0FF0010101014951D8B473
:1013500001D001D00CD0000E01010101411B000E93
:1013600001010101421B800E01010101431B41C12A
:1013700041F142C142F143C143F100D01200FFFFED
:10138000FFFF000E036E000E046E000E056E000ED1
:1013900001010101156F000E01010101166F000E20
:1013A00001010101176F2EEC06F00101116F000E13
:1013B00001010101016F01011151A7EC13F00101BD
:1013C0000101006F00C115F10FEC13F00009D8B452
:1013D00001D001D030D0010101010151080AD8B477
:1013E00001D001D027D00101050E01010101012525
:1013F000E96EEA6A0101010EEA22010100C1EFFF74
:1014000001010101012B0101050E0101010101256D
:10141000E96EEA6A0101010EEA22000EEF6E010197
:10142000050E01010101366F0101010E0101376F47
:101430007AEC11F095D0010101010151D8B401D02D
:1014400001D01DD00101050E01010101156F01013F
:10145000010E0101166F64EC13F015C102F116C103
:1014600003F117C104F102C136F103C137F104C120
:1014700038F1B2EC0EF036C101F037C102F00101D3
:10148000116F000E01010101016F010111515ED0C8
:10149000000E01010101196F010E01011A6F000E0A
:1014A00001011B6F000E01011C6F16C011F117C066
:1014B00012F1000E010112BFFF0E136F146F010134
:1014C0001151FF0801010101156FFF0E01011255B5
:1014D0000101166F000E010113550101176F000E77
:1014E000010114550101186FB3EC0AF0010101016B
:1014F0001551D76E1650FF0AD66ED59CD59AD59643
:10150000D580D582D5840B00FFFF0E00D58E08D084
:101510000101116F000E01010101106F0101115154
:10152000F2A401D001D0F4D7F2940106D8A00206AB
:1015300001C036F102C037F169EC10F036C115F187
:1015400037C116F138C117F12EEC06F00250800AAF
:10155000800F010ED8B4015CD8B001D001D098D76B
:101560002CD71200FFFFFFFF0101236F000E0101C6
:1015700001011E6F01012351010101011CAF01D0C6
:1015800001D018D0010101011C1F01011B1F010125
:101590001A1F0101196D000E01011A2301011B23FD
:1015A00001011C230101236F010E010101011E6FC6
:1015B000010123510101010118AF01D001D014D064
:1015C00001010101181F0101171F0101161F01016F
:1015D000156D000E010116230101172301011823C7
:1015E000010E010101011E1B000E010101011F6F0F
:1015F000000E0101206F000E0101216F000E01019C
:10160000226F01011C5119111A111B11D8B401D0FC
:1016100001D06BD00101236F010E010101011D6F8B
:10162000010123510DD00101D890010119370101A9
:101630001A3701011B3701011C37010101011D2B64
:10164000010101011CAF01D001D0EDD70101D890FB
:1016500001011F3701012037010121370101223724
:1016600001010101195101010101155D0101010192
:101670001A51010101011659010101011B5101011A
:1016800001011759010101011C5101010101185902
:10169000D8A001D001D01BD00101010119510101D5
:1016A0000101155F010101011A5101010101165BE0
:1016B000010101011B5101010101175B0101010140
:1016C0001C5101010101185B010101011F81010190
:1016D000D89001011C3301011B3301011A330101B0
:1016E0001933010101011D2FB1D7010101011E5163
:1016F000D8B401D001D010D001010101221F010195
:10170000211F0101201F01011F6D000E0101202377
:1017100001012123010122231FC115F120C116F16E
:1017200021C117F122C118F100D01200FFFFFFFF05
:10173000000E010101013F6F000E01010101406F28
:10174000000E01010101416F01013D0E0101010186
:101750004F6F0101010E0101506F0101360E0101B1
:1017600001014D6F0101010E01014E6FCFEC10F030
:10177000010101013C6F01013E0E010101014F6FAA
:101780000101010E0101506F0101390E010101013A
:101790004D6F0101010E01014E6FCFEC10F0010100
:1017A00001013C1B010101013E51D8B401D001D01F
:1017B00006D0010101013D6701D001D007D03FC132
:1017C00036F140C137F141C138F18DD0010101013D
:1017D0003E517B0F010101013D270101426F070EC0
:1017E000010101013E6F010142510101010136A1D8
:1017F00001D001D012D001010101395101010101D3
:101800003F27010101013A5101010101402301017A
:1018100001013B510101010141230101D890010166
:10182000383301013733010136330101D89001010A
:10183000393701013A3701013B37010101013E2FE0
:10184000D4D70101426F090E010101013E6F010170
:1018500042510101010136A101D001D012D0010194
:1018600001013951010101013F27010101013A51F3
:10187000010101014023010101013B51010101016D
:1018800041230101D89001013833010137330101AF
:1018900036330101D8900101413301014033010188
:1018A0003F33010101013E2FD4D73DC14FF101016A
:1018B0003F0E010101014D6F0101010E01014E6F4B
:1018C00056EC0FF0010101013C51D8B401D001D018
:1018D00003D001010101418F3FC136F140C137F111
:1018E00041C138F100D01200FFFFFFFF01011E6F60
:1018F000000E01010101186F01011E5101011E6F4F
:10190000060EC16E01011E5181689568000E936E2E
:1019100001011E6F000E010101011A6F01011E512C
:10192000010101011A51800A7C0FD8A001D001D019
:1019300001D0A3D01AC11EF1010E01011F6F0101D8
:101940001E2B03D0D89001011F3701011E2FFAD79B
:1019500001011F51FF0A816E000E010101011B6F81
:10196000000E01011C6F010101011C51800A800F52
:10197000640ED8B41B5DD8A001D001D001D010D026
:10198000010101011B4B1C2B010101011C51800AAB
:10199000800F640ED8B41B5DD8A001D001D0F0D761
:1019A00083CF17F101011E6F000E01010101196FB4
:1019B00001011E51010101011951800A7C0FD8A0BB
:1019C00001D001D001D04DD019C11EF1010E01018D
:1019D0001F6F206B01011E2B04D0D89001011F370F
:1019E000203701011E2FF9D7010101011751010113
:1019F0001F150101216FE86A0101010117BFE80607
:101A00000101226F01012051010122170101225120
:101A10002111D8A401D001D018D0010101011A511F
:101A2000040DF350010101011925010101011D6F90
:101A3000060E010101011D25E96EEA6A000EEA2287
:101A4000EF5001010101186F18D001010101192B9C
:101A5000010101011951800A7C0FD8A001D001D0E9
:101A6000B3D7010101011A2B010101011A51800AAA
:101A70007C0FD8A001D001D05DD79368010101018E
:101A8000185100D01200FFFFFFFF000E01010101FD
:101A9000406F000E01010101416F000E01010101C3
:101AA000426F01013E0E010101014F6F0101010E64
:101AB0000101506F0101360E010101014D6F01015D
:101AC000010E01014E6FCFEC10F0010101013D6FDD
:101AD000010101013E6701D001D007D040C136F1BC
:101AE00041C137F142C138F196D001013C0E0101EC
:101AF00001014F6F0101010E0101506F0101390E0B
:101B0000010101014D6F0101010E01014E6FCFEC8A
:101B100010F0010101013F6F010101013C6701D09B
:101B200001D007D040C136F141C137F142C138F18F
:101B300072D0010101013C51890F010101013E5F99
:101B4000010101013F51010101013D1B0101436FF1
:101B5000180E010101013F6F010143510101D890AD
:101B60000101403701014137010142370101010103
:101B7000395101010101365D010101013A510101B3
:101B800001013759010101013B510101010138599E
:101B9000D8A001D001D015D00101010139510101B6
:101BA0000101365F010101013A5101010101375B79
:101BB000010101013B5101010101385B01010101FA
:101BC00040810101D8900101363701013737010109
:101BD0003837010101013F2FC1D73EC14FF101014B
:101BE000400E010101014D6F0101010E01014E6F17
:101BF00056EC0FF0010101013D51D8B401D001D0E4
:101C000003D001010101428F40C136F141C137F1DA
:101C100042C138F100D01200FFFFFFFF0101275140
:101C2000241125112611D8A401D001D00DD0000E09
:101C300001010101246F000E01010101256F000E59
:101C400001010101266F8CD001012D6F000E0101F1
:101C50000101286F01012D510101010127AF01D0C0
:101C600001D018D001010101271F0101261F010128
:101C7000251F0101246D000E0101252301012623EA
:101C80000101272301012D6F010E01010101286FC0
:101C900001012D5101012D6F8E0E01010101296FEE
:101CA00001012D510DD00101D8900101273301010F
:101CB0002633010125330101243301010101292BC0
:101CC000000E01010101241501012D6F000E01011B
:101CD0000101251501012E6F000E010101012615DC
:101CE00001012F6FFF0E0101010127150101306F66
:101CF000010130512D112E112F11D8A401D001D086
:101D0000D2D724C12AF125C12BF126C12CF129C13A
:101D10004FF101012A0E010101014D6F0101010E78
:101D200001014E6F56EC0FF0010101012851D8B4AA
:101D300001D001D00ED02AC13DF12BC13EF12CC102
:101D40003FF1EEEC12F03DC12AF13EC12BF13FC153
:101D50002CF12AC124F12BC125F12CC126F100D090
:101D60001200FFFFFFFF01013B0E010101014F6F58
:101D70000101010E0101506F0101360E0101010147
:101D80004D6F0101010E01014E6FCFEC10F001010A
:101D900001013A6F010101013651010101013C6F5E
:101DA00001010101375101013D6F0101385101016C
:101DB0003E6F01013F6B8E0E010101013B5F01018E
:101DC00001013BAF01D001D026D0010101013B51FF
:101DD000800A8F0FD8B001D001D00ED0000E0101C3
:101DE0000101366F000E0101376F000E0101386FDF
:101DF000000E0101396F58D00101D89001013F3325
:101E000001013E3301013D3301013C330101010178
:101E10003B3FF2D729D01F0E010101013B6501D0E4
:101E200001D00ED0000E01010101366F000E01013C
:101E3000376F000E0101386F000E0101396F34D089
:101E40000DD00101D89001013C3701013D3701015E
:101E50003E3701013F37010101013B07010101014B
:101E60003B6701D001D0EDD7010101013A51D8B44F
:101E700001D001D010D0010101013F1F01013E1F1F
:101E800001013D1F01013C6D000E01013D230101D7
:101E90003E2301013F233CC136F13DC137F13EC134
:101EA00038F13FC139F100D01200FFFFFFFF0101FF
:101EB00001014F51D8B401D001D00BD04DC1E9FF81
:101EC0004EC1EAFFEE50EE10ED10D8A401D001D0C3
:101ED0000CD04DC1E9FF4EC1EAFF000EEE6E000EC0
:101EE000EE6E000EED6EED5280D00DD001010101BD
:101EF0004F2B4DC1E9FF4EC1EAFFEC52EC52D89096
:101F0000ED32ED32EF324DC1E9FF4EC1EAFFEE5244
:101F1000EE52FE0EED14D8A401D001D0E7D716D0B2
:101F2000010101014F2B4DC1E9FF4EC1EAFFEE2A2D
:101F3000000EEE22ED22ED524DC1E9FF4EC1EAFF47
:101F4000EC52EC52D890ED32ED32EF324DC1E9FF58
:101F50004EC1EAFFEE52EE52FF0EED14D8A401D0AE
:101F600001D0DED70CD0010101014F074DC1E9FFBF
:101F70004EC1EAFFD890EE36EE36ED36ED524DC149
:101F8000E9FF4EC1EAFFEECF50F1EECF51F1EECFB7
:101F900052F1010151AF01D001D0E5D7010101019A
:101FA0004FB101D001D00BD04DC1E9FF4EC1EAFFC6
:101FB000FF0EEE167F0EEE16FF0EED16ED5201012E
:101FC000D8904F33010101014F510101526F516B04
:101FD000506B4DC1E9FF4EC1EAFF01015051EE12B5
:101FE0005151EE125251ED12ED521200FFFFFFFF60
:101FF0000101010138AF01D001D01CD0000E3C6FAF
:10200000000E3D6F800E3E6F01010101365101014E
:102010003C5D01010101366F0101010137510101F0
:102020003D590101376F01010101385101013E594C
:102030000101386F010101013BAF01D001D01CD07B
:10204000000E3C6F000E3D6F800E3E6F01010101DE
:10205000395101013C5D01010101396F01010101AB
:102060003A5101013D5901013A6F010101013B5112
:1020700001013E5901013B6F000E01010101361BB8
:10208000000E01010101371B800E01010101381B07
:10209000000E01010101391B000E010101013A1B73
:1020A000800E010101013B1B0101010139510101B8
:1020B0000101365D010101013A5101010101375968
:1020C000010101013B5101010101385900D0120009
:1020D000FFFFFFFF0101010137513611D8A401D0E4
:1020E00001D00DD0000E01010101366F000E01017B
:1020F0000101376F000E01010101386F4ED001015F
:10210000010136C139F10101010137C13AF1010183
:1021100001013B6B01013ABF3B070101010137AFF0
:1021200001D001D00CD0010101013B1F01013A1F78
:102130000101396D000E01013A2301013B23010128
:102140003C6F8E0E010101014F6F01013C510101F5
:10215000390E010101014D6F0101010E01014E6FA8
:1021600056EC0FF00101010137AF01D001D00ED0C4
:1021700039C13DF13AC13EF13BC13FF1EEEC12F005
:102180003DC139F13EC13AF13FC13BF139C136F1B0
:102190003AC137F13BC138F100D01200FFFFFFFF19
:1021A0004DC1E9FF4EC1EAFF010EEB34020EEB34E4
:1021B00001010101516F4FC1E9FF50C1EAFF010167
:1021C00051C1EFFF01010101516701D001D00DD0D4
:1021D0004DC1E9FF4EC1EAFF000EEE6E000EEE6E3D
:1021E000000EED6EED52000E2FD00101526F000E69
:1021F00001010101516F010152514DC1E9FF4EC171
:10220000EAFF010EEB8E4DC1E9FF4EC1EAFFEECFB2
:1022100052F1EECF53F1EECF54F1010154AF01D0A2
:1022200001D003D001010101512B4DC1E9FF4EC185
:10223000EAFFFF0EEE16FF0EEE16000EED16ED5243
:1022400001010101515100D01200FFFFFFFF000EFC
:1022500001010101326F000E0101336F000E010117
:10226000346F000E0101356F010101012AA101D077
:1022700001D018D0010101012E51010101013227C5
:10228000010101012F51010101013323010101016C
:1022900030510101010134230101010131510101DA
:1022A000010135230101D89001012E3701012F379B
:1022B00001013037010131370101D89001012D337F
:1022C00001012C3301012B3301012A3301012D516E
:1022D0002A112B112C11D8A401D001D0C5D732C19D
:1022E0002AF133C12BF134C12CF135C12DF100D0CD
:1022F0001200FFFFFFFF7BEC13F00101396F000EAE
:1023000001010101386F010139511FD001010101A3
:1023100038510101010136250101396FE86A0101D7
:10232000010138BFE86801010101372101013A6F5D
:1023300039C1E9FF3AC1EAFFEF50010101013B6FEA
:10234000D9EC13F001010101382B010101013851D1
:102350000101010136250101396FE86A010101011E
:1023600038BFE86801010101372101013A6F39C125
:10237000E9FF3AC1EAFFEF50D8A401D001D0C6D797
:102380001200FFFFFFFF000E926E92CF80FF816868
:1023900093680101006F070EC16E01010051010138
:1023A000006F300E010101013C6F01010051CBECC7
:1023B00013F00101006F0C0E010101013C6F0101DE
:1023C0000051CBEC13F00101006F070E0101010178
:1023D0003C6F01010051CBEC13F00101006F8F0E37
:1023E000010101013C6F01010051CBEC13F012001F
:1023F000FFFFFFFF000E010101013A6F000E010116
:102400003B6F0101010136A101D001D00CD00101C7
:1024100001013851010101013A270101010139513E
:10242000010101013B230101D8900101383701016D
:1024300039370101D89001013733010136330101E9
:10244000010137513611D8A401D001D0DAD73AC1F1
:1024500036F13BC137F100D01200FFFFFFFF26C16C
:102460002EF127C12FF128C130F129C131F124C14A
:10247000E9FF25C1EAFF0101EECF2AF10101EECF0C
:102480002BF10101EECF2CF10101EECF2DF126EC65
:1024900011F024C1E9FF25C1EAFF01012AC1EEFFC5
:1024A00001012BC1EEFF01012CC1EEFF01012DC185
:1024B000EDFFED52ED5200D01200FFFFFFFF26C1ED
:1024C00039F127C13AF128C13BF124C1E9FF25C107
:1024D000EAFF0101EECF36F10101EECF37F1010144
:1024E000EDCF38F144EC0DF024C1E9FF25C1EAFF3E
:1024F00036C1EEFF37C1EEFF38C1EDFFED5200D01F
:102500001200FFFFFFFF26C139F127C13AF128C1B0
:102510003BF124C1E9FF25C1EAFF0101EECF36F10D
:102520000101EECF37F10101EDCF38F197EC0BF05F
:1025300024C1E9FF25C1EAFF36C1EEFF37C1EEFF36
:1025400038C1EDFFED5200D01200FFFFFFFF38C190
:102550003EF139C13FF13AC140F136C1E9FF37C11F
:10256000EAFF0101EECF3BF10101EECF3CF10101A9
:10257000EDCF3DF1CAEC12F036C1E9FF37C1EAFFF9
:102580003BC1EEFF3CC1EEFF3DC1EDFFED5200D07F
:102590001200FFFFFFFF000E010101013E1B000EB4
:1025A000010101013F1B800E01010101401B3EC1E1
:1025B00044F13FC145F140C146F13BC141F13CC14D
:1025C00042F13DC143F121EC08F041C13BF142C170
:1025D0003CF143C13DF100D01200FFFFFFFF0101BC
:1025E00001013D5101013E1101013F11D8B401D05B
:1025F00001D00CD0000E010101013D1B000E0101B4
:1026000001013E1B800E010101013F1B3DC13DF157
:102610003EC13EF13FC13FF100D01200FFFFFFFF7E
:102620000101010115512E0AD8B401D001D00ED0FC
:102630002F0E01010101156501D001D009D03A0E1C
:1026400001010101156101D001D002D0010E02D0BB
:10265000000E00D01200FFFFFFFF01010101245115
:10266000200AD8B401D001D010D00E0E0101010112
:10267000246101D001D007D0090E010101012461BC
:1026800001D001D002D0D89001D0D88000D0120063
:10269000FFFFFFFF75EC0CF001010101166F010156
:1026A00001011651D8B401D001D008D000D075EC8A
:1026B0000CF00009D8A401D001D0F9D70101010123
:1026C000165100D01200FFFFFFFF000E01010101B3
:1026D0001A6F000E01011B6F15C118F116C119F117
:1026E0001FEC03F018C115F119C116F11AC117F149
:1026F00000D01200FFFFFFFF01013B6F010E01013F
:1027000001013C6F01013B51CBEC13F001013B6F28
:102710008F0E010101013C6F01013B51CBEC13F025
:102720001200FFFFFFFF3A0E01010101246101D0F9
:1027300001D009D02F0E01010101246501D001D083
:1027400002D0D88001D0D89000D01200FFFFFFFF48
:1027500000D049EC13F001010101156F0101155181
:10276000D8B401D001D0F5D701010101155100D035
:102770001200FFFFFFFF9368020E806E808400F05E
:1027800081CF3DF18094010101013DBF01D001D015
:10279000F5D71200FFFFFFFF000E936E3CC181FFD3
:1027A000000E806E808400F08094BAEC13F012006A
:1027B000FFFFFFFF000E936E3BC181FF010E806E95
:1027C000808400F08094BAEC13F01200FFFFFFFF4A
:0C27D000C2EC11F0C0EC09F000EF00F0CA
:00000001FF
