     1: /*********************************************************************
     2: **********************************************************************
     3: *****                                                             ****
     4: *****         L A B C E N T E R    E L E C T R O N I C S          ****
     5: *****                                                             ****
     6: *****                    PIC 18F452 LCD Driver                    ****
     7: *****                                                             ****
     8: **********************************************************************
     9: *********************************************************************/
    10: 
    11: #include "CALC.H"
    12: #include "pic18.h"
    13: 
    14: VOID lcd_init ()
    15: // Initialise the LCD Display. 
    16:  { PORTA = TRISA = 0; 
    17:    TRISB = PORTB = 0xFF;
    18:    ADCON1 = 7;
    19:    wrcmd(0x30);                  // 8-bit mode - 1 line.
    20:    wrcmd(LCD_SETVISIBLE+0x04);   // Display only - no cursors.
    21:    wrcmd(LCD_SETMODE+0x03);      // Automatic Increment - Display shift left.
    22:    wrcmd(LCD_SETDDADDR+0x0F);    // Initial Position far right.
    23:  }
    24: 
    25: VOID clearscreen ()
    26: // Clear the LCD Screen and reset
    27: // initial position.
    28:  { wrcmd(LCD_CLS);
    29:    wrcmd(LCD_SETDDADDR+0x0F);
    30:  }
    31: 
    32: /***** Utility Functions *****/
    33: 
    34: VOID wrcmd (CHAR cmdcode)
    35: // Write a command to the LCD display.
    36:  { TRISB = 0;
    37:    PORTB = cmdcode;
    38: 
    39:    // Write to PORTB to latch data into the display.
    40:    // Toggle Pin 'E' to send the command.
    41:    PORTA  = LCD_CMD_WR;
    42:    PORTA |= E_PIN_MASK;
    43:    asm("NOP");
    44:    PORTA &= ~E_PIN_MASK;
    45:    
    46:    lcd_wait();
    47:  }
    48:      
    49: VOID wrdata (CHAR data)
    50: // Write a Character to the LCD Display. 
    51:  { TRISB = 0;
    52:    PORTB = data;
    53:    
    54:    PORTA = LCD_DATA_WR;
    55:    PORTA |= E_PIN_MASK;
    56:    asm("NOP");
    57:    PORTA &= ~E_PIN_MASK;
    58:    
    59:    lcd_wait();
    60:  }
    61: 
    62: VOID lcd_wait ()
    63: // Wait for the LCD busy flag to clear. 
    64:  { BYTE status;
    65:    TRISB = 0xFF;
    66:    
    67:    PORTA = LCD_BUSY_RD;
    68:    do
    69:     { PORTA |= E_PIN_MASK;
    70:       asm("NOP");
    71:       status = PORTB;
    72:       PORTA &= ~E_PIN_MASK;
    73:     } while (status & 0x80);
    74:  }
    75: 
    76: 
