\relax 
\catcode`"\active
\select@language{ukrainian}
\@writefile{toc}{\select@language{ukrainian}}
\@writefile{lof}{\select@language{ukrainian}}
\@writefile{lot}{\select@language{ukrainian}}
\@writefile{toc}{\contentsline {subsection}{\numberline {0.1}\IeC {\CYRS }\IeC {\cyrt }\IeC {\cyra }\IeC {\cyrt }\IeC {\cyri }\IeC {\cyrch }\IeC {\cyrn }\IeC {\cyra } \IeC {\cyrii }\IeC {\cyrn }\IeC {\cyrd }\IeC {\cyri }\IeC {\cyrk }\IeC {\cyra }\IeC {\cyrc }\IeC {\cyrii }\IeC {\cyrya }}{1}}
\newlabel{fig:static_contr}{{0.1}{1}}
\@writefile{lof}{\contentsline {figure}{\numberline {1}{\ignorespaces \IeC {\CYRR }\IeC {\cyre }\IeC {\cyrg }\IeC {\cyrii }\IeC {\cyrs }\IeC {\cyrt }\IeC {\cyrr } \IeC {\cyrk }\IeC {\cyro }\IeC {\cyrn }\IeC {\cyrt }\IeC {\cyrr }\IeC {\cyro }\IeC {\cyrl }\IeC {\cyrsftsn }\IeC {\cyrn }\IeC {\cyro }\IeC {\cyrg }\IeC {\cyro } \IeC {\cyrs }\IeC {\cyrl }\IeC {\cyro }\IeC {\cyrv }\IeC {\cyra } \IeC {\cyrs }\IeC {\cyrt }\IeC {\cyra }\IeC {\cyrt }\IeC {\cyri }\IeC {\cyrch }\IeC {\cyrn }\IeC {\cyro }\IeC {\cyrg }\IeC {\cyro } \IeC {\cyrii }\IeC {\cyrn }\IeC {\cyrd }\IeC {\cyri }\IeC {\cyrk }\IeC {\cyra }\IeC {\cyrt }\IeC {\cyro }\IeC {\cyrr }\IeC {\cyra }}}{1}}
