<?xml version="1.0" encoding="UTF-8" standalone="no"?>
<!-- Created with Inkscape (http://www.inkscape.org/) -->

<svg
   xmlns:dc="http://purl.org/dc/elements/1.1/"
   xmlns:cc="http://creativecommons.org/ns#"
   xmlns:rdf="http://www.w3.org/1999/02/22-rdf-syntax-ns#"
   xmlns:svg="http://www.w3.org/2000/svg"
   xmlns="http://www.w3.org/2000/svg"
   xmlns:sodipodi="http://sodipodi.sourceforge.net/DTD/sodipodi-0.dtd"
   xmlns:inkscape="http://www.inkscape.org/namespaces/inkscape"
   width="744.09448819"
   height="1052.3622047"
   id="svg2"
   version="1.1"
   inkscape:version="0.48.2 r9819"
   sodipodi:docname="Interaction2.svg">
  <defs
     id="defs4">
    <marker
       inkscape:stockid="Arrow1Lend"
       orient="auto"
       refY="0.0"
       refX="0.0"
       id="Arrow1Lend"
       style="overflow:visible;">
      <path
         id="path3781"
         d="M 0.0,0.0 L 5.0,-5.0 L -12.5,0.0 L 5.0,5.0 L 0.0,0.0 z "
         style="fill-rule:evenodd;stroke:#000000;stroke-width:1.0pt;marker-start:none;"
         transform="scale(0.8) rotate(180) translate(12.5,0)" />
    </marker>
    <marker
       inkscape:stockid="Arrow1Lend"
       orient="auto"
       refY="0"
       refX="0"
       id="Arrow1Lend-2"
       style="overflow:visible">
      <path
         inkscape:connector-curvature="0"
         id="path3781-1"
         d="M 0,0 5,-5 -12.5,0 5,5 0,0 z"
         style="fill-rule:evenodd;stroke:#000000;stroke-width:1pt;marker-start:none"
         transform="matrix(-0.8,0,0,-0.8,-10,0)" />
    </marker>
    <marker
       inkscape:stockid="Arrow1Lend"
       orient="auto"
       refY="0"
       refX="0"
       id="marker4791"
       style="overflow:visible">
      <path
         inkscape:connector-curvature="0"
         id="path4793"
         d="M 0,0 5,-5 -12.5,0 5,5 0,0 z"
         style="fill-rule:evenodd;stroke:#000000;stroke-width:1pt;marker-start:none"
         transform="matrix(-0.8,0,0,-0.8,-10,0)" />
    </marker>
    <marker
       inkscape:stockid="Arrow1Lend"
       orient="auto"
       refY="0"
       refX="0"
       id="Arrow1Lend-0"
       style="overflow:visible">
      <path
         inkscape:connector-curvature="0"
         id="path3781-7"
         d="M 0,0 5,-5 -12.5,0 5,5 0,0 z"
         style="fill-rule:evenodd;stroke:#000000;stroke-width:1pt;marker-start:none"
         transform="matrix(-0.8,0,0,-0.8,-10,0)" />
    </marker>
    <marker
       inkscape:stockid="Arrow1Lend"
       orient="auto"
       refY="0"
       refX="0"
       id="marker4830"
       style="overflow:visible">
      <path
         inkscape:connector-curvature="0"
         id="path4832"
         d="M 0,0 5,-5 -12.5,0 5,5 0,0 z"
         style="fill-rule:evenodd;stroke:#000000;stroke-width:1pt;marker-start:none"
         transform="matrix(-0.8,0,0,-0.8,-10,0)" />
    </marker>
    <marker
       inkscape:stockid="Arrow1Lend"
       orient="auto"
       refY="0"
       refX="0"
       id="Arrow1Lend-9"
       style="overflow:visible">
      <path
         inkscape:connector-curvature="0"
         id="path3781-4"
         d="M 0,0 5,-5 -12.5,0 5,5 0,0 z"
         style="fill-rule:evenodd;stroke:#000000;stroke-width:1pt;marker-start:none"
         transform="matrix(-0.8,0,0,-0.8,-10,0)" />
    </marker>
    <marker
       inkscape:stockid="Arrow1Lend"
       orient="auto"
       refY="0"
       refX="0"
       id="marker3173"
       style="overflow:visible">
      <path
         inkscape:connector-curvature="0"
         id="path3175"
         d="M 0,0 5,-5 -12.5,0 5,5 0,0 z"
         style="fill-rule:evenodd;stroke:#000000;stroke-width:1pt;marker-start:none"
         transform="matrix(-0.8,0,0,-0.8,-10,0)" />
    </marker>
    <marker
       inkscape:stockid="Arrow1Lend"
       orient="auto"
       refY="0"
       refX="0"
       id="marker3177"
       style="overflow:visible">
      <path
         inkscape:connector-curvature="0"
         id="path3179"
         d="M 0,0 5,-5 -12.5,0 5,5 0,0 z"
         style="fill-rule:evenodd;stroke:#000000;stroke-width:1pt;marker-start:none"
         transform="matrix(-0.8,0,0,-0.8,-10,0)" />
    </marker>
    <marker
       inkscape:stockid="Arrow1Lend"
       orient="auto"
       refY="0"
       refX="0"
       id="marker3181"
       style="overflow:visible">
      <path
         inkscape:connector-curvature="0"
         id="path3183"
         d="M 0,0 5,-5 -12.5,0 5,5 0,0 z"
         style="fill-rule:evenodd;stroke:#000000;stroke-width:1pt;marker-start:none"
         transform="matrix(-0.8,0,0,-0.8,-10,0)" />
    </marker>
    <marker
       inkscape:stockid="Arrow1Lend"
       orient="auto"
       refY="0"
       refX="0"
       id="marker3185"
       style="overflow:visible">
      <path
         inkscape:connector-curvature="0"
         id="path3187"
         d="M 0,0 5,-5 -12.5,0 5,5 0,0 z"
         style="fill-rule:evenodd;stroke:#000000;stroke-width:1pt;marker-start:none"
         transform="matrix(-0.8,0,0,-0.8,-10,0)" />
    </marker>
    <marker
       inkscape:stockid="Arrow1Lend"
       orient="auto"
       refY="0"
       refX="0"
       id="marker3189"
       style="overflow:visible">
      <path
         inkscape:connector-curvature="0"
         id="path3191"
         d="M 0,0 5,-5 -12.5,0 5,5 0,0 z"
         style="fill-rule:evenodd;stroke:#000000;stroke-width:1pt;marker-start:none"
         transform="matrix(-0.8,0,0,-0.8,-10,0)" />
    </marker>
    <marker
       inkscape:stockid="Arrow1Lend"
       orient="auto"
       refY="0"
       refX="0"
       id="marker3193"
       style="overflow:visible">
      <path
         inkscape:connector-curvature="0"
         id="path3195"
         d="M 0,0 5,-5 -12.5,0 5,5 0,0 z"
         style="fill-rule:evenodd;stroke:#000000;stroke-width:1pt;marker-start:none"
         transform="matrix(-0.8,0,0,-0.8,-10,0)" />
    </marker>
    <marker
       inkscape:stockid="Arrow1Lend"
       orient="auto"
       refY="0"
       refX="0"
       id="marker3197"
       style="overflow:visible">
      <path
         inkscape:connector-curvature="0"
         id="path3199"
         d="M 0,0 5,-5 -12.5,0 5,5 0,0 z"
         style="fill-rule:evenodd;stroke:#000000;stroke-width:1pt;marker-start:none"
         transform="matrix(-0.8,0,0,-0.8,-10,0)" />
    </marker>
  </defs>
  <sodipodi:namedview
     id="base"
     pagecolor="#ffffff"
     bordercolor="#666666"
     borderopacity="1.0"
     inkscape:pageopacity="0.0"
     inkscape:pageshadow="2"
     inkscape:zoom="0.9899495"
     inkscape:cx="519.56234"
     inkscape:cy="790.13156"
     inkscape:document-units="px"
     inkscape:current-layer="layer1"
     showgrid="false"
     inkscape:window-width="1440"
     inkscape:window-height="845"
     inkscape:window-x="-1"
     inkscape:window-y="26"
     inkscape:window-maximized="1" />
  <metadata
     id="metadata7">
    <rdf:RDF>
      <cc:Work
         rdf:about="">
        <dc:format>image/svg+xml</dc:format>
        <dc:type
           rdf:resource="http://purl.org/dc/dcmitype/StillImage" />
        <dc:title />
      </cc:Work>
    </rdf:RDF>
  </metadata>
  <g
     inkscape:label="Layer 1"
     inkscape:groupmode="layer"
     id="layer1">
    <rect
       style="fill:none;stroke:#000000;stroke-width:2.00859094;stroke-miterlimit:4;stroke-opacity:1;stroke-dasharray:none;stroke-dashoffset:0"
       id="rect2985-3"
       width="227.48563"
       height="187.40045"
       x="501.996"
       y="78.92926" />
    <path
       style="fill:none;stroke:#000000;stroke-width:0.97970599px;stroke-linecap:butt;stroke-linejoin:miter;stroke-opacity:1;marker-end:url(#Arrow1Lend)"
       d="m 355.81864,98.446417 c 145.92005,0 145.92005,0 145.92005,0"
       id="path3005"
       inkscape:connector-curvature="0" />
    <path
       style="fill:none;stroke:#000000;stroke-width:1px;stroke-linecap:butt;stroke-linejoin:miter;stroke-opacity:1;marker-end:url(#Arrow1Lend)"
       d="m 502.24376,130.26623 -152.02796,0"
       id="path4219"
       inkscape:connector-curvature="0" />
    <path
       style="fill:none;stroke:#000000;stroke-width:1px;stroke-linecap:butt;stroke-linejoin:miter;stroke-opacity:1;marker-end:url(#Arrow1Lend)"
       d="m 383.04576,106.02256 80.30713,0"
       id="path4403"
       inkscape:connector-curvature="0" />
    <path
       style="fill:none;stroke:#000000;stroke-width:1px;stroke-linecap:butt;stroke-linejoin:miter;stroke-opacity:1;marker-end:url(#Arrow1Lend)"
       d="m 479.51533,141.88299 -97.47972,0"
       id="path4587"
       inkscape:connector-curvature="0" />
    <text
       xml:space="preserve"
       style="font-size:12px;font-style:normal;font-weight:normal;line-height:125%;letter-spacing:0px;word-spacing:0px;fill:#000000;fill-opacity:1;stroke:none;font-family:Sans"
       x="365.87317"
       y="120.66978"
       id="text4771"
       sodipodi:linespacing="125%"><tspan
         sodipodi:role="line"
         id="tspan4773"
         x="365.87317"
         y="120.66978"
         dy="0 6.0609155 -6.0609155 0 0 0 0 0 0 5.5558391 -5.5558391 0 0 0 5.5558391 -5.5558391"
         dx="0 -1.5152289 1.5152289 0 0 0 0 0 0 -1.0101526 1.0101526 0 0 0 -1.5152289 1.5152289">BH, C, MOH, MXH, MT</tspan></text>
    <text
       xml:space="preserve"
       style="font-size:12px;font-style:normal;font-weight:normal;line-height:125%;letter-spacing:0px;word-spacing:0px;fill:#000000;fill-opacity:1;stroke:none;font-family:Sans"
       x="407.28943"
       y="157.03526"
       id="text4775"
       sodipodi:linespacing="125%"><tspan
         sodipodi:role="line"
         id="tspan4777"
         x="407.28943"
         y="157.03526"
         dy="0 7.5761447 -7.5761447 0 0 0 8.0812206"
         dx="0 -2.0203052 2.0203052 0 0 0 -2.0203052">TH, MZH</tspan></text>
    <path
       style="fill:none;stroke:#000000;stroke-width:1.05129933px;stroke-linecap:butt;stroke-linejoin:miter;stroke-opacity:1;marker-end:url(#Arrow1Lend)"
       d="m 332.95518,184.05685 c 168.02589,0 168.02589,0 168.02589,0"
       id="path3005-9"
       inkscape:connector-curvature="0" />
    <path
       style="fill:none;stroke:#000000;stroke-width:1px;stroke-linecap:butt;stroke-linejoin:miter;stroke-opacity:1;marker-end:url(#Arrow1Lend)"
       d="m 382.28814,191.633 80.30713,0"
       id="path4403-9"
       inkscape:connector-curvature="0" />
    <text
       xml:space="preserve"
       style="font-size:12px;font-style:normal;font-weight:normal;line-height:125%;letter-spacing:0px;word-spacing:0px;fill:#000000;fill-opacity:1;stroke:none;font-family:Sans"
       x="403.24881"
       y="203.50229"
       id="text4814"
       sodipodi:linespacing="125%"><tspan
         sodipodi:role="line"
         id="tspan4816"
         x="403.24881"
         y="203.50229"
         dy="0 0 0 0 0 7.0710678"
         dx="0 0 0 0 0 -3.0304575">T, MZH</tspan></text>
    <path
       style="fill:none;stroke:#000000;stroke-width:1.09332955px;stroke-linecap:butt;stroke-linejoin:miter;stroke-opacity:1;marker-end:url(#Arrow1Lend)"
       d="m 501.99123,232.54417 -181.72957,0"
       id="path4219-6"
       inkscape:connector-curvature="0" />
    <path
       style="fill:none;stroke:#000000;stroke-width:1px;stroke-linecap:butt;stroke-linejoin:miter;stroke-opacity:1;marker-end:url(#Arrow1Lend)"
       d="m 479.2628,244.16093 -97.47972,0"
       id="path4587-0"
       inkscape:connector-curvature="0" />
    <text
       xml:space="preserve"
       style="font-size:12px;font-style:normal;font-weight:normal;line-height:125%;letter-spacing:0px;word-spacing:0px;fill:#000000;fill-opacity:1;stroke:none;font-family:Sans"
       x="417.39096"
       y="260.5759"
       id="text4853"
       sodipodi:linespacing="125%"><tspan
         sodipodi:role="line"
         id="tspan4855"
         x="417.39096"
         y="260.5759"
         dy="0 5.0507627"
         dx="0 -1.0101526">AH</tspan></text>
    <text
       xml:space="preserve"
       style="font-size:12px;font-style:normal;font-weight:normal;line-height:125%;letter-spacing:0px;word-spacing:0px;fill:#000000;fill-opacity:1;stroke:none;font-family:Sans"
       x="515.37573"
       y="112.0835"
       id="text4861"
       sodipodi:linespacing="125%"><tspan
         sodipodi:role="line"
         id="tspan4863"
         x="515.37573"
         y="112.0835"
         dy="0 6.0609155"
         dx="0 -1.0101526">К1</tspan></text>
    <text
       xml:space="preserve"
       style="font-size:12px;font-style:normal;font-weight:normal;line-height:125%;letter-spacing:0px;word-spacing:0px;fill:#000000;fill-opacity:1;stroke:none;font-family:Sans"
       x="303.24371"
       y="183.80431"
       id="text3016"
       sodipodi:linespacing="125%"><tspan
         sodipodi:role="line"
         id="tspan3018"
         x="303.24371"
         y="183.80431"
         dy="0 0 7.0710673"
         dx="0 0 -2.0203052">IO1</tspan></text>
    <path
       style="fill:none;stroke:#000000;stroke-width:1px;stroke-linecap:butt;stroke-linejoin:miter;stroke-opacity:1"
       d="m 540.40688,156.87301 65.35714,0 22.26156,-38.55815 -65.83298,0 z"
       id="path3022"
       inkscape:connector-curvature="0"
       sodipodi:nodetypes="ccccc" />
    <text
       xml:space="preserve"
       style="font-size:12px;font-style:normal;font-weight:normal;line-height:125%;letter-spacing:0px;word-spacing:0px;fill:#000000;fill-opacity:1;stroke:none;font-family:Sans"
       x="569.84277"
       y="135.09364"
       id="text3024"
       sodipodi:linespacing="125%"><tspan
         sodipodi:role="line"
         id="tspan3026"
         x="569.84277"
         y="135.09364">T1</tspan></text>
    <path
       style="fill:none;stroke:#000000;stroke-width:1px;stroke-linecap:butt;stroke-linejoin:miter;stroke-opacity:1"
       d="m 539.1654,206.90064 65.35714,0 22.26156,-38.55816 -65.83298,0 z"
       id="path3022-1"
       inkscape:connector-curvature="0"
       sodipodi:nodetypes="ccccc" />
    <text
       xml:space="preserve"
       style="font-size:12px;font-style:normal;font-weight:normal;line-height:125%;letter-spacing:0px;word-spacing:0px;fill:#000000;fill-opacity:1;stroke:none;font-family:Sans"
       x="568.60126"
       y="185.12128"
       id="text3024-1"
       sodipodi:linespacing="125%"><tspan
         sodipodi:role="line"
         id="tspan3026-0"
         x="568.60126"
         y="185.12128">T2</tspan></text>
    <path
       style="fill:none;stroke:#000000;stroke-width:1px;stroke-linecap:butt;stroke-linejoin:miter;stroke-opacity:1"
       d="m 529.1451,255.31545 65.35714,0 22.26156,-38.55816 -65.83298,0 z"
       id="path3022-6"
       inkscape:connector-curvature="0"
       sodipodi:nodetypes="ccccc" />
    <text
       xml:space="preserve"
       style="font-size:12px;font-style:normal;font-weight:normal;line-height:125%;letter-spacing:0px;word-spacing:0px;fill:#000000;fill-opacity:1;stroke:none;font-family:Sans"
       x="558.58093"
       y="233.5361"
       id="text3024-4"
       sodipodi:linespacing="125%"><tspan
         sodipodi:role="line"
         id="tspan3026-6"
         x="558.58093"
         y="233.5361">T3</tspan></text>
    <path
       style="fill:none;stroke:#000000;stroke-width:1px;stroke-linecap:butt;stroke-linejoin:miter;stroke-opacity:1"
       d="m 631.1705,255.61132 65.35714,0 22.26156,-38.55815 -65.83298,0 z"
       id="path3022-2"
       inkscape:connector-curvature="0"
       sodipodi:nodetypes="ccccc" />
    <text
       xml:space="preserve"
       style="font-size:12px;font-style:normal;font-weight:normal;line-height:125%;letter-spacing:0px;word-spacing:0px;fill:#000000;fill-opacity:1;stroke:none;font-family:Sans"
       x="660.60638"
       y="233.83195"
       id="text3024-5"
       sodipodi:linespacing="125%"><tspan
         sodipodi:role="line"
         id="tspan3026-8"
         x="660.60638"
         y="233.83195">T4</tspan></text>
    <path
       style="fill:none;stroke:#000000;stroke-width:1px;stroke-linecap:butt;stroke-linejoin:miter;stroke-opacity:1"
       d="m 298.21428,86.290753 61.42857,0 -46.21589,172.480067 -66.64125,0 46.31302,-172.306817 20.82984,-0.267857"
       id="path3080"
       inkscape:connector-curvature="0"
       sodipodi:nodetypes="cccccc" />
    <rect
       style="fill:none;stroke:#000000;stroke-width:0.84632552;stroke-miterlimit:4;stroke-opacity:1;stroke-dasharray:none;stroke-dashoffset:0"
       id="rect3159"
       width="233.29836"
       height="512.85712"
       x="132.41594"
       y="56.647896" />
    <rect
       style="fill:none;stroke:#000000;stroke-width:2.00859094;stroke-miterlimit:4;stroke-opacity:1;stroke-dasharray:none;stroke-dashoffset:0"
       id="rect2985-3-2"
       width="227.48563"
       height="187.40045"
       x="496.46732"
       y="311.5191" />
    <path
       style="fill:none;stroke:#000000;stroke-width:0.97970599px;stroke-linecap:butt;stroke-linejoin:miter;stroke-opacity:1;marker-end:url(#Arrow1Lend)"
       d="m 350.28996,331.03626 c 145.92005,0 145.92005,0 145.92005,0"
       id="path3005-2"
       inkscape:connector-curvature="0" />
    <path
       style="fill:none;stroke:#000000;stroke-width:1px;stroke-linecap:butt;stroke-linejoin:miter;stroke-opacity:1;marker-end:url(#Arrow1Lend)"
       d="m 496.71508,362.85607 -152.02796,0"
       id="path4219-64"
       inkscape:connector-curvature="0" />
    <path
       style="fill:none;stroke:#000000;stroke-width:1px;stroke-linecap:butt;stroke-linejoin:miter;stroke-opacity:1;marker-end:url(#Arrow1Lend)"
       d="m 377.51708,338.6124 80.30713,0"
       id="path4403-1"
       inkscape:connector-curvature="0" />
    <path
       style="fill:none;stroke:#000000;stroke-width:1px;stroke-linecap:butt;stroke-linejoin:miter;stroke-opacity:1;marker-end:url(#Arrow1Lend)"
       d="m 473.98665,374.47283 -97.47972,0"
       id="path4587-2"
       inkscape:connector-curvature="0" />
    <text
       xml:space="preserve"
       style="font-size:12px;font-style:normal;font-weight:normal;line-height:125%;letter-spacing:0px;word-spacing:0px;fill:#000000;fill-opacity:1;stroke:none;font-family:Sans"
       x="360.34448"
       y="353.25964"
       id="text4771-8"
       sodipodi:linespacing="125%"><tspan
         sodipodi:role="line"
         id="tspan4773-8"
         x="360.34448"
         y="353.25964"
         dy="0 6.0609155 -6.0609155 0 0 0 0 0 0 5.5558391 -5.5558391 0 0 0 5.5558391 -5.5558391"
         dx="0 -1.5152289 1.5152289 0 0 0 0 0 0 -1.0101526 1.0101526 0 0 0 -1.5152289 1.5152289">BH, C, MOH, MXH, MT</tspan></text>
    <text
       xml:space="preserve"
       style="font-size:12px;font-style:normal;font-weight:normal;line-height:125%;letter-spacing:0px;word-spacing:0px;fill:#000000;fill-opacity:1;stroke:none;font-family:Sans"
       x="397.72015"
       y="387.09973"
       id="text4775-9"
       sodipodi:linespacing="125%"><tspan
         sodipodi:role="line"
         id="tspan4777-2"
         x="397.72015"
         y="387.09973"
         dy="0 7.5761447 -7.5761447 0 0 0 8.0812206"
         dx="0 -2.0203052 2.0203052 0 0 0 -2.0203052">TH, MZH</tspan></text>
    <path
       style="fill:none;stroke:#000000;stroke-width:1.05129933px;stroke-linecap:butt;stroke-linejoin:miter;stroke-opacity:1;marker-end:url(#Arrow1Lend)"
       d="m 327.4265,416.6467 c 168.02589,0 168.02589,0 168.02589,0"
       id="path3005-9-8"
       inkscape:connector-curvature="0" />
    <path
       style="fill:none;stroke:#000000;stroke-width:1px;stroke-linecap:butt;stroke-linejoin:miter;stroke-opacity:1;marker-end:url(#Arrow1Lend)"
       d="m 376.75946,424.22285 80.30713,0"
       id="path4403-9-8"
       inkscape:connector-curvature="0" />
    <text
       xml:space="preserve"
       style="font-size:12px;font-style:normal;font-weight:normal;line-height:125%;letter-spacing:0px;word-spacing:0px;fill:#000000;fill-opacity:1;stroke:none;font-family:Sans"
       x="396.70996"
       y="435.58707"
       id="text4814-8"
       sodipodi:linespacing="125%"><tspan
         sodipodi:role="line"
         id="tspan4816-6"
         x="396.70996"
         y="435.58707"
         dy="0 0 0 0 0 7.0710678"
         dx="0 0 0 0 0 -3.0304575">T, MZH</tspan></text>
    <path
       style="fill:none;stroke:#000000;stroke-width:1.09332955px;stroke-linecap:butt;stroke-linejoin:miter;stroke-opacity:1;marker-end:url(#Arrow1Lend)"
       d="m 496.46255,465.13402 -181.72957,0"
       id="path4219-6-8"
       inkscape:connector-curvature="0" />
    <path
       style="fill:none;stroke:#000000;stroke-width:1px;stroke-linecap:butt;stroke-linejoin:miter;stroke-opacity:1;marker-end:url(#Arrow1Lend)"
       d="m 473.73412,476.75078 -97.47972,0"
       id="path4587-0-3"
       inkscape:connector-curvature="0" />
    <text
       xml:space="preserve"
       style="font-size:12px;font-style:normal;font-weight:normal;line-height:125%;letter-spacing:0px;word-spacing:0px;fill:#000000;fill-opacity:1;stroke:none;font-family:Sans"
       x="411.86227"
       y="493.16577"
       id="text4853-8"
       sodipodi:linespacing="125%"><tspan
         sodipodi:role="line"
         id="tspan4855-3"
         x="411.86227"
         y="493.16577"
         dy="0 5.0507627"
         dx="0 -1.0101526">AH</tspan></text>
    <text
       xml:space="preserve"
       style="font-size:12px;font-style:normal;font-weight:normal;line-height:125%;letter-spacing:0px;word-spacing:0px;fill:#000000;fill-opacity:1;stroke:none;font-family:Sans"
       x="509.84708"
       y="344.67337"
       id="text4861-3"
       sodipodi:linespacing="125%"><tspan
         sodipodi:role="line"
         id="tspan4863-3"
         x="509.84708"
         y="344.67337"
         dy="0 4.0406098"
         dx="0 -1.0101526">Кp</tspan></text>
    <text
       xml:space="preserve"
       style="font-size:12px;font-style:normal;font-weight:normal;line-height:125%;letter-spacing:0px;word-spacing:0px;fill:#000000;fill-opacity:1;stroke:none;font-family:Sans"
       x="297.71503"
       y="416.39417"
       id="text3016-8"
       sodipodi:linespacing="125%"><tspan
         sodipodi:role="line"
         id="tspan3018-0"
         x="297.71503"
         y="416.39417"
         dy="0 0 5.0507627"
         dx="0 0 -2.0203052">IOp</tspan></text>
    <path
       style="fill:none;stroke:#000000;stroke-width:1px;stroke-linecap:butt;stroke-linejoin:miter;stroke-opacity:1"
       d="m 534.8782,389.46285 65.35714,0 22.26156,-38.55815 -65.83298,0 z"
       id="path3022-4"
       inkscape:connector-curvature="0"
       sodipodi:nodetypes="ccccc" />
    <text
       xml:space="preserve"
       style="font-size:12px;font-style:normal;font-weight:normal;line-height:125%;letter-spacing:0px;word-spacing:0px;fill:#000000;fill-opacity:1;stroke:none;font-family:Sans"
       x="564.31415"
       y="367.6835"
       id="text3024-7"
       sodipodi:linespacing="125%"><tspan
         sodipodi:role="line"
         id="tspan3026-68"
         x="564.31415"
         y="367.6835">T1</tspan></text>
    <path
       style="fill:none;stroke:#000000;stroke-width:1px;stroke-linecap:butt;stroke-linejoin:miter;stroke-opacity:1"
       d="m 533.63672,439.49049 65.35714,0 22.26156,-38.55817 -65.83298,0 z"
       id="path3022-1-9"
       inkscape:connector-curvature="0"
       sodipodi:nodetypes="ccccc" />
    <text
       xml:space="preserve"
       style="font-size:12px;font-style:normal;font-weight:normal;line-height:125%;letter-spacing:0px;word-spacing:0px;fill:#000000;fill-opacity:1;stroke:none;font-family:Sans"
       x="563.07263"
       y="417.71112"
       id="text3024-1-0"
       sodipodi:linespacing="125%"><tspan
         sodipodi:role="line"
         id="tspan3026-0-6"
         x="563.07263"
         y="417.71112">T2</tspan></text>
    <path
       style="fill:none;stroke:#000000;stroke-width:1px;stroke-linecap:butt;stroke-linejoin:miter;stroke-opacity:1"
       d="m 523.61642,487.9053 65.35714,0 22.26156,-38.55816 -65.83298,0 z"
       id="path3022-6-8"
       inkscape:connector-curvature="0"
       sodipodi:nodetypes="ccccc" />
    <text
       xml:space="preserve"
       style="font-size:12px;font-style:normal;font-weight:normal;line-height:125%;letter-spacing:0px;word-spacing:0px;fill:#000000;fill-opacity:1;stroke:none;font-family:Sans"
       x="553.05231"
       y="466.12598"
       id="text3024-4-7"
       sodipodi:linespacing="125%"><tspan
         sodipodi:role="line"
         id="tspan3026-6-9"
         x="553.05231"
         y="466.12598">T3</tspan></text>
    <path
       style="fill:none;stroke:#000000;stroke-width:1px;stroke-linecap:butt;stroke-linejoin:miter;stroke-opacity:1"
       d="m 625.64182,488.20117 65.35714,0 22.26156,-38.55815 -65.83298,0 z"
       id="path3022-2-0"
       inkscape:connector-curvature="0"
       sodipodi:nodetypes="ccccc" />
    <text
       xml:space="preserve"
       style="font-size:12px;font-style:normal;font-weight:normal;line-height:125%;letter-spacing:0px;word-spacing:0px;fill:#000000;fill-opacity:1;stroke:none;font-family:Sans"
       x="655.07776"
       y="466.42181"
       id="text3024-5-3"
       sodipodi:linespacing="125%"><tspan
         sodipodi:role="line"
         id="tspan3026-8-3"
         x="655.07776"
         y="466.42181">T4</tspan></text>
    <path
       style="fill:none;stroke:#000000;stroke-width:1px;stroke-linecap:butt;stroke-linejoin:miter;stroke-opacity:1"
       d="m 292.6856,318.88059 61.42857,0 -46.21589,172.48008 -66.64125,0 46.31302,-172.30683 20.82984,-0.26785"
       id="path3080-2"
       inkscape:connector-curvature="0"
       sodipodi:nodetypes="cccccc" />
    <path
       sodipodi:type="arc"
       style="fill:none;stroke:#000000;stroke-width:1;stroke-miterlimit:4;stroke-opacity:1;stroke-dasharray:none;stroke-dashoffset:0"
       id="path3355"
       sodipodi:cx="42.426407"
       sodipodi:cy="124.032"
       sodipodi:rx="26.263966"
       sodipodi:ry="13.131983"
       d="m 68.690372,124.032 a 26.263966,13.131983 0 1 1 -52.527931,0 26.263966,13.131983 0 1 1 52.527931,0 z" />
    <path
       transform="translate(-0.11729585,49.999996)"
       sodipodi:type="arc"
       style="fill:none;stroke:#000000;stroke-width:1;stroke-miterlimit:4;stroke-opacity:1;stroke-dasharray:none;stroke-dashoffset:0"
       id="path3355-9"
       sodipodi:cx="42.426407"
       sodipodi:cy="124.032"
       sodipodi:rx="26.263966"
       sodipodi:ry="13.131983"
       d="m 68.690372,124.032 a 26.263966,13.131983 0 1 1 -52.527931,0 26.263966,13.131983 0 1 1 52.527931,0 z" />
    <path
       style="fill:none;stroke:#000000;stroke-width:1px;stroke-linecap:butt;stroke-linejoin:miter;stroke-opacity:1"
       d="m 68.571429,123.96932 0,50.53572 m -52.857143,-50 0,50.53571"
       id="path3375"
       inkscape:connector-curvature="0" />
    <path
       style="fill:none;stroke:#000000;stroke-width:1px;stroke-linecap:butt;stroke-linejoin:miter;stroke-opacity:1"
       d="m 41.607143,110.57647 0,-28.571432 90.535717,0"
       id="path3377"
       inkscape:connector-curvature="0" />
    <text
       xml:space="preserve"
       style="font-size:12px;font-style:normal;font-weight:normal;line-height:125%;letter-spacing:0px;word-spacing:0px;fill:#000000;fill-opacity:1;stroke:none;font-family:Sans"
       x="27.274118"
       y="208.88481"
       id="text3379"
       sodipodi:linespacing="125%"><tspan
         sodipodi:role="line"
         id="tspan3381"
         x="27.274118"
         y="208.88481">B,C,MO,MX,MT</tspan></text>
    <text
       xml:space="preserve"
       style="font-size:12px;font-style:normal;font-weight:normal;line-height:125%;letter-spacing:0px;word-spacing:0px;fill:#000000;fill-opacity:1;stroke:none;font-family:Sans"
       x="273.75134"
       y="288.68686"
       id="text3383"
       sodipodi:linespacing="125%"><tspan
         sodipodi:role="line"
         id="tspan3385"
         x="273.75134"
         y="288.68686"
         style="font-size:28px">...</tspan></text>
  </g>
</svg>
