\relax 
\catcode`"\active
\select@language{ukrainian}
\@writefile{toc}{\select@language{ukrainian}}
\@writefile{lof}{\select@language{ukrainian}}
\@writefile{lot}{\select@language{ukrainian}}
\@writefile{toc}{\contentsline {section}{\numberline {1}\IeC {\CYRP }\IeC {\cyro }\IeC {\cyrl }\IeC {\cyrii }\IeC {\cyrt }\IeC {\cyro }\IeC {\cyrl }\IeC {\cyro }\IeC {\cyrg }\IeC {\cyrii }\IeC {\cyrya } \IeC {\cyrya }\IeC {\cyrk } \IeC {\cyrn }\IeC {\cyra }\IeC {\cyru }\IeC {\cyrk }\IeC {\cyra } \IeC {\cyrii } \IeC {\cyrn }\IeC {\cyra }\IeC {\cyrv }\IeC {\cyrch }\IeC {\cyra }\IeC {\cyrl }\IeC {\cyrsftsn }\IeC {\cyrn }\IeC {\cyra } \IeC {\cyrd }\IeC {\cyri }\IeC {\cyrs }\IeC {\cyrc }\IeC {\cyri }\IeC {\cyrp }\IeC {\cyrl }\IeC {\cyrii }\IeC {\cyrn }\IeC {\cyra }}{1}}
\@writefile{toc}{\contentsline {section}{\numberline {2}\IeC {\CYRP }\IeC {\cyro }\IeC {\cyrl }\IeC {\cyrii }\IeC {\cyrt }\IeC {\cyri }\IeC {\cyrk }\IeC {\cyra } \IeC {\cyrya }\IeC {\cyrk } \IeC {\cyrs }\IeC {\cyru }\IeC {\cyrs }\IeC {\cyrp }\IeC {\cyrii }\IeC {\cyrl }\IeC {\cyrsftsn }\IeC {\cyrn }\IeC {\cyre } \IeC {\cyrya }\IeC {\cyrv }\IeC {\cyri }\IeC {\cyrshch }\IeC {\cyre }.}{2}}
\@writefile{toc}{\contentsline {section}{\numberline {3}\IeC {\CYRO }\IeC {\cyrs }\IeC {\cyrn }\IeC {\cyro }\IeC {\cyrv }\IeC {\cyrn }\IeC {\cyrii } \IeC {\cyrf }\IeC {\cyru }\IeC {\cyrn }\IeC {\cyrk }\IeC {\cyrc }\IeC {\cyrii }\IeC {\cyryi } \IeC {\cyrp }\IeC {\cyro }\IeC {\cyrl }\IeC {\cyrii }\IeC {\cyrt }\IeC {\cyri }\IeC {\cyrk }\IeC {\cyri }}{3}}
\@writefile{toc}{\contentsline {subsection}{\numberline {3.1}\IeC {\CYRP }\IeC {\cyro }\IeC {\cyrl }\IeC {\cyrii }\IeC {\cyrt }\IeC {\cyri }\IeC {\cyrch }\IeC {\cyrn }\IeC {\cyra } \IeC {\cyrv }\IeC {\cyrl }\IeC {\cyra }\IeC {\cyrd }\IeC {\cyra } \IeC {\cyrya }\IeC {\cyrk } \IeC {\cyro }\IeC {\cyrs }\IeC {\cyrn }\IeC {\cyro }\IeC {\cyrv }\IeC {\cyrn }\IeC {\cyri }\IeC {\cyrishrt } \IeC {\cyra }\IeC {\cyrt }\IeC {\cyrr }\IeC {\cyri }\IeC {\cyrb }\IeC {\cyru }\IeC {\cyrt } \IeC {\cyrp }\IeC {\cyro }\IeC {\cyrl }\IeC {\cyrii }\IeC {\cyrt }\IeC {\cyri }\IeC {\cyrch }\IeC {\cyrn }\IeC {\cyro }\IeC {\cyryi } \IeC {\cyrs }\IeC {\cyri }\IeC {\cyrs }\IeC {\cyrt }\IeC {\cyre }\IeC {\cyrm }\IeC {\cyri }. }{4}}
\@writefile{toc}{\contentsline {section}{\numberline {4}\IeC {\CYRR }\IeC {\cyre }\IeC {\cyrs }\IeC {\cyru }\IeC {\cyrr }\IeC {\cyrs }\IeC {\cyri } \IeC {\cyrv }\IeC {\cyrl }\IeC {\cyra }\IeC {\cyrd }\IeC {\cyri }}{5}}
\@writefile{toc}{\contentsline {subsection}{\numberline {4.1}\IeC {\CYRP }\IeC {\cyro }\IeC {\cyrl }\IeC {\cyrii }\IeC {\cyrt }\IeC {\cyri }\IeC {\cyrch }\IeC {\cyrn }\IeC {\cyra } \IeC {\cyrs }\IeC {\cyri }\IeC {\cyrs }\IeC {\cyrt }\IeC {\cyre }\IeC {\cyrm }\IeC {\cyra } \IeC {\cyrs }\IeC {\cyru }\IeC {\cyrs }\IeC {\cyrp }\IeC {\cyrii }\IeC {\cyrl }\IeC {\cyrsftsn }\IeC {\cyrs }\IeC {\cyrt }\IeC {\cyrv }\IeC {\cyra }: \IeC {\cyrs }\IeC {\cyru }\IeC {\cyrt }\IeC {\cyrn }\IeC {\cyrii }\IeC {\cyrs }\IeC {\cyrt }\IeC {\cyrsftsn }, \IeC {\cyrs }\IeC {\cyrt }\IeC {\cyrr }\IeC {\cyru }\IeC {\cyrk }\IeC {\cyrt }\IeC {\cyru }\IeC {\cyrr }\IeC {\cyra }, \IeC {\cyrf }\IeC {\cyru }\IeC {\cyrn }\IeC {\cyrk }\IeC {\cyrc }\IeC {\cyrii }\IeC {\cyryi }.}{6}}
\@writefile{toc}{\contentsline {section}{\numberline {5}\IeC {\CYRK }\IeC {\cyro }\IeC {\cyrn }\IeC {\cyrc }\IeC {\cyre }\IeC {\cyrp }\IeC {\cyrc }\IeC {\cyrii }\IeC {\cyrya } \IeC {\cyrp }\IeC {\cyrr }\IeC {\cyra }\IeC {\cyrv }\IeC {\cyro }\IeC {\cyrv }\IeC {\cyro }\IeC {\cyryi } \IeC {\cyrd }\IeC {\cyre }\IeC {\cyrr }\IeC {\cyrzh }\IeC {\cyra }\IeC {\cyrv }\IeC {\cyri } \IeC {\cyrt }\IeC {\cyra } \IeC {\cyrg }\IeC {\cyrr }\IeC {\cyro }\IeC {\cyrm }\IeC {\cyra }\IeC {\cyrd }\IeC {\cyrya }\IeC {\cyrn }\IeC {\cyrs }\IeC {\cyrsftsn }\IeC {\cyrk }\IeC {\cyro }\IeC {\cyrg }\IeC {\cyro } \IeC {\cyrs }\IeC {\cyru }\IeC {\cyrs }\IeC {\cyrp }\IeC {\cyrii }\IeC {\cyrl }\IeC {\cyrsftsn }\IeC {\cyrs }\IeC {\cyrt }\IeC {\cyrv }\IeC {\cyra }}{7}}
\@writefile{toc}{\contentsline {section}{\numberline {6}\IeC {\CYRP }\IeC {\cyro }\IeC {\cyrl }\IeC {\cyrii }\IeC {\cyrt }\IeC {\cyri }\IeC {\cyrch }\IeC {\cyrn }\IeC {\cyrii } \IeC {\cyrp }\IeC {\cyra }\IeC {\cyrr }\IeC {\cyrt }\IeC {\cyrii }\IeC {\cyrii }. \IeC {\CYRP }\IeC {\cyro }\IeC {\cyrn }\IeC {\cyrya }\IeC {\cyrt }\IeC {\cyrt }\IeC {\cyrya }}{9}}
\@writefile{toc}{\contentsline {section}{\numberline {7}\IeC {\CYRP }\IeC {\cyro }\IeC {\cyrl }\IeC {\cyrii }\IeC {\cyrt }\IeC {\cyri }\IeC {\cyrch }\IeC {\cyrn }\IeC {\cyra } \IeC {\cyrs }\IeC {\cyrv }\IeC {\cyrii }\IeC {\cyrd }\IeC {\cyro }\IeC {\cyrm }\IeC {\cyrii }\IeC {\cyrs }\IeC {\cyrt }\IeC {\cyrsftsn }: \IeC {\cyrr }\IeC {\cyrii }\IeC {\cyrv }\IeC {\cyrn }\IeC {\cyrii }, \IeC {\cyrs }\IeC {\cyrt }\IeC {\cyrr }\IeC {\cyru }\IeC {\cyrk }\IeC {\cyrt }\IeC {\cyru }\IeC {\cyrr }\IeC {\cyra }, \IeC {\cyrt }\IeC {\cyri }\IeC {\cyrp }\IeC {\cyri }}{12}}
\@writefile{toc}{\contentsline {section}{\numberline {8}\IeC {\CYRP }\IeC {\cyro }\IeC {\cyrl }\IeC {\cyrii }\IeC {\cyrt }\IeC {\cyri }\IeC {\cyrch }\IeC {\cyrn }\IeC {\cyra } \IeC {\cyrk }\IeC {\cyru }\IeC {\cyrl }\IeC {\cyrsftsn }\IeC {\cyrt }\IeC {\cyru }\IeC {\cyrr }\IeC {\cyra }}{14}}
