\relax 
\catcode`"\active
\select@language{ukrainian}
\@writefile{toc}{\select@language{ukrainian}}
\@writefile{lof}{\select@language{ukrainian}}
\@writefile{lot}{\select@language{ukrainian}}
\@writefile{toc}{\contentsline {section}{\numberline {1}\IeC {\CYRZ }\IeC {\cyra }\IeC {\cyrd }\IeC {\cyra }\IeC {\cyrn }\IeC {\cyri }\IeC {\cyre }}{2}}
\@writefile{toc}{\contentsline {section}{\numberline {2}\IeC {\CYRV }\IeC {\cyra }\IeC {\cyrr }\IeC {\cyri }\IeC {\cyra }\IeC {\cyrn }\IeC {\cyrt }}{2}}
\@writefile{toc}{\contentsline {section}{\numberline {3}\IeC {\CYRG }\IeC {\cyrr }\IeC {\cyra }\IeC {\cyrf } \IeC {\cyra }\IeC {\cyrl }\IeC {\cyrg }\IeC {\cyro }\IeC {\cyrr }\IeC {\cyri }\IeC {\cyrt }\IeC {\cyrm }\IeC {\cyra }}{3}}
\@writefile{toc}{\contentsline {section}{\numberline {4}\IeC {\CYRT }\IeC {\cyre }\IeC {\cyrs }\IeC {\cyrt }\IeC {\cyri }\IeC {\cyrr }\IeC {\cyro }\IeC {\cyrv }\IeC {\cyra }\IeC {\cyrn }\IeC {\cyri }\IeC {\cyre }}{4}}
\@writefile{lot}{\contentsline {table}{\numberline {1}{\ignorespaces \IeC {\CYRD }\IeC {\cyra }\IeC {\cyrn }\IeC {\cyrn }\IeC {\cyrery }\IeC {\cyre } \IeC {\cyrd }\IeC {\cyrl }\IeC {\cyrya } \IeC {\cyrs }\IeC {\cyri }\IeC {\cyrs }\IeC {\cyrt }\IeC {\cyre }\IeC {\cyrm }\IeC {\cyrery } Dataflow \IeC {\cyrs } 3 \IeC {\cyrp }\IeC {\cyrr }\IeC {\cyro }\IeC {\cyrc }\IeC {\cyre }\IeC {\cyrs }\IeC {\cyrs }\IeC {\cyro }\IeC {\cyrr }\IeC {\cyra }\IeC {\cyrm }\IeC {\cyri }}}{4}}
\@writefile{lot}{\contentsline {table}{\numberline {2}{\ignorespaces \IeC {\CYRD }\IeC {\cyra }\IeC {\cyrn }\IeC {\cyrn }\IeC {\cyrery }\IeC {\cyre } \IeC {\cyrd }\IeC {\cyrl }\IeC {\cyrya } \IeC {\cyrs }\IeC {\cyri }\IeC {\cyrs }\IeC {\cyrt }\IeC {\cyre }\IeC {\cyrm }\IeC {\cyrery } Dataflow \IeC {\cyrs } 2 \IeC {\cyrp }\IeC {\cyrr }\IeC {\cyro }\IeC {\cyrc }\IeC {\cyre }\IeC {\cyrs }\IeC {\cyrs }\IeC {\cyro }\IeC {\cyrr }\IeC {\cyra }\IeC {\cyrm }\IeC {\cyri }}}{4}}
\@writefile{lot}{\contentsline {table}{\numberline {3}{\ignorespaces \IeC {\CYRD }\IeC {\cyra }\IeC {\cyrn }\IeC {\cyrn }\IeC {\cyrery }\IeC {\cyre } \IeC {\cyrd }\IeC {\cyrl }\IeC {\cyrya } \IeC {\cyrs }\IeC {\cyri }\IeC {\cyrs }\IeC {\cyrt }\IeC {\cyre }\IeC {\cyrm }\IeC {\cyrery } VLIW \IeC {\cyrs } 3 \IeC {\cyrp }\IeC {\cyrr }\IeC {\cyro }\IeC {\cyrc }\IeC {\cyre }\IeC {\cyrs }\IeC {\cyrs }\IeC {\cyro }\IeC {\cyrr }\IeC {\cyra }\IeC {\cyrm }\IeC {\cyri }}}{5}}
\@writefile{lot}{\contentsline {table}{\numberline {4}{\ignorespaces \IeC {\CYRD }\IeC {\cyra }\IeC {\cyrn }\IeC {\cyrn }\IeC {\cyrery }\IeC {\cyre } \IeC {\cyrd }\IeC {\cyrl }\IeC {\cyrya } \IeC {\cyrs }\IeC {\cyri }\IeC {\cyrs }\IeC {\cyrt }\IeC {\cyre }\IeC {\cyrm }\IeC {\cyrery } VLIW \IeC {\cyrs } 2 \IeC {\cyrp }\IeC {\cyrr }\IeC {\cyro }\IeC {\cyrc }\IeC {\cyre }\IeC {\cyrs }\IeC {\cyrs }\IeC {\cyro }\IeC {\cyrr }\IeC {\cyra }\IeC {\cyrm }\IeC {\cyri }}}{5}}
\@writefile{toc}{\contentsline {section}{\numberline {5}\IeC {\CYRV }\IeC {\cyrery }\IeC {\cyrv }\IeC {\cyro }\IeC {\cyrd }\IeC {\cyrery }}{5}}
\@writefile{toc}{\contentsline {section}{\numberline {6}\IeC {\CYRCH }\IeC {\cyra }\IeC {\cyrs }\IeC {\cyrt }\IeC {\cyrsftsn } 2}{6}}
\@writefile{toc}{\contentsline {section}{\numberline {7}\IeC {\CYRG }\IeC {\cyrr }\IeC {\cyra }\IeC {\cyrf } \IeC {\cyra }\IeC {\cyrl }\IeC {\cyrg }\IeC {\cyro }\IeC {\cyrr }\IeC {\cyri }\IeC {\cyrt }\IeC {\cyrm }\IeC {\cyra }}{6}}
\@writefile{toc}{\contentsline {section}{\numberline {8}\IeC {\CYRT }\IeC {\cyre }\IeC {\cyrs }\IeC {\cyrt }\IeC {\cyri }\IeC {\cyrr }\IeC {\cyro }\IeC {\cyrv }\IeC {\cyra }\IeC {\cyrn }\IeC {\cyri }\IeC {\cyre }}{7}}
\@writefile{lot}{\contentsline {table}{\numberline {5}{\ignorespaces \IeC {\CYRD }\IeC {\cyra }\IeC {\cyrn }\IeC {\cyrn }\IeC {\cyrery }\IeC {\cyre } \IeC {\cyrd }\IeC {\cyrl }\IeC {\cyrya } \IeC {\cyrs }\IeC {\cyri }\IeC {\cyrs }\IeC {\cyrt }\IeC {\cyre }\IeC {\cyrm }\IeC {\cyrery } Dataflow \IeC {\cyrs } 4 \IeC {\cyrp }\IeC {\cyrr }\IeC {\cyro }\IeC {\cyrc }\IeC {\cyre }\IeC {\cyrs }\IeC {\cyrs }\IeC {\cyro }\IeC {\cyrr }\IeC {\cyra }\IeC {\cyrm }\IeC {\cyri }}}{7}}
\@writefile{lot}{\contentsline {table}{\numberline {6}{\ignorespaces \IeC {\CYRD }\IeC {\cyra }\IeC {\cyrn }\IeC {\cyrn }\IeC {\cyrery }\IeC {\cyre } \IeC {\cyrd }\IeC {\cyrl }\IeC {\cyrya } \IeC {\cyrs }\IeC {\cyri }\IeC {\cyrs }\IeC {\cyrt }\IeC {\cyre }\IeC {\cyrm }\IeC {\cyrery } Dataflow \IeC {\cyrs } 3 \IeC {\cyrp }\IeC {\cyrr }\IeC {\cyro }\IeC {\cyrc }\IeC {\cyre }\IeC {\cyrs }\IeC {\cyrs }\IeC {\cyro }\IeC {\cyrr }\IeC {\cyra }\IeC {\cyrm }\IeC {\cyri }}}{8}}
\@writefile{lot}{\contentsline {table}{\numberline {7}{\ignorespaces \IeC {\CYRD }\IeC {\cyra }\IeC {\cyrn }\IeC {\cyrn }\IeC {\cyrery }\IeC {\cyre } \IeC {\cyrd }\IeC {\cyrl }\IeC {\cyrya } \IeC {\cyrs }\IeC {\cyri }\IeC {\cyrs }\IeC {\cyrt }\IeC {\cyre }\IeC {\cyrm }\IeC {\cyrery } Dataflow \IeC {\cyrs } 2 \IeC {\cyrp }\IeC {\cyrr }\IeC {\cyro }\IeC {\cyrc }\IeC {\cyre }\IeC {\cyrs }\IeC {\cyrs }\IeC {\cyro }\IeC {\cyrr }\IeC {\cyra }\IeC {\cyrm }\IeC {\cyri }}}{8}}
\@writefile{lot}{\contentsline {table}{\numberline {8}{\ignorespaces \IeC {\CYRD }\IeC {\cyra }\IeC {\cyrn }\IeC {\cyrn }\IeC {\cyrery }\IeC {\cyre } \IeC {\cyrd }\IeC {\cyrl }\IeC {\cyrya } \IeC {\cyrs }\IeC {\cyri }\IeC {\cyrs }\IeC {\cyrt }\IeC {\cyre }\IeC {\cyrm }\IeC {\cyrery } VLIW \IeC {\cyrs } 4 \IeC {\cyrp }\IeC {\cyrr }\IeC {\cyro }\IeC {\cyrc }\IeC {\cyre }\IeC {\cyrs }\IeC {\cyrs }\IeC {\cyro }\IeC {\cyrr }\IeC {\cyra }\IeC {\cyrm }\IeC {\cyri }}}{9}}
\@writefile{lot}{\contentsline {table}{\numberline {9}{\ignorespaces \IeC {\CYRD }\IeC {\cyra }\IeC {\cyrn }\IeC {\cyrn }\IeC {\cyrery }\IeC {\cyre } \IeC {\cyrd }\IeC {\cyrl }\IeC {\cyrya } \IeC {\cyrs }\IeC {\cyri }\IeC {\cyrs }\IeC {\cyrt }\IeC {\cyre }\IeC {\cyrm }\IeC {\cyrery } VLIW \IeC {\cyrs } 3 \IeC {\cyrp }\IeC {\cyrr }\IeC {\cyro }\IeC {\cyrc }\IeC {\cyre }\IeC {\cyrs }\IeC {\cyrs }\IeC {\cyro }\IeC {\cyrr }\IeC {\cyra }\IeC {\cyrm }\IeC {\cyri }}}{9}}
\@writefile{lot}{\contentsline {table}{\numberline {10}{\ignorespaces \IeC {\CYRD }\IeC {\cyra }\IeC {\cyrn }\IeC {\cyrn }\IeC {\cyrery }\IeC {\cyre } \IeC {\cyrd }\IeC {\cyrl }\IeC {\cyrya } \IeC {\cyrs }\IeC {\cyri }\IeC {\cyrs }\IeC {\cyrt }\IeC {\cyre }\IeC {\cyrm }\IeC {\cyrery } VLIW \IeC {\cyrs } 2 \IeC {\cyrp }\IeC {\cyrr }\IeC {\cyro }\IeC {\cyrc }\IeC {\cyre }\IeC {\cyrs }\IeC {\cyrs }\IeC {\cyro }\IeC {\cyrr }\IeC {\cyra }\IeC {\cyrm }\IeC {\cyri }}}{10}}
\@writefile{toc}{\contentsline {section}{\numberline {9}\IeC {\CYRV }\IeC {\cyrery }\IeC {\cyrv }\IeC {\cyro }\IeC {\cyrd }}{10}}
\ttl@finishall
