\relax 
\catcode`"\active
\select@language{ukrainian}
\@writefile{toc}{\select@language{ukrainian}}
\@writefile{lof}{\select@language{ukrainian}}
\@writefile{lot}{\select@language{ukrainian}}
\@writefile{toc}{\contentsline {section}{\IeC {\CYRV }\IeC {\cyrs }\IeC {\cyrt }\IeC {\cyru }\IeC {\cyrp }}{2}}
\@writefile{toc}{\contentsline {section}{\numberline {1}\IeC {\CYRO }\IeC {\cyrg }\IeC {\cyrl }\IeC {\cyrya }\IeC {\cyrd } \IeC {\cyrii }\IeC {\cyrs }\IeC {\cyrn }\IeC {\cyru }\IeC {\cyryu }\IeC {\cyrch }\IeC {\cyri }\IeC {\cyrh } \IeC {\cyrr }\IeC {\cyrii }\IeC {\cyrsh }\IeC {\cyre }\IeC {\cyrn }\IeC {\cyrsftsn }}{2}}
\@writefile{lot}{\contentsline {table}{\numberline {1.1}{\ignorespaces \IeC {\CYRH }\IeC {\cyra }\IeC {\cyrr }\IeC {\cyra }\IeC {\cyrk }\IeC {\cyrt }\IeC {\cyre }\IeC {\cyrr }\IeC {\cyri }\IeC {\cyrs }\IeC {\cyrt }\IeC {\cyri }\IeC {\cyrk }\IeC {\cyri } \IeC {\cyrs }\IeC {\cyre }\IeC {\cyrr }\IeC {\cyrii }\IeC {\cyryi } PIC16C8X\relax }}{4}}
\providecommand*\caption@xref[2]{\@setref\relax\@undefined{#1}}
\newlabel{tab:pic16cx_characteristics}{{1.1}{4}}
\@writefile{lot}{\contentsline {table}{\numberline {1.2}{\ignorespaces \IeC {\CYRH }\IeC {\cyra }\IeC {\cyrr }\IeC {\cyra }\IeC {\cyrk }\IeC {\cyrt }\IeC {\cyre }\IeC {\cyrr }\IeC {\cyri }\IeC {\cyrs }\IeC {\cyrt }\IeC {\cyri }\IeC {\cyrk }\IeC {\cyri } \IeC {\cyrs }\IeC {\cyre }\IeC {\cyrr }\IeC {\cyrii }\IeC {\cyryi } PIC18FXXX\relax }}{6}}
\newlabel{tab:pic18_characteristics}{{1.2}{6}}
\@writefile{toc}{\contentsline {section}{\numberline {2}\IeC {\CYRA }\IeC {\cyrr }\IeC {\cyrh }\IeC {\cyrii }\IeC {\cyrt }\IeC {\cyre }\IeC {\cyrk }\IeC {\cyrt }\IeC {\cyru }\IeC {\cyrr }\IeC {\cyra } \IeC {\cyrm }\IeC {\cyrii }\IeC {\cyrk }\IeC {\cyrr }\IeC {\cyro }\IeC {\cyrp }\IeC {\cyrr }\IeC {\cyro }\IeC {\cyrc }\IeC {\cyre }\IeC {\cyrs }\IeC {\cyrs }\IeC {\cyro }\IeC {\cyrr }\IeC {\cyrn }\IeC {\cyro }\IeC {\cyryi } \IeC {\cyrs }\IeC {\cyri }\IeC {\cyrs }\IeC {\cyrt }\IeC {\cyre }\IeC {\cyrm }\IeC {\cyri }}{6}}
\@writefile{toc}{\contentsline {subsection}{\numberline {2.1}\IeC {\CYRO }\IeC {\cyrp }\IeC {\cyri }\IeC {\cyrs } \IeC {\cyrm }\IeC {\cyrii }\IeC {\cyrk }\IeC {\cyrr }\IeC {\cyro }\IeC {\cyrp }\IeC {\cyrr }\IeC {\cyro }\IeC {\cyrc }\IeC {\cyre }\IeC {\cyrs }\IeC {\cyrs }\IeC {\cyro }\IeC {\cyrr }\IeC {\cyrn }\IeC {\cyro }\IeC {\cyryi } \IeC {\cyrs }\IeC {\cyri }\IeC {\cyrs }\IeC {\cyrt }\IeC {\cyre }\IeC {\cyrm }\IeC {\cyri }}{6}}
\@writefile{toc}{\contentsline {subsection}{\numberline {2.2}\IeC {\CYRO }\IeC {\cyrp }\IeC {\cyri }\IeC {\cyrs } \IeC {\cyrs }\IeC {\cyrt }\IeC {\cyrr }\IeC {\cyru }\IeC {\cyrk }\IeC {\cyrt }\IeC {\cyru }\IeC {\cyrr }\IeC {\cyri } \IeC {\cyrm }\IeC {\cyrii }\IeC {\cyrk }\IeC {\cyrr }\IeC {\cyro }\IeC {\cyrk }\IeC {\cyro }\IeC {\cyrn }\IeC {\cyrt }\IeC {\cyrr }\IeC {\cyro }\IeC {\cyrl }\IeC {\cyrl }\IeC {\cyre }\IeC {\cyrr }\IeC {\cyra }}{7}}
\@writefile{lof}{\contentsline {figure}{\numberline {1}{\ignorespaces \IeC {\CYRS }\IeC {\cyrt }\IeC {\cyrr }\IeC {\cyru }\IeC {\cyrk }\IeC {\cyrt }\IeC {\cyru }\IeC {\cyrr }\IeC {\cyrn }\IeC {\cyra } \IeC {\cyrs }\IeC {\cyrh }\IeC {\cyre }\IeC {\cyrm }\IeC {\cyra } \IeC {\cyrm }\IeC {\cyrii }\IeC {\cyrk }\IeC {\cyrr }\IeC {\cyro }\IeC {\cyrk }\IeC {\cyro }\IeC {\cyrn }\IeC {\cyrt }\IeC {\cyrr }\IeC {\cyro }\IeC {\cyrl }\IeC {\cyrl }\IeC {\cyre }\IeC {\cyrr }\IeC {\cyra } PIC16C84\relax }}{8}}
\newlabel{fig:pic_struct}{{1}{8}}
\@writefile{lof}{\contentsline {figure}{\numberline {2}{\ignorespaces \IeC {\CYRS }\IeC {\cyrh }\IeC {\cyre }\IeC {\cyrm }\IeC {\cyra } \IeC {\cyrv }\IeC {\cyri }\IeC {\cyrv }\IeC {\cyro }\IeC {\cyrd }\IeC {\cyrii }\IeC {\cyrv } \IeC {\cyrk }\IeC {\cyro }\IeC {\cyrn }\IeC {\cyrt }\IeC {\cyrr }\IeC {\cyro }\IeC {\cyrl }\IeC {\cyrl }\IeC {\cyre }\IeC {\cyrr }\IeC {\cyra } PIC16C84\relax }}{8}}
\newlabel{fig:pic_pin}{{2}{8}}
\newlabel{tab:pin_map}{{\caption@xref {tab:pin_map}{ on input line 137}}{9}}
\@writefile{lot}{\contentsline {table}{\numberline {2.1}{\ignorespaces \IeC {\CYRK }\IeC {\cyra }\IeC {\cyrr }\IeC {\cyrt }\IeC {\cyra } \IeC {\cyrv }\IeC {\cyri }\IeC {\cyrv }\IeC {\cyro }\IeC {\cyrd }\IeC {\cyrii }\IeC {\cyrv } \IeC {\cyrm }\IeC {\cyrii }\IeC {\cyrk }\IeC {\cyrr }\IeC {\cyro }\IeC {\cyrk }\IeC {\cyro }\IeC {\cyrn }\IeC {\cyrt }\IeC {\cyrr }\IeC {\cyro }\IeC {\cyrl }\IeC {\cyrl }\IeC {\cyre }\IeC {\cyrr }\IeC {\cyra }\relax }}{9}}
\@writefile{toc}{\contentsline {subsection}{\numberline {2.3}\IeC {\CYRS }\IeC {\cyri }\IeC {\cyrs }\IeC {\cyrt }\IeC {\cyre }\IeC {\cyrm }\IeC {\cyra } \IeC {\cyrk }\IeC {\cyro }\IeC {\cyrm }\IeC {\cyra }\IeC {\cyrn }\IeC {\cyrd } \IeC {\cyrm }\IeC {\cyrii }\IeC {\cyrk }\IeC {\cyrr }\IeC {\cyro }\IeC {\cyrk }\IeC {\cyro }\IeC {\cyrn }\IeC {\cyrt }\IeC {\cyrr }\IeC {\cyro }\IeC {\cyrl }\IeC {\cyrl }\IeC {\cyre }\IeC {\cyrr }\IeC {\cyra }}{10}}
\newlabel{tab:commands}{{2.2}{10}}
\@writefile{lot}{\contentsline {table}{\numberline {2.2}{\ignorespaces \IeC {\CYRS }\IeC {\cyri }\IeC {\cyrs }\IeC {\cyrt }\IeC {\cyre }\IeC {\cyrm }\IeC {\cyra } \IeC {\cyrk }\IeC {\cyro }\IeC {\cyrm }\IeC {\cyra }\IeC {\cyrn }\IeC {\cyrd } PIC16C84\relax }}{12}}
\@writefile{toc}{\contentsline {subsection}{\numberline {2.4}\IeC {\CYRO }\IeC {\cyrr }\IeC {\cyrg }\IeC {\cyra }\IeC {\cyrn }\IeC {\cyrii }\IeC {\cyrz }\IeC {\cyra }\IeC {\cyrc }\IeC {\cyrii }\IeC {\cyrya } \IeC {\cyrp }\IeC {\cyra }\IeC {\cyrm }'\IeC {\cyrya }\IeC {\cyrt }\IeC {\cyrii } \IeC {\cyrm }\IeC {\cyrii }\IeC {\cyrk }\IeC {\cyrr }\IeC {\cyro }\IeC {\cyrk }\IeC {\cyro }\IeC {\cyrn }\IeC {\cyrt }\IeC {\cyrr }\IeC {\cyro }\IeC {\cyrl }\IeC {\cyrl }\IeC {\cyre }\IeC {\cyrr }\IeC {\cyra }}{12}}
\@writefile{toc}{\contentsline {subsubsection}{\numberline {2.4.1}\IeC {\CYRO }\IeC {\cyrr }\IeC {\cyrg }\IeC {\cyra }\IeC {\cyrn }\IeC {\cyri }\IeC {\cyrz }\IeC {\cyra }\IeC {\cyrc }\IeC {\cyrii }\IeC {\cyrya } \IeC {\cyrp }\IeC {\cyra }\IeC {\cyrm }'\IeC {\cyrya }\IeC {\cyrt }\IeC {\cyrii } \IeC {\cyrp }\IeC {\cyrr }\IeC {\cyro }\IeC {\cyrg }\IeC {\cyrr }\IeC {\cyra }\IeC {\cyrm }}{12}}
\@writefile{toc}{\contentsline {paragraph}{\IeC {\CYRV }\IeC {\cyre }\IeC {\cyrk }\IeC {\cyrt }\IeC {\cyro }\IeC {\cyrr } \IeC {\cyrs }\IeC {\cyrb }\IeC {\cyrr }\IeC {\cyro }\IeC {\cyrs }\IeC {\cyru }}{13}}
\@writefile{toc}{\contentsline {paragraph}{\IeC {\CYRV }\IeC {\cyre }\IeC {\cyrk }\IeC {\cyrt }\IeC {\cyro }\IeC {\cyrr } \IeC {\cyrp }\IeC {\cyre }\IeC {\cyrr }\IeC {\cyre }\IeC {\cyrr }\IeC {\cyri }\IeC {\cyrv }\IeC {\cyra }\IeC {\cyrn }\IeC {\cyrsftsn }}{13}}
\@writefile{toc}{\contentsline {paragraph}{(}{13}}
\@writefile{toc}{\contentsline {paragraph}{\IeC {\CYRA }\IeC {\cyrp }\IeC {\cyrp }\IeC {\cyra }\IeC {\cyrr }\IeC {\cyra }\IeC {\cyrt }\IeC {\cyrn }\IeC {\cyri }\IeC {\cyrishrt } \IeC {\cyrs }\IeC {\cyrt }\IeC {\cyre }\IeC {\cyrk }}{13}}
\@writefile{toc}{\contentsline {subsubsection}{\numberline {2.4.2}\IeC {\CYRO }\IeC {\cyrr }\IeC {\cyrg }\IeC {\cyra }\IeC {\cyrn }\IeC {\cyrii }\IeC {\cyrz }\IeC {\cyra }\IeC {\cyrc }\IeC {\cyrii }\IeC {\cyrya } \IeC {\cyrp }\IeC {\cyra }\IeC {\cyrm }'\IeC {\cyrya }\IeC {\cyrt }\IeC {\cyrii } \IeC {\cyrd }\IeC {\cyra }\IeC {\cyrn }\IeC {\cyrn }\IeC {\cyri }\IeC {\cyrh }}{14}}
\@writefile{toc}{\contentsline {paragraph}{\IeC {\CYRR }\IeC {\cyre }\IeC {\cyrg }\IeC {\cyrii }\IeC {\cyrs }\IeC {\cyrt }\IeC {\cyrr }\IeC {\cyri } \IeC {\cyrz }\IeC {\cyra }\IeC {\cyrg }\IeC {\cyra }\IeC {\cyrl }\IeC {\cyrsftsn }\IeC {\cyrn }\IeC {\cyro }\IeC {\cyrg }\IeC {\cyro } \IeC {\cyrp }\IeC {\cyrr }\IeC {\cyri }\IeC {\cyrz }\IeC {\cyrn }\IeC {\cyra }\IeC {\cyrch }\IeC {\cyre }\IeC {\cyrn }\IeC {\cyrn }\IeC {\cyrya } (GRP)}{15}}
\@writefile{toc}{\contentsline {paragraph}{\IeC {\CYRR }\IeC {\cyre }\IeC {\cyrg }\IeC {\cyrii }\IeC {\cyrs }\IeC {\cyrt }\IeC {\cyrr }\IeC {\cyri } \IeC {\cyrs }\IeC {\cyrp }\IeC {\cyre }\IeC {\cyrc }\IeC {\cyrii }\IeC {\cyra }\IeC {\cyrl }\IeC {\cyrsftsn }\IeC {\cyrn }\IeC {\cyro }\IeC {\cyrg }\IeC {\cyro } \IeC {\cyrp }\IeC {\cyrr }\IeC {\cyri }\IeC {\cyrz }\IeC {\cyrn }\IeC {\cyra }\IeC {\cyrch }\IeC {\cyre }\IeC {\cyrn }\IeC {\cyrn }\IeC {\cyrya } (SFR)}{15}}
\@writefile{lof}{\contentsline {figure}{\numberline {3}{\ignorespaces \IeC {\CYRM }\IeC {\cyra }\IeC {\cyrp }\IeC {\cyra } \IeC {\cyrr }\IeC {\cyre }\IeC {\cyrg }\IeC {\cyrii }\IeC {\cyrs }\IeC {\cyrt }\IeC {\cyrr }\IeC {\cyrii }\IeC {\cyrv } \IeC {\cyrm }\IeC {\cyrii }\IeC {\cyrk }\IeC {\cyrr }\IeC {\cyro }\IeC {\cyrk }\IeC {\cyro }\IeC {\cyrn }\IeC {\cyrt }\IeC {\cyrr }\IeC {\cyro }\IeC {\cyrl }\IeC {\cyrl }\IeC {\cyre }\IeC {\cyrr }\IeC {\cyra }\relax }}{16}}
\newlabel{fig:reg_map}{{3}{16}}
\@writefile{toc}{\contentsline {paragraph}{\IeC {\CYRK }\IeC {\cyro }\IeC {\cyrs }\IeC {\cyrv }\IeC {\cyre }\IeC {\cyrn }\IeC {\cyrn }\IeC {\cyra }\IeC {\cyrya } \IeC {\cyra }\IeC {\cyrd }\IeC {\cyrr }\IeC {\cyre }\IeC {\cyrs }\IeC {\cyra }\IeC {\cyrc }\IeC {\cyri }\IeC {\cyrya }, \IeC {\cyrr }\IeC {\cyre }\IeC {\cyrg }\IeC {\cyri }\IeC {\cyrs }\IeC {\cyrt }\IeC {\cyrr }\IeC {\cyrery } INDF \IeC {\cyri } FSR}{16}}
\@writefile{toc}{\contentsline {subsection}{\numberline {2.5}\IeC {\CYRR }\IeC {\cyre }\IeC {\cyrzh }\IeC {\cyri }\IeC {\cyrm }\IeC {\cyri } \IeC {\cyro }\IeC {\cyrb }\IeC {\cyrm }\IeC {\cyrii }\IeC {\cyrn }\IeC {\cyru } \IeC {\cyru } \IeC {\CYRM }\IeC {\CYRP }\IeC {\CYRS }}{17}}
\@writefile{toc}{\contentsline {subsubsection}{\numberline {2.5.1}\IeC {\CYRP }\IeC {\cyrr }\IeC {\cyro }\IeC {\cyrg }\IeC {\cyrr }\IeC {\cyra }\IeC {\cyrm }\IeC {\cyrn }\IeC {\cyri }\IeC {\cyrishrt } \IeC {\cyrr }\IeC {\cyre }\IeC {\cyrzh }\IeC {\cyri }\IeC {\cyrm } \IeC {\cyro }\IeC {\cyrb }\IeC {\cyrm }\IeC {\cyrii }\IeC {\cyrn }\IeC {\cyru }}{17}}
\@writefile{lof}{\contentsline {figure}{\numberline {4}{\ignorespaces \IeC {\CYRS }\IeC {\cyrh }\IeC {\cyre }\IeC {\cyrm }\IeC {\cyra } \IeC {\cyrp }\IeC {\cyrii }\IeC {\cyrd }\IeC {\cyrk }\IeC {\cyrl }\IeC {\cyryu }\IeC {\cyrch }\IeC {\cyre }\IeC {\cyrn }\IeC {\cyrn }\IeC {\cyrya } \IeC {\cyrz }\IeC {\cyro }\IeC {\cyrv }\IeC {\cyrn }\IeC {\cyrii }\IeC {\cyrsh }\IeC {\cyrn }\IeC {\cyrsftsn }\IeC {\cyro }\IeC {\cyrg }\IeC {\cyro } \IeC {\cyrp }\IeC {\cyrr }\IeC {\cyri }\IeC {\cyrs }\IeC {\cyrt }\IeC {\cyrr }\IeC {\cyro }\IeC {\cyryu } \IeC {\cyrd }\IeC {\cyro } \IeC {\cyrm }\IeC {\cyrii }\IeC {\cyrk }\IeC {\cyrr }\IeC {\cyro }\IeC {\cyrk }\IeC {\cyro }\IeC {\cyrn }\IeC {\cyrt }\IeC {\cyrr }\IeC {\cyro }\IeC {\cyrl }\IeC {\cyrl }\IeC {\cyre }\IeC {\cyrr }\IeC {\cyra }\relax }}{17}}
\newlabel{fig:per}{{4}{17}}
\@writefile{toc}{\contentsline {subsubsection}{\numberline {2.5.2}\IeC {\CYRR }\IeC {\cyre }\IeC {\cyrzh }\IeC {\cyri }\IeC {\cyrm } \IeC {\cyrp }\IeC {\cyre }\IeC {\cyrr }\IeC {\cyre }\IeC {\cyrr }\IeC {\cyri }\IeC {\cyrv }\IeC {\cyra }\IeC {\cyrn }\IeC {\cyrsftsn }}{18}}
\@writefile{toc}{\contentsline {subsubsection}{\numberline {2.5.3}\IeC {\CYRR }\IeC {\cyre }\IeC {\cyrzh }\IeC {\cyri }\IeC {\cyrm } \IeC {\cyrp }\IeC {\cyrr }\IeC {\cyrya }\IeC {\cyrm }\IeC {\cyro }\IeC {\cyrg }\IeC {\cyro } \IeC {\cyrd }\IeC {\cyro }\IeC {\cyrs }\IeC {\cyrt }\IeC {\cyru }\IeC {\cyrp }\IeC {\cyru } \IeC {\cyrd }\IeC {\cyro } \IeC {\cyrp }\IeC {\cyra }\IeC {\cyrm }'\IeC {\cyrya }\IeC {\cyrt }\IeC {\cyrii }}{18}}
\@writefile{toc}{\contentsline {section}{\numberline {3}\IeC {\CYRR }\IeC {\cyro }\IeC {\cyrz }\IeC {\cyrr }\IeC {\cyro }\IeC {\cyrb }\IeC {\cyrk }\IeC {\cyra } \IeC {\cyrp }\IeC {\cyrr }\IeC {\cyro }\IeC {\cyrg }\IeC {\cyrr }\IeC {\cyra }\IeC {\cyrm }\IeC {\cyrm }\IeC {\cyrn }\IeC {\cyro }\IeC {\cyrg }\IeC {\cyro } \IeC {\cyrz }\IeC {\cyra }\IeC {\cyrb }\IeC {\cyre }\IeC {\cyrs }\IeC {\cyrp }\IeC {\cyre }\IeC {\cyrch }\IeC {\cyre }\IeC {\cyrn }\IeC {\cyrn }\IeC {\cyrya }}{18}}
\@writefile{lof}{\contentsline {figure}{\numberline {5}{\ignorespaces \IeC {\CYRA }\IeC {\cyrl }\IeC {\cyrg }\IeC {\cyro }\IeC {\cyrr }\IeC {\cyri }\IeC {\cyrt }\IeC {\cyrm } \IeC {\cyrv }\IeC {\cyri }\IeC {\cyrr }\IeC {\cyrii }\IeC {\cyrsh }\IeC {\cyre }\IeC {\cyrn }\IeC {\cyrn }\IeC {\cyrya } \IeC {\cyrm }\IeC {\cyra }\IeC {\cyrt }\IeC {\cyre }\IeC {\cyrm }\IeC {\cyra }\IeC {\cyrt }\IeC {\cyri }\IeC {\cyrch }\IeC {\cyrn }\IeC {\cyro }\IeC {\cyrg }\IeC {\cyro } \IeC {\cyrv }\IeC {\cyri }\IeC {\cyrr }\IeC {\cyra }\IeC {\cyrz }\IeC {\cyru } \IeC {\cyrz }\IeC {\cyra } \IeC {\cyrv }\IeC {\cyra }\IeC {\cyrr }\IeC {\cyrii }\IeC {\cyra }\IeC {\cyrn }\IeC {\cyrt }\IeC {\cyro }\IeC {\cyrm }\relax }}{19}}
\newlabel{fig:alg}{{5}{19}}
\@writefile{toc}{\contentsline {section}{\numberline {4}\IeC {\CYRR }\IeC {\cyro }\IeC {\cyrz }\IeC {\cyrr }\IeC {\cyro }\IeC {\cyrb }\IeC {\cyrk }\IeC {\cyra } \IeC {\cyrf }\IeC {\cyru }\IeC {\cyrn }\IeC {\cyrk }\IeC {\cyrc }\IeC {\cyrii }\IeC {\cyro }\IeC {\cyrn }\IeC {\cyra }\IeC {\cyrl }\IeC {\cyrsftsn }\IeC {\cyrn }\IeC {\cyro }\IeC {\cyryi } \IeC {\cyrs }\IeC {\cyrh }\IeC {\cyre }\IeC {\cyrm }\IeC {\cyri }}{20}}
\@writefile{toc}{\contentsline {paragraph}{\IeC {\CYRR }\IeC {\cyre }\IeC {\cyrzh }\IeC {\cyri }\IeC {\cyrm } \IeC {\cyrp }\IeC {\cyrr }\IeC {\cyro }\IeC {\cyrg }\IeC {\cyrr }\IeC {\cyra }\IeC {\cyrm }\IeC {\cyrn }\IeC {\cyro }\IeC {\cyrg }\IeC {\cyro } \IeC {\cyrd }\IeC {\cyro }\IeC {\cyrs }\IeC {\cyrt }\IeC {\cyru }\IeC {\cyrp }\IeC {\cyru }}{20}}
\@writefile{toc}{\contentsline {paragraph}{\IeC {\CYRR }\IeC {\cyre }\IeC {\cyrzh }\IeC {\cyri }\IeC {\cyrm } \IeC {\cyrp }\IeC {\cyrr }\IeC {\cyrii }\IeC {\cyro }\IeC {\cyrr }\IeC {\cyrii }\IeC {\cyrt }\IeC {\cyre }\IeC {\cyrt }\IeC {\cyrn }\IeC {\cyri }\IeC {\cyrh } \IeC {\cyrp }\IeC {\cyre }\IeC {\cyrr }\IeC {\cyre }\IeC {\cyrr }\IeC {\cyri }\IeC {\cyrv }\IeC {\cyra }\IeC {\cyrn }\IeC {\cyrsftsn }}{20}}
\@writefile{toc}{\contentsline {section}{\numberline {5}\IeC {\CYRR }\IeC {\cyro }\IeC {\cyrz }\IeC {\cyrr }\IeC {\cyro }\IeC {\cyrb }\IeC {\cyrk }\IeC {\cyra } \IeC {\cyrp }\IeC {\cyrr }\IeC {\cyri }\IeC {\cyrn }\IeC {\cyrc }\IeC {\cyri }\IeC {\cyrp }\IeC {\cyro }\IeC {\cyrv }\IeC {\cyro }\IeC {\cyryi } \IeC {\cyrs }\IeC {\cyrh }\IeC {\cyre }\IeC {\cyrm }\IeC {\cyri }}{21}}
\bibcite{bib:pic16c82_sheet}{1}
\bibcite{bib:pic18FXX_sheet}{2}
\bibcite{bib:pic16_manual}{3}
\bibcite{bib:konsp}{4}
\@writefile{toc}{\contentsline {section}{{\Ukrainian  \CYRP \cyre \cyrr \cyre \cyrl \cyrii \cyrk \ \cyrp \cyro \cyrs \cyri \cyrl \cyra \cyrn \cyrsftsn }}{23}}
\@writefile{toc}{\contentsline {section}{\IeC {\CYRD }\IeC {\cyro }\IeC {\cyrd }\IeC {\cyra }\IeC {\cyrt }\IeC {\cyro }\IeC {\cyrk } 1. \IeC {\CYRV }\IeC {\cyri }\IeC {\cyrh }\IeC {\cyrii }\IeC {\cyrd }\IeC {\cyrn }\IeC {\cyri }\IeC {\cyrishrt } \IeC {\cyrk }\IeC {\cyro }\IeC {\cyrd } \IeC {\cyrp }\IeC {\cyrr }\IeC {\cyro }\IeC {\cyrg }\IeC {\cyrr }\IeC {\cyra }\IeC {\cyrm }\IeC {\cyri }}{24}}
\newlabel{LastPage}{{}{43}}
\ttl@finishall
