\select@language {ukrainian}
\contentsline {section}{\IeC {\CYRV }\IeC {\cyrs }\IeC {\cyrt }\IeC {\cyru }\IeC {\cyrp }}{2}
\contentsline {section}{\numberline {1}\IeC {\CYRO }\IeC {\cyrg }\IeC {\cyrl }\IeC {\cyrya }\IeC {\cyrd } \IeC {\cyrii }\IeC {\cyrs }\IeC {\cyrn }\IeC {\cyru }\IeC {\cyryu }\IeC {\cyrch }\IeC {\cyri }\IeC {\cyrh } \IeC {\cyrr }\IeC {\cyrii }\IeC {\cyrsh }\IeC {\cyre }\IeC {\cyrn }\IeC {\cyrsftsn }}{2}
\contentsline {section}{\numberline {2}\IeC {\CYRA }\IeC {\cyrr }\IeC {\cyrh }\IeC {\cyrii }\IeC {\cyrt }\IeC {\cyre }\IeC {\cyrk }\IeC {\cyrt }\IeC {\cyru }\IeC {\cyrr }\IeC {\cyra } \IeC {\cyrm }\IeC {\cyrii }\IeC {\cyrk }\IeC {\cyrr }\IeC {\cyro }\IeC {\cyrp }\IeC {\cyrr }\IeC {\cyro }\IeC {\cyrc }\IeC {\cyre }\IeC {\cyrs }\IeC {\cyrs }\IeC {\cyro }\IeC {\cyrr }\IeC {\cyrn }\IeC {\cyro }\IeC {\cyryi } \IeC {\cyrs }\IeC {\cyri }\IeC {\cyrs }\IeC {\cyrt }\IeC {\cyre }\IeC {\cyrm }\IeC {\cyri }}{6}
\contentsline {subsection}{\numberline {2.1}\IeC {\CYRO }\IeC {\cyrp }\IeC {\cyri }\IeC {\cyrs } \IeC {\cyrm }\IeC {\cyrii }\IeC {\cyrk }\IeC {\cyrr }\IeC {\cyro }\IeC {\cyrp }\IeC {\cyrr }\IeC {\cyro }\IeC {\cyrc }\IeC {\cyre }\IeC {\cyrs }\IeC {\cyrs }\IeC {\cyro }\IeC {\cyrr }\IeC {\cyrn }\IeC {\cyro }\IeC {\cyryi } \IeC {\cyrs }\IeC {\cyri }\IeC {\cyrs }\IeC {\cyrt }\IeC {\cyre }\IeC {\cyrm }\IeC {\cyri }}{6}
\contentsline {subsection}{\numberline {2.2}\IeC {\CYRO }\IeC {\cyrp }\IeC {\cyri }\IeC {\cyrs } \IeC {\cyrs }\IeC {\cyrt }\IeC {\cyrr }\IeC {\cyru }\IeC {\cyrk }\IeC {\cyrt }\IeC {\cyru }\IeC {\cyrr }\IeC {\cyri } \IeC {\cyrm }\IeC {\cyrii }\IeC {\cyrk }\IeC {\cyrr }\IeC {\cyro }\IeC {\cyrk }\IeC {\cyro }\IeC {\cyrn }\IeC {\cyrt }\IeC {\cyrr }\IeC {\cyro }\IeC {\cyrl }\IeC {\cyrl }\IeC {\cyre }\IeC {\cyrr }\IeC {\cyra }}{7}
\contentsline {subsection}{\numberline {2.3}\IeC {\CYRS }\IeC {\cyri }\IeC {\cyrs }\IeC {\cyrt }\IeC {\cyre }\IeC {\cyrm }\IeC {\cyra } \IeC {\cyrk }\IeC {\cyro }\IeC {\cyrm }\IeC {\cyra }\IeC {\cyrn }\IeC {\cyrd } \IeC {\cyrm }\IeC {\cyrii }\IeC {\cyrk }\IeC {\cyrr }\IeC {\cyro }\IeC {\cyrk }\IeC {\cyro }\IeC {\cyrn }\IeC {\cyrt }\IeC {\cyrr }\IeC {\cyro }\IeC {\cyrl }\IeC {\cyrl }\IeC {\cyre }\IeC {\cyrr }\IeC {\cyra }}{10}
\contentsline {subsection}{\numberline {2.4}\IeC {\CYRO }\IeC {\cyrr }\IeC {\cyrg }\IeC {\cyra }\IeC {\cyrn }\IeC {\cyrii }\IeC {\cyrz }\IeC {\cyra }\IeC {\cyrc }\IeC {\cyrii }\IeC {\cyrya } \IeC {\cyrp }\IeC {\cyra }\IeC {\cyrm }'\IeC {\cyrya }\IeC {\cyrt }\IeC {\cyrii } \IeC {\cyrm }\IeC {\cyrii }\IeC {\cyrk }\IeC {\cyrr }\IeC {\cyro }\IeC {\cyrk }\IeC {\cyro }\IeC {\cyrn }\IeC {\cyrt }\IeC {\cyrr }\IeC {\cyro }\IeC {\cyrl }\IeC {\cyrl }\IeC {\cyre }\IeC {\cyrr }\IeC {\cyra }}{12}
\contentsline {subsubsection}{\numberline {2.4.1}\IeC {\CYRO }\IeC {\cyrr }\IeC {\cyrg }\IeC {\cyra }\IeC {\cyrn }\IeC {\cyri }\IeC {\cyrz }\IeC {\cyra }\IeC {\cyrc }\IeC {\cyrii }\IeC {\cyrya } \IeC {\cyrp }\IeC {\cyra }\IeC {\cyrm }'\IeC {\cyrya }\IeC {\cyrt }\IeC {\cyrii } \IeC {\cyrp }\IeC {\cyrr }\IeC {\cyro }\IeC {\cyrg }\IeC {\cyrr }\IeC {\cyra }\IeC {\cyrm }}{12}
\contentsline {paragraph}{\IeC {\CYRV }\IeC {\cyre }\IeC {\cyrk }\IeC {\cyrt }\IeC {\cyro }\IeC {\cyrr } \IeC {\cyrs }\IeC {\cyrb }\IeC {\cyrr }\IeC {\cyro }\IeC {\cyrs }\IeC {\cyru }}{13}
\contentsline {paragraph}{\IeC {\CYRV }\IeC {\cyre }\IeC {\cyrk }\IeC {\cyrt }\IeC {\cyro }\IeC {\cyrr } \IeC {\cyrp }\IeC {\cyre }\IeC {\cyrr }\IeC {\cyre }\IeC {\cyrr }\IeC {\cyri }\IeC {\cyrv }\IeC {\cyra }\IeC {\cyrn }\IeC {\cyrsftsn }}{13}
\contentsline {paragraph}{(}{13}
\contentsline {paragraph}{\IeC {\CYRA }\IeC {\cyrp }\IeC {\cyrp }\IeC {\cyra }\IeC {\cyrr }\IeC {\cyra }\IeC {\cyrt }\IeC {\cyrn }\IeC {\cyri }\IeC {\cyrishrt } \IeC {\cyrs }\IeC {\cyrt }\IeC {\cyre }\IeC {\cyrk }}{13}
\contentsline {subsubsection}{\numberline {2.4.2}\IeC {\CYRO }\IeC {\cyrr }\IeC {\cyrg }\IeC {\cyra }\IeC {\cyrn }\IeC {\cyrii }\IeC {\cyrz }\IeC {\cyra }\IeC {\cyrc }\IeC {\cyrii }\IeC {\cyrya } \IeC {\cyrp }\IeC {\cyra }\IeC {\cyrm }'\IeC {\cyrya }\IeC {\cyrt }\IeC {\cyrii } \IeC {\cyrd }\IeC {\cyra }\IeC {\cyrn }\IeC {\cyrn }\IeC {\cyri }\IeC {\cyrh }}{14}
\contentsline {paragraph}{\IeC {\CYRR }\IeC {\cyre }\IeC {\cyrg }\IeC {\cyrii }\IeC {\cyrs }\IeC {\cyrt }\IeC {\cyrr }\IeC {\cyri } \IeC {\cyrz }\IeC {\cyra }\IeC {\cyrg }\IeC {\cyra }\IeC {\cyrl }\IeC {\cyrsftsn }\IeC {\cyrn }\IeC {\cyro }\IeC {\cyrg }\IeC {\cyro } \IeC {\cyrp }\IeC {\cyrr }\IeC {\cyri }\IeC {\cyrz }\IeC {\cyrn }\IeC {\cyra }\IeC {\cyrch }\IeC {\cyre }\IeC {\cyrn }\IeC {\cyrn }\IeC {\cyrya } (GRP)}{15}
\contentsline {paragraph}{\IeC {\CYRR }\IeC {\cyre }\IeC {\cyrg }\IeC {\cyrii }\IeC {\cyrs }\IeC {\cyrt }\IeC {\cyrr }\IeC {\cyri } \IeC {\cyrs }\IeC {\cyrp }\IeC {\cyre }\IeC {\cyrc }\IeC {\cyrii }\IeC {\cyra }\IeC {\cyrl }\IeC {\cyrsftsn }\IeC {\cyrn }\IeC {\cyro }\IeC {\cyrg }\IeC {\cyro } \IeC {\cyrp }\IeC {\cyrr }\IeC {\cyri }\IeC {\cyrz }\IeC {\cyrn }\IeC {\cyra }\IeC {\cyrch }\IeC {\cyre }\IeC {\cyrn }\IeC {\cyrn }\IeC {\cyrya } (SFR)}{15}
\contentsline {paragraph}{\IeC {\CYRK }\IeC {\cyro }\IeC {\cyrs }\IeC {\cyrv }\IeC {\cyre }\IeC {\cyrn }\IeC {\cyrn }\IeC {\cyra }\IeC {\cyrya } \IeC {\cyra }\IeC {\cyrd }\IeC {\cyrr }\IeC {\cyre }\IeC {\cyrs }\IeC {\cyra }\IeC {\cyrc }\IeC {\cyri }\IeC {\cyrya }, \IeC {\cyrr }\IeC {\cyre }\IeC {\cyrg }\IeC {\cyri }\IeC {\cyrs }\IeC {\cyrt }\IeC {\cyrr }\IeC {\cyrery } INDF \IeC {\cyri } FSR}{16}
\contentsline {subsection}{\numberline {2.5}\IeC {\CYRR }\IeC {\cyre }\IeC {\cyrzh }\IeC {\cyri }\IeC {\cyrm }\IeC {\cyri } \IeC {\cyro }\IeC {\cyrb }\IeC {\cyrm }\IeC {\cyrii }\IeC {\cyrn }\IeC {\cyru } \IeC {\cyru } \IeC {\CYRM }\IeC {\CYRP }\IeC {\CYRS }}{17}
\contentsline {subsubsection}{\numberline {2.5.1}\IeC {\CYRP }\IeC {\cyrr }\IeC {\cyro }\IeC {\cyrg }\IeC {\cyrr }\IeC {\cyra }\IeC {\cyrm }\IeC {\cyrn }\IeC {\cyri }\IeC {\cyrishrt } \IeC {\cyrr }\IeC {\cyre }\IeC {\cyrzh }\IeC {\cyri }\IeC {\cyrm } \IeC {\cyro }\IeC {\cyrb }\IeC {\cyrm }\IeC {\cyrii }\IeC {\cyrn }\IeC {\cyru }}{17}
\contentsline {subsubsection}{\numberline {2.5.2}\IeC {\CYRR }\IeC {\cyre }\IeC {\cyrzh }\IeC {\cyri }\IeC {\cyrm } \IeC {\cyrp }\IeC {\cyre }\IeC {\cyrr }\IeC {\cyre }\IeC {\cyrr }\IeC {\cyri }\IeC {\cyrv }\IeC {\cyra }\IeC {\cyrn }\IeC {\cyrsftsn }}{18}
\contentsline {subsubsection}{\numberline {2.5.3}\IeC {\CYRR }\IeC {\cyre }\IeC {\cyrzh }\IeC {\cyri }\IeC {\cyrm } \IeC {\cyrp }\IeC {\cyrr }\IeC {\cyrya }\IeC {\cyrm }\IeC {\cyro }\IeC {\cyrg }\IeC {\cyro } \IeC {\cyrd }\IeC {\cyro }\IeC {\cyrs }\IeC {\cyrt }\IeC {\cyru }\IeC {\cyrp }\IeC {\cyru } \IeC {\cyrd }\IeC {\cyro } \IeC {\cyrp }\IeC {\cyra }\IeC {\cyrm }'\IeC {\cyrya }\IeC {\cyrt }\IeC {\cyrii }}{18}
\contentsline {section}{\numberline {3}\IeC {\CYRR }\IeC {\cyro }\IeC {\cyrz }\IeC {\cyrr }\IeC {\cyro }\IeC {\cyrb }\IeC {\cyrk }\IeC {\cyra } \IeC {\cyrp }\IeC {\cyrr }\IeC {\cyro }\IeC {\cyrg }\IeC {\cyrr }\IeC {\cyra }\IeC {\cyrm }\IeC {\cyrm }\IeC {\cyrn }\IeC {\cyro }\IeC {\cyrg }\IeC {\cyro } \IeC {\cyrz }\IeC {\cyra }\IeC {\cyrb }\IeC {\cyre }\IeC {\cyrs }\IeC {\cyrp }\IeC {\cyre }\IeC {\cyrch }\IeC {\cyre }\IeC {\cyrn }\IeC {\cyrn }\IeC {\cyrya }}{18}
\contentsline {section}{\numberline {4}\IeC {\CYRR }\IeC {\cyro }\IeC {\cyrz }\IeC {\cyrr }\IeC {\cyro }\IeC {\cyrb }\IeC {\cyrk }\IeC {\cyra } \IeC {\cyrf }\IeC {\cyru }\IeC {\cyrn }\IeC {\cyrk }\IeC {\cyrc }\IeC {\cyrii }\IeC {\cyro }\IeC {\cyrn }\IeC {\cyra }\IeC {\cyrl }\IeC {\cyrsftsn }\IeC {\cyrn }\IeC {\cyro }\IeC {\cyryi } \IeC {\cyrs }\IeC {\cyrh }\IeC {\cyre }\IeC {\cyrm }\IeC {\cyri }}{20}
\contentsline {paragraph}{\IeC {\CYRR }\IeC {\cyre }\IeC {\cyrzh }\IeC {\cyri }\IeC {\cyrm } \IeC {\cyrp }\IeC {\cyrr }\IeC {\cyro }\IeC {\cyrg }\IeC {\cyrr }\IeC {\cyra }\IeC {\cyrm }\IeC {\cyrn }\IeC {\cyro }\IeC {\cyrg }\IeC {\cyro } \IeC {\cyrd }\IeC {\cyro }\IeC {\cyrs }\IeC {\cyrt }\IeC {\cyru }\IeC {\cyrp }\IeC {\cyru }}{20}
\contentsline {paragraph}{\IeC {\CYRR }\IeC {\cyre }\IeC {\cyrzh }\IeC {\cyri }\IeC {\cyrm } \IeC {\cyrp }\IeC {\cyrr }\IeC {\cyrii }\IeC {\cyro }\IeC {\cyrr }\IeC {\cyrii }\IeC {\cyrt }\IeC {\cyre }\IeC {\cyrt }\IeC {\cyrn }\IeC {\cyri }\IeC {\cyrh } \IeC {\cyrp }\IeC {\cyre }\IeC {\cyrr }\IeC {\cyre }\IeC {\cyrr }\IeC {\cyri }\IeC {\cyrv }\IeC {\cyra }\IeC {\cyrn }\IeC {\cyrsftsn }}{20}
\contentsline {section}{\numberline {5}\IeC {\CYRR }\IeC {\cyro }\IeC {\cyrz }\IeC {\cyrr }\IeC {\cyro }\IeC {\cyrb }\IeC {\cyrk }\IeC {\cyra } \IeC {\cyrp }\IeC {\cyrr }\IeC {\cyri }\IeC {\cyrn }\IeC {\cyrc }\IeC {\cyri }\IeC {\cyrp }\IeC {\cyro }\IeC {\cyrv }\IeC {\cyro }\IeC {\cyryi } \IeC {\cyrs }\IeC {\cyrh }\IeC {\cyre }\IeC {\cyrm }\IeC {\cyri }}{21}
\contentsline {section}{{\Ukrainian \CYRP \cyre \cyrr \cyre \cyrl \cyrii \cyrk \ \cyrp \cyro \cyrs \cyri \cyrl \cyra \cyrn \cyrsftsn }}{23}
\contentsline {section}{\IeC {\CYRD }\IeC {\cyro }\IeC {\cyrd }\IeC {\cyra }\IeC {\cyrt }\IeC {\cyro }\IeC {\cyrk } 1. \IeC {\CYRV }\IeC {\cyri }\IeC {\cyrh }\IeC {\cyrii }\IeC {\cyrd }\IeC {\cyrn }\IeC {\cyri }\IeC {\cyrishrt } \IeC {\cyrk }\IeC {\cyro }\IeC {\cyrd } \IeC {\cyrp }\IeC {\cyrr }\IeC {\cyro }\IeC {\cyrg }\IeC {\cyrr }\IeC {\cyra }\IeC {\cyrm }\IeC {\cyri }}{24}
\contentsfinish 
