<?xml version="1.0" encoding="UTF-8" standalone="no"?>
<!-- Created with Inkscape (http://www.inkscape.org/) -->

<svg
   xmlns:dc="http://purl.org/dc/elements/1.1/"
   xmlns:cc="http://creativecommons.org/ns#"
   xmlns:rdf="http://www.w3.org/1999/02/22-rdf-syntax-ns#"
   xmlns:svg="http://www.w3.org/2000/svg"
   xmlns="http://www.w3.org/2000/svg"
   xmlns:sodipodi="http://sodipodi.sourceforge.net/DTD/sodipodi-0.dtd"
   xmlns:inkscape="http://www.inkscape.org/namespaces/inkscape"
   width="744.09448819"
   height="1052.3622047"
   id="svg2"
   version="1.1"
   inkscape:version="0.47 r22583"
   sodipodi:docname="drawing.png">
  <defs
     id="defs4">
    <inkscape:perspective
       sodipodi:type="inkscape:persp3d"
       inkscape:vp_x="0 : 526.18109 : 1"
       inkscape:vp_y="0 : 1000 : 0"
       inkscape:vp_z="744.09448 : 526.18109 : 1"
       inkscape:persp3d-origin="372.04724 : 350.78739 : 1"
       id="perspective10" />
    <inkscape:perspective
       id="perspective3598"
       inkscape:persp3d-origin="0.5 : 0.33333333 : 1"
       inkscape:vp_z="1 : 0.5 : 1"
       inkscape:vp_y="0 : 1000 : 0"
       inkscape:vp_x="0 : 0.5 : 1"
       sodipodi:type="inkscape:persp3d" />
    <inkscape:perspective
       id="perspective3622"
       inkscape:persp3d-origin="0.5 : 0.33333333 : 1"
       inkscape:vp_z="1 : 0.5 : 1"
       inkscape:vp_y="0 : 1000 : 0"
       inkscape:vp_x="0 : 0.5 : 1"
       sodipodi:type="inkscape:persp3d" />
    <inkscape:perspective
       id="perspective3657"
       inkscape:persp3d-origin="0.5 : 0.33333333 : 1"
       inkscape:vp_z="1 : 0.5 : 1"
       inkscape:vp_y="0 : 1000 : 0"
       inkscape:vp_x="0 : 0.5 : 1"
       sodipodi:type="inkscape:persp3d" />
    <inkscape:perspective
       id="perspective3679"
       inkscape:persp3d-origin="0.5 : 0.33333333 : 1"
       inkscape:vp_z="1 : 0.5 : 1"
       inkscape:vp_y="0 : 1000 : 0"
       inkscape:vp_x="0 : 0.5 : 1"
       sodipodi:type="inkscape:persp3d" />
    <inkscape:perspective
       id="perspective3679-7"
       inkscape:persp3d-origin="0.5 : 0.33333333 : 1"
       inkscape:vp_z="1 : 0.5 : 1"
       inkscape:vp_y="0 : 1000 : 0"
       inkscape:vp_x="0 : 0.5 : 1"
       sodipodi:type="inkscape:persp3d" />
    <inkscape:perspective
       id="perspective3679-1"
       inkscape:persp3d-origin="0.5 : 0.33333333 : 1"
       inkscape:vp_z="1 : 0.5 : 1"
       inkscape:vp_y="0 : 1000 : 0"
       inkscape:vp_x="0 : 0.5 : 1"
       sodipodi:type="inkscape:persp3d" />
    <inkscape:perspective
       id="perspective3679-5"
       inkscape:persp3d-origin="0.5 : 0.33333333 : 1"
       inkscape:vp_z="1 : 0.5 : 1"
       inkscape:vp_y="0 : 1000 : 0"
       inkscape:vp_x="0 : 0.5 : 1"
       sodipodi:type="inkscape:persp3d" />
    <inkscape:perspective
       id="perspective3679-0"
       inkscape:persp3d-origin="0.5 : 0.33333333 : 1"
       inkscape:vp_z="1 : 0.5 : 1"
       inkscape:vp_y="0 : 1000 : 0"
       inkscape:vp_x="0 : 0.5 : 1"
       sodipodi:type="inkscape:persp3d" />
    <inkscape:perspective
       id="perspective3679-74"
       inkscape:persp3d-origin="0.5 : 0.33333333 : 1"
       inkscape:vp_z="1 : 0.5 : 1"
       inkscape:vp_y="0 : 1000 : 0"
       inkscape:vp_x="0 : 0.5 : 1"
       sodipodi:type="inkscape:persp3d" />
    <inkscape:perspective
       id="perspective3746"
       inkscape:persp3d-origin="0.5 : 0.33333333 : 1"
       inkscape:vp_z="1 : 0.5 : 1"
       inkscape:vp_y="0 : 1000 : 0"
       inkscape:vp_x="0 : 0.5 : 1"
       sodipodi:type="inkscape:persp3d" />
    <inkscape:perspective
       id="perspective3746-7"
       inkscape:persp3d-origin="0.5 : 0.33333333 : 1"
       inkscape:vp_z="1 : 0.5 : 1"
       inkscape:vp_y="0 : 1000 : 0"
       inkscape:vp_x="0 : 0.5 : 1"
       sodipodi:type="inkscape:persp3d" />
    <inkscape:perspective
       id="perspective3786"
       inkscape:persp3d-origin="0.5 : 0.33333333 : 1"
       inkscape:vp_z="1 : 0.5 : 1"
       inkscape:vp_y="0 : 1000 : 0"
       inkscape:vp_x="0 : 0.5 : 1"
       sodipodi:type="inkscape:persp3d" />
    <inkscape:perspective
       id="perspective3786-7"
       inkscape:persp3d-origin="0.5 : 0.33333333 : 1"
       inkscape:vp_z="1 : 0.5 : 1"
       inkscape:vp_y="0 : 1000 : 0"
       inkscape:vp_x="0 : 0.5 : 1"
       sodipodi:type="inkscape:persp3d" />
    <inkscape:perspective
       id="perspective3786-9"
       inkscape:persp3d-origin="0.5 : 0.33333333 : 1"
       inkscape:vp_z="1 : 0.5 : 1"
       inkscape:vp_y="0 : 1000 : 0"
       inkscape:vp_x="0 : 0.5 : 1"
       sodipodi:type="inkscape:persp3d" />
    <inkscape:perspective
       id="perspective3882"
       inkscape:persp3d-origin="0.5 : 0.33333333 : 1"
       inkscape:vp_z="1 : 0.5 : 1"
       inkscape:vp_y="0 : 1000 : 0"
       inkscape:vp_x="0 : 0.5 : 1"
       sodipodi:type="inkscape:persp3d" />
    <inkscape:perspective
       id="perspective3882-6"
       inkscape:persp3d-origin="0.5 : 0.33333333 : 1"
       inkscape:vp_z="1 : 0.5 : 1"
       inkscape:vp_y="0 : 1000 : 0"
       inkscape:vp_x="0 : 0.5 : 1"
       sodipodi:type="inkscape:persp3d" />
    <inkscape:perspective
       id="perspective3918"
       inkscape:persp3d-origin="0.5 : 0.33333333 : 1"
       inkscape:vp_z="1 : 0.5 : 1"
       inkscape:vp_y="0 : 1000 : 0"
       inkscape:vp_x="0 : 0.5 : 1"
       sodipodi:type="inkscape:persp3d" />
    <inkscape:perspective
       id="perspective3918-4"
       inkscape:persp3d-origin="0.5 : 0.33333333 : 1"
       inkscape:vp_z="1 : 0.5 : 1"
       inkscape:vp_y="0 : 1000 : 0"
       inkscape:vp_x="0 : 0.5 : 1"
       sodipodi:type="inkscape:persp3d" />
    <inkscape:perspective
       id="perspective3954"
       inkscape:persp3d-origin="0.5 : 0.33333333 : 1"
       inkscape:vp_z="1 : 0.5 : 1"
       inkscape:vp_y="0 : 1000 : 0"
       inkscape:vp_x="0 : 0.5 : 1"
       sodipodi:type="inkscape:persp3d" />
    <inkscape:perspective
       id="perspective4020"
       inkscape:persp3d-origin="0.5 : 0.33333333 : 1"
       inkscape:vp_z="1 : 0.5 : 1"
       inkscape:vp_y="0 : 1000 : 0"
       inkscape:vp_x="0 : 0.5 : 1"
       sodipodi:type="inkscape:persp3d" />
    <inkscape:perspective
       id="perspective4020-8"
       inkscape:persp3d-origin="0.5 : 0.33333333 : 1"
       inkscape:vp_z="1 : 0.5 : 1"
       inkscape:vp_y="0 : 1000 : 0"
       inkscape:vp_x="0 : 0.5 : 1"
       sodipodi:type="inkscape:persp3d" />
    <inkscape:perspective
       id="perspective4020-0"
       inkscape:persp3d-origin="0.5 : 0.33333333 : 1"
       inkscape:vp_z="1 : 0.5 : 1"
       inkscape:vp_y="0 : 1000 : 0"
       inkscape:vp_x="0 : 0.5 : 1"
       sodipodi:type="inkscape:persp3d" />
    <inkscape:perspective
       id="perspective4020-7"
       inkscape:persp3d-origin="0.5 : 0.33333333 : 1"
       inkscape:vp_z="1 : 0.5 : 1"
       inkscape:vp_y="0 : 1000 : 0"
       inkscape:vp_x="0 : 0.5 : 1"
       sodipodi:type="inkscape:persp3d" />
    <inkscape:perspective
       id="perspective4102"
       inkscape:persp3d-origin="0.5 : 0.33333333 : 1"
       inkscape:vp_z="1 : 0.5 : 1"
       inkscape:vp_y="0 : 1000 : 0"
       inkscape:vp_x="0 : 0.5 : 1"
       sodipodi:type="inkscape:persp3d" />
    <inkscape:perspective
       id="perspective4102-4"
       inkscape:persp3d-origin="0.5 : 0.33333333 : 1"
       inkscape:vp_z="1 : 0.5 : 1"
       inkscape:vp_y="0 : 1000 : 0"
       inkscape:vp_x="0 : 0.5 : 1"
       sodipodi:type="inkscape:persp3d" />
    <inkscape:perspective
       id="perspective4102-2"
       inkscape:persp3d-origin="0.5 : 0.33333333 : 1"
       inkscape:vp_z="1 : 0.5 : 1"
       inkscape:vp_y="0 : 1000 : 0"
       inkscape:vp_x="0 : 0.5 : 1"
       sodipodi:type="inkscape:persp3d" />
    <inkscape:perspective
       id="perspective4155"
       inkscape:persp3d-origin="0.5 : 0.33333333 : 1"
       inkscape:vp_z="1 : 0.5 : 1"
       inkscape:vp_y="0 : 1000 : 0"
       inkscape:vp_x="0 : 0.5 : 1"
       sodipodi:type="inkscape:persp3d" />
    <inkscape:perspective
       id="perspective4155-6"
       inkscape:persp3d-origin="0.5 : 0.33333333 : 1"
       inkscape:vp_z="1 : 0.5 : 1"
       inkscape:vp_y="0 : 1000 : 0"
       inkscape:vp_x="0 : 0.5 : 1"
       sodipodi:type="inkscape:persp3d" />
    <inkscape:perspective
       id="perspective4155-4"
       inkscape:persp3d-origin="0.5 : 0.33333333 : 1"
       inkscape:vp_z="1 : 0.5 : 1"
       inkscape:vp_y="0 : 1000 : 0"
       inkscape:vp_x="0 : 0.5 : 1"
       sodipodi:type="inkscape:persp3d" />
    <inkscape:perspective
       id="perspective4155-1"
       inkscape:persp3d-origin="0.5 : 0.33333333 : 1"
       inkscape:vp_z="1 : 0.5 : 1"
       inkscape:vp_y="0 : 1000 : 0"
       inkscape:vp_x="0 : 0.5 : 1"
       sodipodi:type="inkscape:persp3d" />
    <inkscape:perspective
       id="perspective4155-5"
       inkscape:persp3d-origin="0.5 : 0.33333333 : 1"
       inkscape:vp_z="1 : 0.5 : 1"
       inkscape:vp_y="0 : 1000 : 0"
       inkscape:vp_x="0 : 0.5 : 1"
       sodipodi:type="inkscape:persp3d" />
    <inkscape:perspective
       id="perspective4155-62"
       inkscape:persp3d-origin="0.5 : 0.33333333 : 1"
       inkscape:vp_z="1 : 0.5 : 1"
       inkscape:vp_y="0 : 1000 : 0"
       inkscape:vp_x="0 : 0.5 : 1"
       sodipodi:type="inkscape:persp3d" />
    <inkscape:perspective
       id="perspective4155-0"
       inkscape:persp3d-origin="0.5 : 0.33333333 : 1"
       inkscape:vp_z="1 : 0.5 : 1"
       inkscape:vp_y="0 : 1000 : 0"
       inkscape:vp_x="0 : 0.5 : 1"
       sodipodi:type="inkscape:persp3d" />
    <inkscape:perspective
       id="perspective4155-7"
       inkscape:persp3d-origin="0.5 : 0.33333333 : 1"
       inkscape:vp_z="1 : 0.5 : 1"
       inkscape:vp_y="0 : 1000 : 0"
       inkscape:vp_x="0 : 0.5 : 1"
       sodipodi:type="inkscape:persp3d" />
    <inkscape:perspective
       id="perspective4155-49"
       inkscape:persp3d-origin="0.5 : 0.33333333 : 1"
       inkscape:vp_z="1 : 0.5 : 1"
       inkscape:vp_y="0 : 1000 : 0"
       inkscape:vp_x="0 : 0.5 : 1"
       sodipodi:type="inkscape:persp3d" />
    <inkscape:perspective
       id="perspective4155-63"
       inkscape:persp3d-origin="0.5 : 0.33333333 : 1"
       inkscape:vp_z="1 : 0.5 : 1"
       inkscape:vp_y="0 : 1000 : 0"
       inkscape:vp_x="0 : 0.5 : 1"
       sodipodi:type="inkscape:persp3d" />
  </defs>
  <sodipodi:namedview
     id="base"
     pagecolor="#ffffff"
     bordercolor="#666666"
     borderopacity="1.0"
     inkscape:pageopacity="0.0"
     inkscape:pageshadow="2"
     inkscape:zoom="1.4"
     inkscape:cx="313.09596"
     inkscape:cy="148.08101"
     inkscape:document-units="px"
     inkscape:current-layer="layer1"
     showgrid="false"
     showguides="true"
     inkscape:guide-bbox="true"
     inkscape:window-width="1440"
     inkscape:window-height="826"
     inkscape:window-x="0"
     inkscape:window-y="25"
     inkscape:window-maximized="1" />
  <metadata
     id="metadata7">
    <rdf:RDF>
      <cc:Work
         rdf:about="">
        <dc:format>image/svg+xml</dc:format>
        <dc:type
           rdf:resource="http://purl.org/dc/dcmitype/StillImage" />
        <dc:title></dc:title>
      </cc:Work>
    </rdf:RDF>
  </metadata>
  <g
     inkscape:label="Layer 1"
     inkscape:groupmode="layer"
     id="layer1">
    <path
       sodipodi:type="arc"
       style="fill:none;stroke:#000000;stroke-width:1px;stroke-linecap:butt;stroke-linejoin:miter;stroke-opacity:1"
       id="path2816"
       sodipodi:cx="344.46201"
       sodipodi:cy="56.351772"
       sodipodi:rx="76.771591"
       sodipodi:ry="19.192898"
       d="m 421.2336,56.351772 a 76.771591,19.192898 0 1 1 -153.54319,0 76.771591,19.192898 0 1 1 153.54319,0 z"
       transform="translate(58.588848,-2.0203051)" />
    <path
       transform="translate(175.76655,729.33014)"
       sodipodi:type="arc"
       style="fill:none;stroke:#000000;stroke-width:1px;stroke-linecap:butt;stroke-linejoin:miter;stroke-opacity:1"
       id="path2816-8"
       sodipodi:cx="344.46201"
       sodipodi:cy="56.351772"
       sodipodi:rx="76.771591"
       sodipodi:ry="19.192898"
       d="m 421.2336,56.351772 a 76.771591,19.192898 0 1 1 -153.54319,0 76.771591,19.192898 0 1 1 153.54319,0 z" />
    <rect
       style="fill:none;stroke:#000000;stroke-width:1;stroke-miterlimit:4;stroke-opacity:1;stroke-dasharray:none;stroke-dashoffset:0"
       id="rect3612"
       width="72.73098"
       height="30.304577"
       x="369.71582"
       y="94.737564" />
    <rect
       style="fill:none;stroke:#000000;stroke-width:1;stroke-miterlimit:4;stroke-opacity:1;stroke-dasharray:none;stroke-dashoffset:0"
       id="rect3612-6"
       width="72.73098"
       height="30.304577"
       x="368.70566"
       y="150.29596" />
    <rect
       style="fill:none;stroke:#000000;stroke-width:0.66911811;stroke-miterlimit:4;stroke-opacity:1;stroke-dasharray:none;stroke-dashoffset:0"
       id="rect3638"
       width="38.526947"
       height="38.526947"
       x="435.58325"
       y="-132.98817"
       transform="matrix(0.70710678,0.70710678,-0.70710678,0.70710678,0,0)" />
    <rect
       style="fill:none;stroke:#000000;stroke-width:0.66911811;stroke-miterlimit:4;stroke-opacity:1;stroke-dasharray:none;stroke-dashoffset:0"
       id="rect3638-6"
       width="38.526947"
       height="38.526947"
       x="408.4404"
       y="37.011814"
       transform="matrix(0.70710678,0.70710678,-0.70710678,0.70710678,0,0)" />
    <rect
       style="fill:none;stroke:#000000;stroke-width:1;stroke-miterlimit:4;stroke-opacity:1;stroke-dasharray:none;stroke-dashoffset:0"
       id="rect3612-6-8"
       width="72.73098"
       height="30.304577"
       x="227.28433"
       y="265.45337" />
    <rect
       style="fill:none;stroke:#000000;stroke-width:1;stroke-miterlimit:4;stroke-opacity:1;stroke-dasharray:none;stroke-dashoffset:0"
       id="rect3612-6-3"
       width="72.73098"
       height="30.304577"
       x="229.30463"
       y="403.84427" />
    <rect
       style="fill:none;stroke:#000000;stroke-width:1;stroke-miterlimit:4;stroke-opacity:1;stroke-dasharray:none;stroke-dashoffset:0"
       id="rect3612-6-34"
       width="72.73098"
       height="30.304577"
       x="113.13708"
       y="403.84424" />
    <rect
       style="fill:none;stroke:#000000;stroke-width:1;stroke-miterlimit:4;stroke-opacity:1;stroke-dasharray:none;stroke-dashoffset:0"
       id="rect3612-6-7"
       width="72.73098"
       height="30.304577"
       x="367.69553"
       y="290.70715" />
    <rect
       style="fill:none;stroke:#000000;stroke-width:1;stroke-miterlimit:4;stroke-opacity:1;stroke-dasharray:none;stroke-dashoffset:0"
       id="rect3612-6-2"
       width="72.73098"
       height="30.304577"
       x="366.68536"
       y="344.24524" />
    <rect
       style="fill:none;stroke:#000000;stroke-width:1;stroke-miterlimit:4;stroke-opacity:1;stroke-dasharray:none;stroke-dashoffset:0"
       id="rect3612-6-35"
       width="72.73098"
       height="30.304577"
       x="365.67523"
       y="471.52451" />
    <rect
       style="fill:none;stroke:#000000;stroke-width:0.66911811;stroke-miterlimit:4;stroke-opacity:1;stroke-dasharray:none;stroke-dashoffset:0"
       id="rect3638-1"
       width="38.526947"
       height="38.526947"
       x="565.58319"
       y="-4.4167519"
       transform="matrix(0.70710678,0.70710678,-0.70710678,0.70710678,0,0)" />
    <rect
       style="fill:none;stroke:#000000;stroke-width:0.66911811;stroke-miterlimit:4;stroke-opacity:1;stroke-dasharray:none;stroke-dashoffset:0"
       id="rect3638-9"
       width="38.526947"
       height="38.526947"
       x="740.22607"
       y="10.226104"
       transform="matrix(0.70710678,0.70710678,-0.70710678,0.70710678,0,0)" />
    <rect
       style="fill:none;stroke:#000000;stroke-width:1;stroke-miterlimit:4;stroke-opacity:1;stroke-dasharray:none;stroke-dashoffset:0"
       id="rect3612-6-35-1"
       width="72.73098"
       height="30.304577"
       x="483.86307"
       y="697.79865" />
    <rect
       style="fill:none;stroke:#000000;stroke-width:1;stroke-miterlimit:4;stroke-opacity:1;stroke-dasharray:none;stroke-dashoffset:0"
       id="rect3612-6-35-4"
       width="72.73098"
       height="30.304577"
       x="571.74634"
       y="589.71234" />
    <rect
       style="fill:none;stroke:#000000;stroke-width:1;stroke-miterlimit:4;stroke-opacity:1;stroke-dasharray:none;stroke-dashoffset:0"
       id="rect3612-6-35-2"
       width="72.73098"
       height="30.304577"
       x="572.75647"
       y="636.17932" />
    <path
       style="fill:none;stroke:#000000;stroke-width:1px;stroke-linecap:butt;stroke-linejoin:miter;stroke-opacity:1"
       d="m 405.07117,72.514214 c 0,21.213203 0,22.223356 0,22.223356 l 1.01015,0"
       id="path3818" />
    <path
       style="fill:none;stroke:#000000;stroke-width:1px;stroke-linecap:butt;stroke-linejoin:miter;stroke-opacity:1"
       d="m 405.07117,124.03199 0,26.26397"
       id="path3820" />
    <path
       style="fill:none;stroke:#000000;stroke-width:1px;stroke-linecap:butt;stroke-linejoin:miter;stroke-opacity:1"
       d="m 402.29325,213.93557 0,-33.33503"
       id="path3822" />
    <path
       style="fill:none;stroke:#000000;stroke-width:1px;stroke-linecap:butt;stroke-linejoin:miter;stroke-opacity:1"
       d="m 402.04071,268.48381 0,22.22335"
       id="path3824" />
    <path
       style="fill:none;stroke:#000000;stroke-width:1px;stroke-linecap:butt;stroke-linejoin:miter;stroke-opacity:1"
       d="m 374.51406,241.20969 -112.63201,0 0,23.99112"
       id="path3826" />
    <path
       style="fill:none;stroke:#000000;stroke-width:1px;stroke-linecap:butt;stroke-linejoin:miter;stroke-opacity:1"
       d="m 262.5,314.86218 0,-19.28571"
       id="path3828" />
    <path
       style="fill:none;stroke:#000000;stroke-width:1px;stroke-linecap:butt;stroke-linejoin:miter;stroke-opacity:1"
       d="m 262.5,368.79075 0,34.64286"
       id="path3830" />
    <path
       style="fill:none;stroke:#000000;stroke-width:1px;stroke-linecap:butt;stroke-linejoin:miter;stroke-opacity:1"
       d="m 402.85714,320.93361 0,23.57143"
       id="path3832" />
    <path
       style="fill:none;stroke:#000000;stroke-width:1px;stroke-linecap:butt;stroke-linejoin:miter;stroke-opacity:1"
       d="m 402.85715,373.79075 0,22.85714"
       id="path3834" />
    <path
       style="fill:none;stroke:#000000;stroke-width:1px;stroke-linecap:butt;stroke-linejoin:miter;stroke-opacity:1"
       d="m 402.85714,450.57647 0,20.71428"
       id="path3836" />
    <path
       style="fill:none;stroke:#000000;stroke-width:1px;stroke-linecap:butt;stroke-linejoin:miter;stroke-opacity:1"
       d="m 235.11301,342.22494 -81.06475,0 0,61.11423"
       id="path3838" />
    <path
       style="fill:none;stroke:#000000;stroke-width:1px;stroke-linecap:butt;stroke-linejoin:miter;stroke-opacity:1"
       d="m 263.57143,433.79075 c 0,2.85715 0,50.71429 0,50.71429 l -197.857144,0 0,-287.85714 335.714284,0"
       id="path3840" />
    <path
       style="fill:none;stroke:#000000;stroke-width:1px;stroke-linecap:butt;stroke-linejoin:miter;stroke-opacity:1"
       d="m 154.04826,434.14882 0,50.50763"
       id="path3842" />
    <path
       style="fill:none;stroke:#000000;stroke-width:1.04343116px;stroke-linecap:butt;stroke-linejoin:miter;stroke-opacity:1"
       d="m 430.3467,423.56394 85.81953,0 0,106.52766 -0.55012,-0.50487"
       id="path3844" />
    <path
       style="fill:none;stroke:#000000;stroke-width:1px;stroke-linecap:butt;stroke-linejoin:miter;stroke-opacity:1"
       d="m 404.56609,501.82905 0,10.6066 112.12694,0"
       id="path3846" />
    <path
       style="fill:none;stroke:#000000;stroke-width:1px;stroke-linecap:butt;stroke-linejoin:miter;stroke-opacity:1"
       d="m 516.18795,585.16663 c 0,3.53553 0,112.63201 0,112.63201"
       id="path3848" />
    <path
       style="fill:none;stroke:#000000;stroke-width:1px;stroke-linecap:butt;stroke-linejoin:miter;stroke-opacity:1"
       d="m 543.46207,557.89251 64.64976,0 0,31.81981"
       id="path3850" />
    <path
       style="fill:none;stroke:#000000;stroke-width:1px;stroke-linecap:butt;stroke-linejoin:miter;stroke-opacity:1"
       d="m 608.61691,619.51182 0,16.16244"
       id="path3852" />
    <path
       style="fill:none;stroke:#000000;stroke-width:1px;stroke-linecap:butt;stroke-linejoin:miter;stroke-opacity:1"
       d="m 608.61691,666.48391 0,16.16244 -92.93404,0"
       id="path3854" />
    <path
       style="fill:none;stroke:#000000;stroke-width:1px;stroke-linecap:butt;stroke-linejoin:miter;stroke-opacity:1"
       d="m 518.20826,728.10322 0,37.88072"
       id="path3856" />
    <text
       xml:space="preserve"
       style="font-size:12px;font-style:normal;font-weight:normal;fill:#000000;fill-opacity:1;stroke:none;font-family:Bitstream Vera Sans"
       x="381.42856"
       y="56.647896"
       id="text3858"><tspan
         sodipodi:role="line"
         id="tspan3862"
         x="381.42856"
         y="56.647896">Начало</tspan></text>
    <text
       xml:space="preserve"
       style="font-size:12px;font-style:normal;font-weight:normal;fill:#000000;fill-opacity:1;stroke:none;font-family:Bitstream Vera Sans"
       x="504.28574"
       y="789.50507"
       id="text3866"><tspan
         sodipodi:role="line"
         id="tspan3868"
         x="504.28574"
         y="789.50507">Конец</tspan></text>
    <text
       xml:space="preserve"
       style="font-size:12px;font-style:normal;font-weight:normal;fill:#000000;fill-opacity:1;stroke:none;font-family:Bitstream Vera Sans"
       x="392.77603"
       y="112.83366"
       id="text3870"><tspan
         sodipodi:role="line"
         id="tspan3872"
         x="392.77603"
         y="112.83366"
         dy="0 -7.5761447 15.657366"
         dx="0 0 -7.5761447">V1B1</tspan></text>
    <text
       xml:space="preserve"
       style="font-size:12px;font-style:normal;font-weight:normal;fill:#000000;fill-opacity:1;stroke:none;font-family:Bitstream Vera Sans"
       x="135.92464"
       y="423.11801"
       id="text3870-4"><tspan
         sodipodi:role="line"
         id="tspan3872-3"
         x="135.92464"
         y="423.11801"
         dy="0 -7.5761447 15.657366"
         dx="0 0 -7.5761447">V1B2</tspan></text>
    <text
       xml:space="preserve"
       style="font-size:12px;font-style:normal;font-weight:normal;fill:#000000;fill-opacity:1;stroke:none;font-family:Bitstream Vera Sans"
       x="253.10233"
       y="423.11801"
       id="text3870-9"><tspan
         sodipodi:role="line"
         id="tspan3872-1"
         x="253.10233"
         y="423.11801"
         dy="0 7.0710678 0 -15.152288"
         dx="0 0 0 -12.626907">VB32</tspan></text>
    <text
       xml:space="preserve"
       style="font-size:12px;font-style:normal;font-weight:normal;fill:#000000;fill-opacity:1;stroke:none;font-family:Bitstream Vera Sans"
       x="388.42178"
       y="363.76569"
       id="text3870-9-4"><tspan
         sodipodi:role="line"
         id="tspan3872-1-1"
         x="388.42178"
         y="363.76569"
         dy="0 7.0710678 0 -15.152288"
         dx="0 0 0 -12.626907">VB42</tspan></text>
    <text
       xml:space="preserve"
       style="font-size:12px;font-style:normal;font-weight:normal;fill:#000000;fill-opacity:1;stroke:none;font-family:Bitstream Vera Sans"
       x="596.51318"
       y="656.20483"
       id="text3870-9-5"><tspan
         sodipodi:role="line"
         id="tspan3872-1-6"
         x="596.51318"
         y="656.20483"
         dy="0 7.0710678 0 -15.657365"
         dx="0 0 0 -11.111679">VB53</tspan></text>
    <text
       xml:space="preserve"
       style="font-size:12px;font-style:normal;font-weight:normal;fill:#000000;fill-opacity:1;stroke:none;font-family:Bitstream Vera Sans"
       x="508.16879"
       y="718.07672"
       id="text3870-9-5-8"><tspan
         sodipodi:role="line"
         id="tspan3872-1-6-2"
         x="508.16879"
         y="718.07672"
         dy="0 7.0710678 0 -15.657365"
         dx="0 0 0 -11.111679">VB63</tspan></text>
    <text
       xml:space="preserve"
       style="font-size:12px;font-style:normal;font-weight:normal;fill:#000000;fill-opacity:1;stroke:none;font-family:Bitstream Vera Sans"
       x="389.64285"
       y="244.50504"
       id="text3992"><tspan
         sodipodi:role="line"
         id="tspan3994"
         x="389.64285"
         y="244.50504">N=7</tspan></text>
    <text
       xml:space="preserve"
       style="font-size:12px;font-style:normal;font-weight:normal;fill:#000000;fill-opacity:1;stroke:none;font-family:Bitstream Vera Sans"
       x="244.28571"
       y="346.29074"
       id="text3996"><tspan
         sodipodi:role="line"
         id="tspan3998"
         x="244.28571"
         y="346.29074">K&gt;=0</tspan></text>
    <text
       xml:space="preserve"
       style="font-size:12px;font-style:normal;font-weight:normal;fill:#000000;fill-opacity:1;stroke:none;font-family:Bitstream Vera Sans"
       x="392.85715"
       y="427.36218"
       id="text4000"><tspan
         sodipodi:role="line"
         id="tspan4002"
         x="392.85715"
         y="427.36218">i&lt;0</tspan></text>
    <text
       xml:space="preserve"
       style="font-size:12px;font-style:normal;font-weight:normal;fill:#000000;fill-opacity:1;stroke:none;font-family:Bitstream Vera Sans"
       x="503.57141"
       y="558.79077"
       id="text4004"><tspan
         sodipodi:role="line"
         id="tspan4006"
         x="503.57141"
         y="558.79077">j!=0</tspan></text>
    <text
       xml:space="preserve"
       style="font-size:12px;font-style:normal;font-weight:normal;fill:#000000;fill-opacity:1;stroke:none;font-family:Bitstream Vera Sans"
       x="394.28571"
       y="165.21933"
       id="text4008"><tspan
         sodipodi:role="line"
         id="tspan4010"
         x="394.28571"
         y="165.21933"
         dy="0 5">VA1</tspan></text>
    <text
       xml:space="preserve"
       style="font-size:12px;font-style:normal;font-weight:normal;fill:#000000;fill-opacity:1;stroke:none;font-family:Bitstream Vera Sans"
       x="251.34346"
       y="281.37909"
       id="text4008-9"><tspan
         sodipodi:role="line"
         id="tspan4010-6"
         x="251.34346"
         y="281.37909"
         dy="0 5">VA2</tspan></text>
    <text
       xml:space="preserve"
       style="font-size:12px;font-style:normal;font-weight:normal;fill:#000000;fill-opacity:1;stroke:none;font-family:Bitstream Vera Sans"
       x="391.34348"
       y="309.23621"
       id="text4008-8"><tspan
         sodipodi:role="line"
         id="tspan4010-9"
         x="391.34348"
         y="309.23621"
         dy="0 5">VA3</tspan></text>
    <text
       xml:space="preserve"
       style="font-size:12px;font-style:normal;font-weight:normal;fill:#000000;fill-opacity:1;stroke:none;font-family:Bitstream Vera Sans"
       x="392.05777"
       y="487.09335"
       id="text4008-2"><tspan
         sodipodi:role="line"
         id="tspan4010-95"
         x="392.05777"
         y="487.09335"
         dy="0 5">VA4</tspan></text>
    <text
       xml:space="preserve"
       style="font-size:12px;font-style:normal;font-weight:normal;fill:#000000;fill-opacity:1;stroke:none;font-family:Bitstream Vera Sans"
       x="597.77203"
       y="607.09332"
       id="text4008-98"><tspan
         sodipodi:role="line"
         id="tspan4010-5"
         x="597.77203"
         y="607.09332"
         dy="0 5">VA5</tspan></text>
    <text
       xml:space="preserve"
       style="font-size:12px;font-style:normal;font-weight:normal;fill:#000000;fill-opacity:1;stroke:none;font-family:Bitstream Vera Sans"
       x="430.71429"
       y="214.50504"
       id="text4070"><tspan
         sodipodi:role="line"
         id="tspan4072"
         x="430.71429"
         y="214.50504"
         dy="0 0 0 0 0 -12.857145"
         dx="0 0 0 0 0 -15.000003">N=1,7__</tspan></text>
    <text
       xml:space="preserve"
       style="font-size:12px;font-style:normal;font-weight:normal;fill:#000000;fill-opacity:1;stroke:none;font-family:Bitstream Vera Sans"
       x="297.14285"
       y="325.93362"
       id="text4078"><tspan
         sodipodi:role="line"
         id="tspan4080"
         x="297.14285"
         y="325.93362"
         dy="0 0 0 0 0 0 -12.857145"
         dx="0 0 0 0 0 0 -15.714288">K=-5,2__</tspan></text>
    <text
       xml:space="preserve"
       style="font-size:12px;font-style:normal;font-weight:normal;fill:#000000;fill-opacity:1;stroke:none;font-family:Bitstream Vera Sans"
       x="450"
       y="405.93362"
       id="text4082"><tspan
         sodipodi:role="line"
         id="tspan4084"
         x="450"
         y="405.93362"
         dy="0 0 0 0 0 0 -12.857145"
         dx="0 0 0 0 0 0 -15.714289">i=-2,2__</tspan></text>
    <text
       xml:space="preserve"
       style="font-size:12px;font-style:normal;font-weight:normal;fill:#000000;fill-opacity:1;stroke:none;font-family:Bitstream Vera Sans"
       x="541.42859"
       y="526.64789"
       id="text4086"><tspan
         sodipodi:role="line"
         id="tspan4088"
         x="541.42859"
         y="526.64789"
         dy="0 0 0 0 0 0 -15.000003"
         dx="0 0 0 0 0 0 -16.428574">j=-3,4__</tspan></text>
    <text
       xml:space="preserve"
       style="font-size:12px;font-style:normal;font-weight:normal;fill:#000000;fill-opacity:1;stroke:none;font-family:Bitstream Vera Sans"
       x="415"
       y="265.93362"
       id="text4090"><tspan
         sodipodi:role="line"
         id="tspan4092"
         x="415"
         y="265.93362">да</tspan></text>
    <text
       xml:space="preserve"
       style="font-size:12px;font-style:normal;font-weight:normal;fill:#000000;fill-opacity:1;stroke:none;font-family:Bitstream Vera Sans"
       x="272.40625"
       y="382.03629"
       id="text4090-7"><tspan
         sodipodi:role="line"
         id="tspan4092-8"
         x="272.40625"
         y="382.03629">да</tspan></text>
    <text
       xml:space="preserve"
       style="font-size:12px;font-style:normal;font-weight:normal;fill:#000000;fill-opacity:1;stroke:none;font-family:Bitstream Vera Sans"
       x="415.2634"
       y="462.03629"
       id="text4090-5"><tspan
         sodipodi:role="line"
         id="tspan4092-4"
         x="415.2634"
         y="462.03629">да</tspan></text>
    <text
       xml:space="preserve"
       style="font-size:12px;font-style:normal;font-weight:normal;fill:#000000;fill-opacity:1;stroke:none;font-family:Bitstream Vera Sans"
       x="487.40625"
       y="599.17914"
       id="text4090-2"><tspan
         sodipodi:role="line"
         id="tspan4092-3"
         x="487.40625"
         y="599.17914">да</tspan></text>
    <path
       sodipodi:type="arc"
       style="fill:none;stroke:#000000;stroke-width:1;stroke-linecap:butt;stroke-linejoin:miter;stroke-miterlimit:4;stroke-opacity:1;stroke-dasharray:1, 1;stroke-dashoffset:0"
       id="path4141"
       sodipodi:cx="183.92857"
       sodipodi:cy="100.57647"
       sodipodi:rx="16.071428"
       sodipodi:ry="16.071428"
       d="m 200,100.57647 a 16.071428,16.071428 0 1 1 -32.14285,0 16.071428,16.071428 0 1 1 32.14285,0 z"
       transform="translate(140.71429,7.8571429)" />
    <text
       xml:space="preserve"
       style="font-size:12px;font-style:normal;font-weight:normal;fill:#000000;fill-opacity:1;stroke:none;font-family:Bitstream Vera Sans"
       x="318.57141"
       y="113.07646"
       id="text4143"><tspan
         sodipodi:role="line"
         id="tspan4145"
         x="318.57141"
         y="113.07646">V1</tspan></text>
    <path
       transform="translate(138.92857,63.214284)"
       sodipodi:type="arc"
       style="fill:none;stroke:#000000;stroke-width:1;stroke-linecap:butt;stroke-linejoin:miter;stroke-miterlimit:4;stroke-opacity:1;stroke-dasharray:1, 1;stroke-dashoffset:0"
       id="path4141-0"
       sodipodi:cx="183.92857"
       sodipodi:cy="100.57647"
       sodipodi:rx="16.071428"
       sodipodi:ry="16.071428"
       d="m 200,100.57647 a 16.071428,16.071428 0 1 1 -32.14285,0 16.071428,16.071428 0 1 1 32.14285,0 z" />
    <text
       xml:space="preserve"
       style="font-size:12px;font-style:normal;font-weight:normal;fill:#000000;fill-opacity:1;stroke:none;font-family:Bitstream Vera Sans"
       x="316.78571"
       y="168.43361"
       id="text4143-6"><tspan
         sodipodi:role="line"
         id="tspan4145-2"
         x="316.78571"
         y="168.43361">V2</tspan></text>
    <path
       transform="translate(-0.35714509,177.5)"
       sodipodi:type="arc"
       style="fill:none;stroke:#000000;stroke-width:1;stroke-linecap:butt;stroke-linejoin:miter;stroke-miterlimit:4;stroke-opacity:1;stroke-dasharray:1, 1;stroke-dashoffset:0"
       id="path4141-7"
       sodipodi:cx="183.92857"
       sodipodi:cy="100.57647"
       sodipodi:rx="16.071428"
       sodipodi:ry="16.071428"
       d="m 200,100.57647 a 16.071428,16.071428 0 1 1 -32.14285,0 16.071428,16.071428 0 1 1 32.14285,0 z" />
    <text
       xml:space="preserve"
       style="font-size:12px;font-style:normal;font-weight:normal;fill:#000000;fill-opacity:1;stroke:none;font-family:Bitstream Vera Sans"
       x="177.5"
       y="282.71933"
       id="text4143-8"><tspan
         sodipodi:role="line"
         id="tspan4145-8"
         x="177.5"
         y="282.71933">V3</tspan></text>
    <path
       transform="translate(141.07143,318.92857)"
       sodipodi:type="arc"
       style="fill:none;stroke:#000000;stroke-width:1;stroke-linecap:butt;stroke-linejoin:miter;stroke-miterlimit:4;stroke-opacity:1;stroke-dasharray:1, 1;stroke-dashoffset:0"
       id="path4141-1"
       sodipodi:cx="183.92857"
       sodipodi:cy="100.57647"
       sodipodi:rx="16.071428"
       sodipodi:ry="16.071428"
       d="m 200,100.57647 a 16.071428,16.071428 0 1 1 -32.14285,0 16.071428,16.071428 0 1 1 32.14285,0 z" />
    <text
       xml:space="preserve"
       style="font-size:12px;font-style:normal;font-weight:normal;fill:#000000;fill-opacity:1;stroke:none;font-family:Bitstream Vera Sans"
       x="318.92859"
       y="424.14789"
       id="text4143-2"><tspan
         sodipodi:role="line"
         id="tspan4145-27"
         x="318.92859"
         y="424.14789">V4</tspan></text>
    <path
       transform="translate(-92.500002,319.64285)"
       sodipodi:type="arc"
       style="fill:none;stroke:#000000;stroke-width:1;stroke-linecap:butt;stroke-linejoin:miter;stroke-miterlimit:4;stroke-opacity:1;stroke-dasharray:1, 1;stroke-dashoffset:0"
       id="path4141-4"
       sodipodi:cx="183.92857"
       sodipodi:cy="100.57647"
       sodipodi:rx="16.071428"
       sodipodi:ry="16.071428"
       d="m 200,100.57647 a 16.071428,16.071428 0 1 1 -32.14285,0 16.071428,16.071428 0 1 1 32.14285,0 z" />
    <text
       xml:space="preserve"
       style="font-size:12px;font-style:normal;font-weight:normal;fill:#000000;fill-opacity:1;stroke:none;font-family:Bitstream Vera Sans"
       x="85.35714"
       y="424.86215"
       id="text4143-0"><tspan
         sodipodi:role="line"
         id="tspan4145-4"
         x="85.35714"
         y="424.86215">V5</tspan></text>
    <path
       transform="translate(284.64286,203.21428)"
       sodipodi:type="arc"
       style="fill:none;stroke:#000000;stroke-width:1;stroke-linecap:butt;stroke-linejoin:miter;stroke-miterlimit:4;stroke-opacity:1;stroke-dasharray:1, 1;stroke-dashoffset:0"
       id="path4141-2"
       sodipodi:cx="183.92857"
       sodipodi:cy="100.57647"
       sodipodi:rx="16.071428"
       sodipodi:ry="16.071428"
       d="m 200,100.57647 a 16.071428,16.071428 0 1 1 -32.14285,0 16.071428,16.071428 0 1 1 32.14285,0 z" />
    <text
       xml:space="preserve"
       style="font-size:12px;font-style:normal;font-weight:normal;fill:#000000;fill-opacity:1;stroke:none;font-family:Bitstream Vera Sans"
       x="462.49997"
       y="308.43359"
       id="text4143-5"><tspan
         sodipodi:role="line"
         id="tspan4145-9"
         x="462.49997"
         y="308.43359">V6</tspan></text>
    <path
       transform="translate(284.64285,256.78571)"
       sodipodi:type="arc"
       style="fill:none;stroke:#000000;stroke-width:1;stroke-linecap:butt;stroke-linejoin:miter;stroke-miterlimit:4;stroke-opacity:1;stroke-dasharray:1, 1;stroke-dashoffset:0"
       id="path4141-5"
       sodipodi:cx="183.92857"
       sodipodi:cy="100.57647"
       sodipodi:rx="16.071428"
       sodipodi:ry="16.071428"
       d="m 200,100.57647 a 16.071428,16.071428 0 1 1 -32.14285,0 16.071428,16.071428 0 1 1 32.14285,0 z" />
    <text
       xml:space="preserve"
       style="font-size:12px;font-style:normal;font-weight:normal;fill:#000000;fill-opacity:1;stroke:none;font-family:Bitstream Vera Sans"
       x="462.49997"
       y="362.00504"
       id="text4143-3"><tspan
         sodipodi:role="line"
         id="tspan4145-20"
         x="462.49997"
         y="362.00504">V7</tspan></text>
    <path
       transform="translate(279.64286,387.49999)"
       sodipodi:type="arc"
       style="fill:none;stroke:#000000;stroke-width:1;stroke-linecap:butt;stroke-linejoin:miter;stroke-miterlimit:4;stroke-opacity:1;stroke-dasharray:1, 1;stroke-dashoffset:0"
       id="path4141-9"
       sodipodi:cx="183.92857"
       sodipodi:cy="100.57647"
       sodipodi:rx="16.071428"
       sodipodi:ry="16.071428"
       d="m 200,100.57647 a 16.071428,16.071428 0 1 1 -32.14285,0 16.071428,16.071428 0 1 1 32.14285,0 z" />
    <text
       xml:space="preserve"
       style="font-size:12px;font-style:normal;font-weight:normal;fill:#000000;fill-opacity:1;stroke:none;font-family:Bitstream Vera Sans"
       x="457.5"
       y="492.7193"
       id="text4143-80"><tspan
         sodipodi:role="line"
         id="tspan4145-96"
         x="457.5"
         y="492.7193">V8</tspan></text>
    <path
       transform="translate(488.92856,504.64285)"
       sodipodi:type="arc"
       style="fill:none;stroke:#000000;stroke-width:1;stroke-linecap:butt;stroke-linejoin:miter;stroke-miterlimit:4;stroke-opacity:1;stroke-dasharray:1, 1;stroke-dashoffset:0"
       id="path4141-21"
       sodipodi:cx="183.92857"
       sodipodi:cy="100.57647"
       sodipodi:rx="16.071428"
       sodipodi:ry="16.071428"
       d="m 200,100.57647 a 16.071428,16.071428 0 1 1 -32.14285,0 16.071428,16.071428 0 1 1 32.14285,0 z" />
    <text
       xml:space="preserve"
       style="font-size:12px;font-style:normal;font-weight:normal;fill:#000000;fill-opacity:1;stroke:none;font-family:Bitstream Vera Sans"
       x="666.78564"
       y="609.86218"
       id="text4143-4"><tspan
         sodipodi:role="line"
         id="tspan4145-48"
         x="666.78564"
         y="609.86218">V9</tspan></text>
    <path
       transform="translate(488.21428,549.64286)"
       sodipodi:type="arc"
       style="fill:none;stroke:#000000;stroke-width:1;stroke-linecap:butt;stroke-linejoin:miter;stroke-miterlimit:4;stroke-opacity:1;stroke-dasharray:1, 1;stroke-dashoffset:0"
       id="path4141-8"
       sodipodi:cx="183.92857"
       sodipodi:cy="100.57647"
       sodipodi:rx="16.071428"
       sodipodi:ry="16.071428"
       d="m 200,100.57647 a 16.071428,16.071428 0 1 1 -32.14285,0 16.071428,16.071428 0 1 1 32.14285,0 z" />
    <text
       xml:space="preserve"
       style="font-size:12px;font-style:normal;font-weight:normal;fill:#000000;fill-opacity:1;stroke:none;font-family:Bitstream Vera Sans"
       x="661.78571"
       y="654.14789"
       id="text4143-44"><tspan
         sodipodi:role="line"
         id="tspan4145-1"
         x="661.78571"
         y="654.14789">V10</tspan></text>
    <path
       transform="translate(399.64286,611.07142)"
       sodipodi:type="arc"
       style="fill:none;stroke:#000000;stroke-width:1;stroke-linecap:butt;stroke-linejoin:miter;stroke-miterlimit:4;stroke-opacity:1;stroke-dasharray:1, 1;stroke-dashoffset:0"
       id="path4141-89"
       sodipodi:cx="183.92857"
       sodipodi:cy="100.57647"
       sodipodi:rx="16.071428"
       sodipodi:ry="16.071428"
       d="m 200,100.57647 a 16.071428,16.071428 0 1 1 -32.14285,0 16.071428,16.071428 0 1 1 32.14285,0 z" />
    <text
       xml:space="preserve"
       style="font-size:12px;font-style:normal;font-weight:normal;fill:#000000;fill-opacity:1;stroke:none;font-family:Bitstream Vera Sans"
       x="573.21429"
       y="717.005"
       id="text4143-50"><tspan
         sodipodi:role="line"
         id="tspan4145-17"
         x="573.21429"
         y="717.005">V11</tspan></text>
  </g>
</svg>
