\relax 
\catcode`"\active
\select@language{ukrainian}
\@writefile{toc}{\select@language{ukrainian}}
\@writefile{lof}{\select@language{ukrainian}}
\@writefile{lot}{\select@language{ukrainian}}
\@writefile{toc}{\contentsline {section}{\numberline {1}\IeC {\CYRL }\IeC {\cyra }\IeC {\cyrb }\IeC {\cyro }\IeC {\cyrr }\IeC {\cyra }\IeC {\cyrt }\IeC {\cyro }\IeC {\cyrr }\IeC {\cyrn }\IeC {\cyra }\IeC {\cyrya } \IeC {\cyrr }\IeC {\cyra }\IeC {\cyrb }\IeC {\cyro }\IeC {\cyrt }\IeC {\cyra } \IeC {\textnumero }11}{2}}
\@writefile{lot}{\contentsline {table}{\numberline {1}{\ignorespaces \IeC {\CYRM }\IeC {\cyra }\IeC {\cyrt }\IeC {\cyre }\IeC {\cyrm }\IeC {\cyra }\IeC {\cyrt }\IeC {\cyri }\IeC {\cyrch }\IeC {\cyrn }\IeC {\cyre } \IeC {\cyrr }\IeC {\cyro }\IeC {\cyrz }\IeC {\cyrb }\IeC {\cyri }\IeC {\cyrt }\IeC {\cyrt }\IeC {\cyrya } \IeC {\cyrv }\IeC {\cyrii }\IeC {\cyrd }\IeC {\cyrr }\IeC {\cyrii }\IeC {\cyrz }\IeC {\cyrk }\IeC {\cyri }}}{2}}
\@writefile{lot}{\contentsline {table}{\numberline {2}{\ignorespaces \IeC {\CYRM }\IeC {\cyra }\IeC {\cyrsh }\IeC {\cyri }\IeC {\cyrn }\IeC {\cyrn }\IeC {\cyre } \IeC {\cyrr }\IeC {\cyro }\IeC {\cyrz }\IeC {\cyrb }\IeC {\cyri }\IeC {\cyrt }\IeC {\cyrt }\IeC {\cyrya } \IeC {\cyrn }\IeC {\cyra } \IeC {\cyrv }\IeC {\cyrii }\IeC {\cyrd }\IeC {\cyrr }\IeC {\cyrii }\IeC {\cyrz }\IeC {\cyrk }\IeC {\cyri }}}{2}}
\@writefile{lof}{\contentsline {figure}{\numberline {1}{\ignorespaces \IeC {\CYRA }\IeC {\cyrp }\IeC {\cyrr }\IeC {\cyro }\IeC {\cyrk }\IeC {\cyrs }\IeC {\cyri }\IeC {\cyrm }\IeC {\cyro }\IeC {\cyrv }\IeC {\cyra }\IeC {\cyrn }\IeC {\cyri }\IeC {\cyrishrt } \IeC {\cyrg }\IeC {\cyrr }\IeC {\cyra }\IeC {\cyrf }\IeC {\cyrii }\IeC {\cyrk } \IeC {\cyrf }\IeC {\cyru }\IeC {\cyrn }\IeC {\cyrk }\IeC {\cyrc }\IeC {\cyrii }\IeC {\cyryi }}}{3}}
\@writefile{lot}{\contentsline {table}{\numberline {3}{\ignorespaces \IeC {\CYRK }\IeC {\cyra }\IeC {\cyrr }\IeC {\cyrt }\IeC {\cyra } \IeC {\cyrn }\IeC {\cyra }\IeC {\cyrl }\IeC {\cyra }\IeC {\cyrsh }\IeC {\cyrt }\IeC {\cyru }\IeC {\cyrv }\IeC {\cyra }\IeC {\cyrn }\IeC {\cyrn }\IeC {\cyrya } \IeC {\CYRD }\IeC {\CYRU }\IeC {\CYRF }\IeC {\CYRP }}}{3}}
\@writefile{toc}{\contentsline {subsection}{\numberline {1.1}\IeC {\CYRR }\IeC {\cyro }\IeC {\cyrz }\IeC {\cyrr }\IeC {\cyra }\IeC {\cyrh }\IeC {\cyru }\IeC {\cyrn }\IeC {\cyro }\IeC {\cyrk } \IeC {\cyro }\IeC {\cyrp }\IeC {\cyro }\IeC {\cyrr }\IeC {\cyrii }\IeC {\cyrv }}{3}}
\@writefile{lof}{\contentsline {figure}{\numberline {2}{\ignorespaces \IeC {\CYRP }\IeC {\cyrr }\IeC {\cyri }\IeC {\cyrn }\IeC {\cyrc }\IeC {\cyri }\IeC {\cyrp }\IeC {\cyro }\IeC {\cyrv }\IeC {\cyra } \IeC {\cyrs }\IeC {\cyrh }\IeC {\cyre }\IeC {\cyrm }\IeC {\cyra }}}{5}}
\@writefile{lof}{\contentsline {figure}{\numberline {3}{\ignorespaces \IeC {\CYRG }\IeC {\cyrr }\IeC {\cyra }\IeC {\cyrf }\IeC {\cyrii }\IeC {\cyrk } \IeC {\cyrf }\IeC {\cyru }\IeC {\cyrn }\IeC {\cyrk }\IeC {\cyrc }\IeC {\cyrii }\IeC {\cyryi }}}{5}}
\ttl@finishall
