\relax 
\catcode`"\active
\select@language{ukrainian}
\@writefile{toc}{\select@language{ukrainian}}
\@writefile{lof}{\select@language{ukrainian}}
\@writefile{lot}{\select@language{ukrainian}}
\@writefile{toc}{\contentsline {section}{\numberline {1}\IeC {\CYRL }\IeC {\cyra }\IeC {\cyrb }\IeC {\cyro }\IeC {\cyrr }\IeC {\cyra }\IeC {\cyrt }\IeC {\cyro }\IeC {\cyrr }\IeC {\cyrn }\IeC {\cyra }\IeC {\cyrya } \IeC {\cyrr }\IeC {\cyra }\IeC {\cyrb }\IeC {\cyro }\IeC {\cyrt }\IeC {\cyra } \IeC {\textnumero }11}{2}}
\@writefile{toc}{\contentsline {subsection}{\numberline {1.1}\IeC {\CYRR }\IeC {\cyro }\IeC {\cyrz }\IeC {\cyrr }\IeC {\cyra }\IeC {\cyrh }\IeC {\cyru }\IeC {\cyrn }\IeC {\cyro }\IeC {\cyrk } \IeC {\cyro }\IeC {\cyrp }\IeC {\cyro }\IeC {\cyrr }\IeC {\cyrii }\IeC {\cyrv }}{3}}
\ttl@finishall
