\relax 
\catcode`"\active
\select@language{ukrainian}
\@writefile{toc}{\select@language{ukrainian}}
\@writefile{lof}{\select@language{ukrainian}}
\@writefile{lot}{\select@language{ukrainian}}
\@writefile{toc}{\contentsline {section}{\numberline {1}\IeC {\CYRR }\IeC {\cyro }\IeC {\cyrz }\IeC {\cyrd }\IeC {\cyrii }\IeC {\cyrl } 1. \IeC {\CYRR }\IeC {\cyro }\IeC {\cyrz }\IeC {\cyrr }\IeC {\cyro }\IeC {\cyrb }\IeC {\cyrk }\IeC {\cyra } \IeC {\cyrp }\IeC {\cyrr }\IeC {\cyro }\IeC {\cyrg }\IeC {\cyrr }\IeC {\cyra }\IeC {\cyrm }\IeC {\cyri } \IeC {\cyrr }\IeC {\cyre }\IeC {\cyrg }\IeC {\cyrii }\IeC {\cyrs }\IeC {\cyrt }\IeC {\cyrr }\IeC {\cyra }\IeC {\cyrc }\IeC {\cyrii }\IeC {\cyryi } \IeC {\cyrk }\IeC {\cyro }\IeC {\cyrr }\IeC {\cyri }\IeC {\cyrs }\IeC {\cyrt }\IeC {\cyru }\IeC {\cyrv }\IeC {\cyra }\IeC {\cyrch }\IeC {\cyrii }\IeC {\cyrv }}{3}}
\@writefile{toc}{\contentsline {subsection}{\numberline {1.1}\IeC {\CYRZ }\IeC {\cyra }\IeC {\cyrv }\IeC {\cyrd }\IeC {\cyra }\IeC {\cyrn }\IeC {\cyrn }\IeC {\cyrya }}{3}}
\@writefile{toc}{\contentsline {subsection}{\numberline {1.2}\IeC {\CYRV }\IeC {\cyra }\IeC {\cyrr }\IeC {\cyrii }\IeC {\cyra }\IeC {\cyrn }\IeC {\cyrt }}{3}}
\@writefile{toc}{\contentsline {subsection}{\numberline {1.3}\IeC {\CYRP }\IeC {\cyrr }\IeC {\cyri }\IeC {\cyrk }\IeC {\cyrl }\IeC {\cyra }\IeC {\cyrd } \IeC {\cyrzh }\IeC {\cyru }\IeC {\cyrr }\IeC {\cyrn }\IeC {\cyra }\IeC {\cyrl }\IeC {\cyru } \IeC {\cyrr }\IeC {\cyre }\IeC {\cyrie }\IeC {\cyrs }\IeC {\cyrt }\IeC {\cyrr }\IeC {\cyra }\IeC {\cyrc }\IeC {\cyrii }\IeC {\cyryi }}{3}}
\@writefile{toc}{\contentsline {subsection}{\numberline {1.4}\IeC {\CYRV }\IeC {\cyri }\IeC {\cyrg }\IeC {\cyrl }\IeC {\cyrya }\IeC {\cyrd } \IeC {\cyrp }\IeC {\cyrr }\IeC {\cyro }\IeC {\cyrg }\IeC {\cyrr }\IeC {\cyra }\IeC {\cyrm }\IeC {\cyri }}{4}}
\@writefile{lof}{\contentsline {figure}{\numberline {1}{\ignorespaces \IeC {\CYRV }\IeC {\cyri }\IeC {\cyrd } \IeC {\cyrv }\IeC {\cyrii }\IeC {\cyrk }\IeC {\cyrn }\IeC {\cyra } \IeC {\cyrv }\IeC {\cyrv }\IeC {\cyro }\IeC {\cyrd }\IeC {\cyru } \IeC {\cyrp }\IeC {\cyra }\IeC {\cyrr }\IeC {\cyro }\IeC {\cyrl }\IeC {\cyrya }}}{4}}
\@writefile{lof}{\contentsline {figure}{\numberline {2}{\ignorespaces \IeC {\CYRV }\IeC {\cyrii }\IeC {\cyrd }\IeC {\cyrm }\IeC {\cyro }\IeC {\cyrv }\IeC {\cyra } \IeC {\cyru } \IeC {\cyrd }\IeC {\cyro }\IeC {\cyrs }\IeC {\cyrt }\IeC {\cyru }\IeC {\cyrp }\IeC {\cyrii }}}{4}}
\@writefile{toc}{\contentsline {subsection}{\numberline {1.5}\IeC {\CYRK }\IeC {\cyro }\IeC {\cyrd }}{4}}
\@writefile{lol}{\contentsline {lstlisting}{\numberline {1}PasswordManager.java}{4}}
\@writefile{lol}{\contentsline {lstlisting}{\numberline {2}LoginAuthenticatorChecker.java}{7}}
\@writefile{lol}{\contentsline {lstlisting}{\numberline {3}LoginWindow.java}{7}}
\@writefile{lol}{\contentsline {lstlisting}{\numberline {4}LoginAuthenticationWindow.java}{8}}
\@writefile{toc}{\contentsline {section}{\numberline {2}\IeC {\CYRR }\IeC {\cyro }\IeC {\cyrz }\IeC {\cyrd }\IeC {\cyrii }\IeC {\cyrl } 2. \IeC {\CYRR }\IeC {\cyro }\IeC {\cyrz }\IeC {\cyrr }\IeC {\cyro }\IeC {\cyrb }\IeC {\cyrk }\IeC {\cyra } \IeC {\cyrp }\IeC {\cyrr }\IeC {\cyro }\IeC {\cyrg }\IeC {\cyrr }\IeC {\cyra }\IeC {\cyrm }\IeC {\cyri } \IeC {\cyrk }\IeC {\cyre }\IeC {\cyrr }\IeC {\cyru }\IeC {\cyrv }\IeC {\cyra }\IeC {\cyrn }\IeC {\cyrn }\IeC {\cyrya } \IeC {\cyrd }\IeC {\cyro }\IeC {\cyrs }\IeC {\cyrt }\IeC {\cyru }\IeC {\cyrp }\IeC {\cyro }\IeC {\cyrm } \IeC {\cyrd }\IeC {\cyro } \IeC {\cyrz }\IeC {\cyra }\IeC {\cyrh }\IeC {\cyri }\IeC {\cyrshch }\IeC {\cyre }\IeC {\cyrn }\IeC {\cyro }\IeC {\cyrg }\IeC {\cyro } \IeC {\cyrn }\IeC {\cyro }\IeC {\cyrs }\IeC {\cyrii }\IeC {\cyrya }}{10}}
\@writefile{toc}{\contentsline {subsection}{\numberline {2.1}\IeC {\CYRZ }\IeC {\cyra }\IeC {\cyrv }\IeC {\cyrd }\IeC {\cyra }\IeC {\cyrn }\IeC {\cyrn }\IeC {\cyrya }}{10}}
\@writefile{toc}{\contentsline {subsection}{\numberline {2.2}\IeC {\CYRV }\IeC {\cyri }\IeC {\cyrg }\IeC {\cyrl }\IeC {\cyrya }\IeC {\cyrd } \IeC {\cyrp }\IeC {\cyrr }\IeC {\cyro }\IeC {\cyrg }\IeC {\cyrr }\IeC {\cyra }\IeC {\cyrm }\IeC {\cyri }}{10}}
\@writefile{lof}{\contentsline {figure}{\numberline {3}{\ignorespaces \IeC {\CYRV }\IeC {\cyri }\IeC {\cyrd } \IeC {\cyrv }\IeC {\cyrii }\IeC {\cyrk }\IeC {\cyrn }\IeC {\cyra } \IeC {\cyrd }\IeC {\cyro }\IeC {\cyrs }\IeC {\cyrt }\IeC {\cyru }\IeC {\cyrp }\IeC {\cyru } \IeC {\cyrd }\IeC {\cyro } \IeC {\cyrz }\IeC {\cyra }\IeC {\cyrh }\IeC {\cyri }\IeC {\cyrshch }\IeC {\cyre }\IeC {\cyrn }\IeC {\cyri }\IeC {\cyrh } \IeC {\cyrn }\IeC {\cyro }\IeC {\cyrs }\IeC {\cyrii }\IeC {\cyryi }\IeC {\cyrv }}}{10}}
\@writefile{toc}{\contentsline {subsection}{\numberline {2.3}\IeC {\CYRK }\IeC {\cyro }\IeC {\cyrd }}{10}}
\@writefile{lol}{\contentsline {lstlisting}{\numberline {5}FileTreeModel.java}{10}}
\@writefile{lol}{\contentsline {lstlisting}{\numberline {6}AccessController.java}{11}}
\@writefile{lol}{\contentsline {lstlisting}{\numberline {7}MainWindowFactory.java}{12}}
\@writefile{lol}{\contentsline {lstlisting}{\numberline {8}UserWindow.java}{12}}
\@writefile{lol}{\contentsline {lstlisting}{\numberline {9}AdminWindow.java}{13}}
\@writefile{lol}{\contentsline {lstlisting}{\numberline {10}AccountsTableModel.java}{14}}
\@writefile{toc}{\contentsline {section}{\numberline {3}\IeC {\CYRR }\IeC {\cyro }\IeC {\cyrz }\IeC {\cyrd }\IeC {\cyrii }\IeC {\cyrl } 3. \IeC {\CYRR }\IeC {\cyro }\IeC {\cyrz }\IeC {\cyrr }\IeC {\cyro }\IeC {\cyrb }\IeC {\cyrk }\IeC {\cyra } \IeC {\cyrp }\IeC {\cyrr }\IeC {\cyro }\IeC {\cyrg }\IeC {\cyrr }\IeC {\cyra }\IeC {\cyrm }\IeC {\cyri } \IeC {\cyra }\IeC {\cyru }\IeC {\cyrt }\IeC {\cyre }\IeC {\cyrn }\IeC {\cyrt }\IeC {\cyri }\IeC {\cyrf }\IeC {\cyrii }\IeC {\cyrk }\IeC {\cyra }\IeC {\cyrc }\IeC {\cyrii }\IeC {\cyryi }}{16}}
\@writefile{toc}{\contentsline {subsection}{\numberline {3.1}\IeC {\CYRZ }\IeC {\cyra }\IeC {\cyrv }\IeC {\cyrd }\IeC {\cyra }\IeC {\cyrn }\IeC {\cyrn }\IeC {\cyrya }}{16}}
\@writefile{toc}{\contentsline {subsection}{\numberline {3.2}\IeC {\CYRV }\IeC {\cyra }\IeC {\cyrr }\IeC {\cyrii }\IeC {\cyra }\IeC {\cyrn }\IeC {\cyrt }}{16}}
\@writefile{toc}{\contentsline {subsection}{\numberline {3.3}\IeC {\CYRV }\IeC {\cyri }\IeC {\cyrg }\IeC {\cyrl }\IeC {\cyrya }\IeC {\cyrd } \IeC {\cyrp }\IeC {\cyrr }\IeC {\cyro }\IeC {\cyrg }\IeC {\cyrr }\IeC {\cyra }\IeC {\cyrm }\IeC {\cyri }}{16}}
\@writefile{lof}{\contentsline {figure}{\numberline {4}{\ignorespaces \IeC {\CYRV }\IeC {\cyri }\IeC {\cyrd } \IeC {\cyrv }\IeC {\cyrii }\IeC {\cyrk }\IeC {\cyrn }\IeC {\cyra } \IeC {\cyrv }\IeC {\cyrii }\IeC {\cyrk }\IeC {\cyrn }\IeC {\cyra } \IeC {\cyra }\IeC {\cyru }\IeC {\cyrt }\IeC {\cyre }\IeC {\cyrn }\IeC {\cyrt }\IeC {\cyri }\IeC {\cyrf }\IeC {\cyrii }\IeC {\cyrk }\IeC {\cyra }\IeC {\cyrc }\IeC {\cyrii }\IeC {\cyryi }}}{16}}
\@writefile{toc}{\contentsline {subsection}{\numberline {3.4}\IeC {\CYRK }\IeC {\cyro }\IeC {\cyrd }}{16}}
\@writefile{lol}{\contentsline {lstlisting}{\numberline {11}WorkAuthenticator.java}{16}}
\@writefile{toc}{\contentsline {section}{\numberline {4}\IeC {\CYRR }\IeC {\cyro }\IeC {\cyrz }\IeC {\cyrd }\IeC {\cyrii }\IeC {\cyrl } 4. \IeC {\CYRR }\IeC {\cyro }\IeC {\cyrz }\IeC {\cyrr }\IeC {\cyro }\IeC {\cyrb }\IeC {\cyrk }\IeC {\cyra } \IeC {\cyrp }\IeC {\cyrr }\IeC {\cyro }\IeC {\cyrg }\IeC {\cyrr }\IeC {\cyra }\IeC {\cyrm }\IeC {\cyri } \IeC {\cyrm }\IeC {\cyro }\IeC {\cyrn }\IeC {\cyrii }\IeC {\cyrt }\IeC {\cyro }\IeC {\cyrr }\IeC {\cyri }\IeC {\cyrn }\IeC {\cyrg }\IeC {\cyru } \IeC {\cyrb }\IeC {\cyre }\IeC {\cyrz }\IeC {\cyrp }\IeC {\cyre }\IeC {\cyrk }\IeC {\cyri }}{18}}
\@writefile{toc}{\contentsline {subsection}{\numberline {4.1}\IeC {\CYRZ }\IeC {\cyra }\IeC {\cyrv }\IeC {\cyrd }\IeC {\cyra }\IeC {\cyrn }\IeC {\cyrn }\IeC {\cyrya }}{18}}
\@writefile{toc}{\contentsline {subsection}{\numberline {4.2}\IeC {\CYRP }\IeC {\cyrr }\IeC {\cyri }\IeC {\cyrk }\IeC {\cyrl }\IeC {\cyra }\IeC {\cyrd } \IeC {\cyro }\IeC {\cyrp }\IeC {\cyre }\IeC {\cyrr }\IeC {\cyra }\IeC {\cyrc }\IeC {\cyrii }\IeC {\cyrishrt }\IeC {\cyrn }\IeC {\cyro }\IeC {\cyrg }\IeC {\cyro } \IeC {\cyrzh }\IeC {\cyru }\IeC {\cyrr }\IeC {\cyrn }\IeC {\cyra }\IeC {\cyrl }\IeC {\cyru }}{18}}
\@writefile{toc}{\contentsline {subsection}{\numberline {4.3}\IeC {\CYRK }\IeC {\cyro }\IeC {\cyrd }}{18}}
\@writefile{lol}{\contentsline {lstlisting}{\numberline {12}Logger.java}{18}}
\@writefile{toc}{\contentsline {section}{\numberline {5}\IeC {\CYRR }\IeC {\cyro }\IeC {\cyrz }\IeC {\cyrd }\IeC {\cyrii }\IeC {\cyrl } 5. \IeC {\CYRR }\IeC {\cyro }\IeC {\cyrz }\IeC {\cyrr }\IeC {\cyro }\IeC {\cyrb }\IeC {\cyrk }\IeC {\cyra } \IeC {\cyrp }\IeC {\cyrr }\IeC {\cyro }\IeC {\cyrg }\IeC {\cyrr }\IeC {\cyra }\IeC {\cyrm }\IeC {\cyri } \IeC {\cyrsh }\IeC {\cyrv }\IeC {\cyri }\IeC {\cyrd }\IeC {\cyrk }\IeC {\cyro }\IeC {\cyrg }\IeC {\cyro } \IeC {\cyrd }\IeC {\cyri }\IeC {\cyrs }\IeC {\cyrk }\IeC {\cyrr }\IeC {\cyre }\IeC {\cyrt }\IeC {\cyrn }\IeC {\cyro }\IeC {\cyrg }\IeC {\cyro } \IeC {\cyrp }\IeC {\cyro }\IeC {\cyrt }\IeC {\cyre }\IeC {\cyrn }\IeC {\cyrc }\IeC {\cyrii }\IeC {\cyryu }\IeC {\cyrv }\IeC {\cyra }\IeC {\cyrn }\IeC {\cyrn }\IeC {\cyrya }}{20}}
\@writefile{toc}{\contentsline {subsection}{\numberline {5.1}\IeC {\CYRZ }\IeC {\cyra }\IeC {\cyrv }\IeC {\cyrd }\IeC {\cyra }\IeC {\cyrn }\IeC {\cyrn }\IeC {\cyrya }}{20}}
\@writefile{toc}{\contentsline {subsection}{\numberline {5.2}\IeC {\CYRV }\IeC {\cyri }\IeC {\cyrg }\IeC {\cyrl }\IeC {\cyrya }\IeC {\cyrd } \IeC {\cyrp }\IeC {\cyrr }\IeC {\cyro }\IeC {\cyrg }\IeC {\cyrr }\IeC {\cyra }\IeC {\cyrm }\IeC {\cyri }}{20}}
\@writefile{lof}{\contentsline {figure}{\numberline {5}{\ignorespaces \IeC {\CYRV }\IeC {\cyri }\IeC {\cyrd } \IeC {\cyrv }\IeC {\cyrii }\IeC {\cyrk }\IeC {\cyrn }\IeC {\cyra } \IeC {\cyrv }\IeC {\cyrii }\IeC {\cyrk }\IeC {\cyrn }\IeC {\cyra } \IeC {\cyra }\IeC {\cyru }\IeC {\cyrt }\IeC {\cyre }\IeC {\cyrn }\IeC {\cyrt }\IeC {\cyri }\IeC {\cyrf }\IeC {\cyrii }\IeC {\cyrk }\IeC {\cyra }\IeC {\cyrc }\IeC {\cyrii }\IeC {\cyryi }}}{20}}
\@writefile{toc}{\contentsline {subsection}{\numberline {5.3}\IeC {\CYRK }\IeC {\cyro }\IeC {\cyrd }}{20}}
\@writefile{lol}{\contentsline {lstlisting}{\numberline {13}Lab5.py}{20}}
\@writefile{toc}{\contentsline {section}{\numberline {6}\IeC {\CYRR }\IeC {\cyro }\IeC {\cyrz }\IeC {\cyrd }\IeC {\cyrii }\IeC {\cyrl } 6. \IeC {\CYRR }\IeC {\cyro }\IeC {\cyrz }\IeC {\cyrr }\IeC {\cyro }\IeC {\cyrb }\IeC {\cyrk }\IeC {\cyra } \IeC {\cyrg }\IeC {\cyre }\IeC {\cyrn }\IeC {\cyre }\IeC {\cyrr }\IeC {\cyra }\IeC {\cyrt }\IeC {\cyro }\IeC {\cyrr }\IeC {\cyra } \IeC {\cyrv }\IeC {\cyre }\IeC {\cyrl }\IeC {\cyri }\IeC {\cyrk }\IeC {\cyri }\IeC {\cyrh } \IeC {\cyrp }\IeC {\cyrr }\IeC {\cyro }\IeC {\cyrs }\IeC {\cyrt }\IeC {\cyri }\IeC {\cyrh } \IeC {\cyrch }\IeC {\cyri }\IeC {\cyrs }\IeC {\cyre }\IeC {\cyrl }}{22}}
\@writefile{toc}{\contentsline {subsection}{\numberline {6.1}\IeC {\CYRZ }\IeC {\cyra }\IeC {\cyrv }\IeC {\cyrd }\IeC {\cyra }\IeC {\cyrn }\IeC {\cyrn }\IeC {\cyrya }}{22}}
\@writefile{toc}{\contentsline {subsection}{\numberline {6.2}\IeC {\CYRV }\IeC {\cyri }\IeC {\cyrg }\IeC {\cyrl }\IeC {\cyrya }\IeC {\cyrd } \IeC {\cyrp }\IeC {\cyrr }\IeC {\cyro }\IeC {\cyrg }\IeC {\cyrr }\IeC {\cyra }\IeC {\cyrm }\IeC {\cyri }}{22}}
\@writefile{lof}{\contentsline {figure}{\numberline {6}{\ignorespaces \IeC {\CYRV }\IeC {\cyri }\IeC {\cyrd } \IeC {\cyrv }\IeC {\cyrii }\IeC {\cyrk }\IeC {\cyrn }\IeC {\cyra } \IeC {\cyrv }\IeC {\cyrii }\IeC {\cyrk }\IeC {\cyrn }\IeC {\cyra } \IeC {\cyra }\IeC {\cyru }\IeC {\cyrt }\IeC {\cyre }\IeC {\cyrn }\IeC {\cyrt }\IeC {\cyri }\IeC {\cyrf }\IeC {\cyrii }\IeC {\cyrk }\IeC {\cyra }\IeC {\cyrc }\IeC {\cyrii }\IeC {\cyryi }}}{22}}
\@writefile{toc}{\contentsline {subsection}{\numberline {6.3}\IeC {\CYRK }\IeC {\cyro }\IeC {\cyrd }}{22}}
\@writefile{lol}{\contentsline {lstlisting}{\numberline {14}Lab6.py}{22}}
\@writefile{toc}{\contentsline {section}{\numberline {7}\IeC {\CYRR }\IeC {\cyro }\IeC {\cyrz }\IeC {\cyrd }\IeC {\cyrii }\IeC {\cyrl } 7. \IeC {\CYRR }\IeC {\cyro }\IeC {\cyrz }\IeC {\cyrr }\IeC {\cyro }\IeC {\cyrb }\IeC {\cyrk }\IeC {\cyra } \IeC {\cyrp }\IeC {\cyrr }\IeC {\cyro }\IeC {\cyrg }\IeC {\cyrr }\IeC {\cyra }\IeC {\cyrm }\IeC {\cyri } \IeC {\cyrk }\IeC {\cyre }\IeC {\cyrr }\IeC {\cyru }\IeC {\cyrv }\IeC {\cyra }\IeC {\cyrn }\IeC {\cyrn }\IeC {\cyrya } \IeC {\cyrk }\IeC {\cyrl }\IeC {\cyryu }\IeC {\cyrch }\IeC {\cyra }\IeC {\cyrm }\IeC {\cyri } \IeC {\cyrsh }\IeC {\cyri }\IeC {\cyrf }\IeC {\cyrr }\IeC {\cyru }\IeC {\cyrv }\IeC {\cyra }\IeC {\cyrn }\IeC {\cyrn }\IeC {\cyrya }}{24}}
\@writefile{toc}{\contentsline {subsection}{\numberline {7.1}\IeC {\CYRZ }\IeC {\cyra }\IeC {\cyrv }\IeC {\cyrd }\IeC {\cyra }\IeC {\cyrn }\IeC {\cyrn }\IeC {\cyrya }}{24}}
\@writefile{toc}{\contentsline {subsection}{\numberline {7.2}\IeC {\CYRA }\IeC {\cyrl }\IeC {\cyrg }\IeC {\cyro }\IeC {\cyrr }\IeC {\cyri }\IeC {\cyrt }\IeC {\cyrm } RSA}{24}}
\@writefile{toc}{\contentsline {paragraph}{\IeC {\CYRA }\IeC {\cyrl }\IeC {\cyrg }\IeC {\cyro }\IeC {\cyrr }\IeC {\cyri }\IeC {\cyrt }\IeC {\cyrm } \IeC {\cyrs }\IeC {\cyro }\IeC {\cyrz }\IeC {\cyrd }\IeC {\cyra }\IeC {\cyrn }\IeC {\cyri }\IeC {\cyrya } \IeC {\cyro }\IeC {\cyrt }\IeC {\cyrk }\IeC {\cyrr }\IeC {\cyrery }\IeC {\cyrt }\IeC {\cyro }\IeC {\cyrg }\IeC {\cyro } \IeC {\cyri } \IeC {\cyrs }\IeC {\cyre }\IeC {\cyrk }\IeC {\cyrr }\IeC {\cyre }\IeC {\cyrt }\IeC {\cyrn }\IeC {\cyro }\IeC {\cyrg }\IeC {\cyro } \IeC {\cyrk }\IeC {\cyrl }\IeC {\cyryu }\IeC {\cyrch }\IeC {\cyre }\IeC {\cyrishrt }}{24}}
\@writefile{toc}{\contentsline {paragraph}{\IeC {\CYRSH }\IeC {\cyri }\IeC {\cyrf }\IeC {\cyrr }\IeC {\cyro }\IeC {\cyrv }\IeC {\cyra }\IeC {\cyrn }\IeC {\cyri }\IeC {\cyre } \IeC {\cyri } \IeC {\cyrr }\IeC {\cyra }\IeC {\cyrs }\IeC {\cyrsh }\IeC {\cyri }\IeC {\cyrf }\IeC {\cyrr }\IeC {\cyro }\IeC {\cyrv }\IeC {\cyra }\IeC {\cyrn }\IeC {\cyri }\IeC {\cyre }}{24}}
\@writefile{toc}{\contentsline {subsection}{\numberline {7.3}\IeC {\CYRP }\IeC {\cyrr }\IeC {\cyri }\IeC {\cyrk }\IeC {\cyrl }\IeC {\cyra }\IeC {\cyrd } \IeC {\cyrsh }\IeC {\cyri }\IeC {\cyrf }\IeC {\cyrr }\IeC {\cyru }\IeC {\cyrv }\IeC {\cyra }\IeC {\cyrn }\IeC {\cyrn }\IeC {\cyrya }}{25}}
\@writefile{toc}{\contentsline {subsection}{\numberline {7.4}\IeC {\CYRK }\IeC {\cyro }\IeC {\cyrd }}{25}}
\@writefile{lol}{\contentsline {lstlisting}{\numberline {15}Lab7.py}{25}}
\@writefile{toc}{\contentsline {section}{\numberline {8}\IeC {\CYRR }\IeC {\cyro }\IeC {\cyrz }\IeC {\cyrd }\IeC {\cyrii }\IeC {\cyrl } 8. \IeC {\CYRR }\IeC {\cyro }\IeC {\cyrz }\IeC {\cyrr }\IeC {\cyro }\IeC {\cyrb }\IeC {\cyrk }\IeC {\cyra } \IeC {\cyrp }\IeC {\cyrr }\IeC {\cyro }\IeC {\cyrg }\IeC {\cyrr }\IeC {\cyra }\IeC {\cyrm }\IeC {\cyri } \IeC {\cyrf }\IeC {\cyro }\IeC {\cyrr }\IeC {\cyrm }\IeC {\cyru }\IeC {\cyrv }\IeC {\cyra }\IeC {\cyrn }\IeC {\cyrn }\IeC {\cyrya } \IeC {\cyrs }\IeC {\cyri }\IeC {\cyrg }\IeC {\cyrn }\IeC {\cyra }\IeC {\cyrt }\IeC {\cyru }\IeC {\cyrr }\IeC {\cyri } \IeC {\cyrp }\IeC {\cyro }\IeC {\cyrv }\IeC {\cyrii }\IeC {\cyrd }\IeC {\cyro }\IeC {\cyrm }\IeC {\cyrl }\IeC {\cyre }\IeC {\cyrn }\IeC {\cyrn }\IeC {\cyrya }}{28}}
\@writefile{toc}{\contentsline {subsection}{\numberline {8.1}\IeC {\CYRZ }\IeC {\cyra }\IeC {\cyrv }\IeC {\cyrd }\IeC {\cyra }\IeC {\cyrn }\IeC {\cyrn }\IeC {\cyrya }}{28}}
\@writefile{toc}{\contentsline {subsection}{\numberline {8.2}\IeC {\CYRV }\IeC {\cyra }\IeC {\cyrr }\IeC {\cyrii }\IeC {\cyra }\IeC {\cyrn }\IeC {\cyrt }}{28}}
\@writefile{toc}{\contentsline {subsection}{\numberline {8.3}\IeC {\CYRA }\IeC {\cyrl }\IeC {\cyrg }\IeC {\cyro }\IeC {\cyrr }\IeC {\cyri }\IeC {\cyrt }\IeC {\cyrm } IDEA}{28}}
\@writefile{toc}{\contentsline {paragraph}{\IeC {\CYRG }\IeC {\cyre }\IeC {\cyrn }\IeC {\cyre }\IeC {\cyrr }\IeC {\cyra }\IeC {\cyrc }\IeC {\cyri }\IeC {\cyrya } \IeC {\cyrk }\IeC {\cyrl }\IeC {\cyryu }\IeC {\cyrch }\IeC {\cyre }\IeC {\cyrishrt }}{28}}
\@writefile{toc}{\contentsline {paragraph}{\IeC {\CYRSH }\IeC {\cyri }\IeC {\cyrf }\IeC {\cyrr }\IeC {\cyro }\IeC {\cyrv }\IeC {\cyra }\IeC {\cyrn }\IeC {\cyri }\IeC {\cyre }}{28}}
\@writefile{toc}{\contentsline {paragraph}{\IeC {\CYRR }\IeC {\cyra }\IeC {\cyrs }\IeC {\cyrsh }\IeC {\cyri }\IeC {\cyrf }\IeC {\cyrr }\IeC {\cyro }\IeC {\cyrv }\IeC {\cyrk }\IeC {\cyra }}{29}}
\@writefile{toc}{\contentsline {subsection}{\numberline {8.4}\IeC {\CYRP }\IeC {\cyrr }\IeC {\cyri }\IeC {\cyrk }\IeC {\cyrl }\IeC {\cyra }\IeC {\cyrd } \IeC {\cyrsh }\IeC {\cyri }\IeC {\cyrf }\IeC {\cyrr }\IeC {\cyru }\IeC {\cyrv }\IeC {\cyra }\IeC {\cyrn }\IeC {\cyrn }\IeC {\cyrya }}{30}}
\@writefile{toc}{\contentsline {subsection}{\numberline {8.5}\IeC {\CYRK }\IeC {\cyro }\IeC {\cyrd }}{30}}
\@writefile{lol}{\contentsline {lstlisting}{\numberline {16}Lab8.py}{30}}
\bibcite{bib:1}{1}
\bibcite{bib:2}{2}
\ttl@finishall
