\relax 
\@writefile{toc}{\contentsline {section}{\numberline {2}\IeC {\CYRZ }\IeC {\cyra }\IeC {\cyrd }\IeC {\cyra }\IeC {\cyrn }\IeC {\cyri }\IeC {\cyre }}{5}}
\@writefile{lot}{\contentsline {table}{\numberline {1}{\ignorespaces \IeC {\CYRM }\IeC {\cyro }\IeC {\cyrm }\IeC {\cyre }\IeC {\cyrn }\IeC {\cyrt }\IeC {\cyrery } \IeC {\cyro }\IeC {\cyrt }\IeC {\cyrk }\IeC {\cyra }\IeC {\cyrz }\IeC {\cyro }\IeC {\cyrv } \IeC {\cyri }\IeC {\cyrz }\IeC {\cyrd }\IeC {\cyre }\IeC {\cyrl }\IeC {\cyri }\IeC {\cyrishrt }}}{5}}
\@writefile{toc}{\contentsline {section}{\numberline {3}\IeC {\CYRR }\IeC {\cyra }\IeC {\cyrs }\IeC {\cyrch }\IeC {\cyryo }\IeC {\cyrt }\IeC {\cyrery }}{5}}
\@writefile{lot}{\contentsline {table}{\numberline {2}{\ignorespaces \IeC {\CYRN }\IeC {\cyra }\IeC {\cyrb }\IeC {\cyrl }\IeC {\cyryu }\IeC {\cyrd }\IeC {\cyra }\IeC {\cyre }\IeC {\cyrm }\IeC {\cyrery }\IeC {\cyre } \IeC {\cyrm }\IeC {\cyro }\IeC {\cyrm }\IeC {\cyre }\IeC {\cyrn }\IeC {\cyrt }\IeC {\cyrery } \IeC {\cyro }\IeC {\cyrt }\IeC {\cyrk }\IeC {\cyra }\IeC {\cyrz }\IeC {\cyro }\IeC {\cyrv } \IeC {\cyri }\IeC {\cyrz }\IeC {\cyrd }\IeC {\cyre }\IeC {\cyrl }\IeC {\cyri }\IeC {\cyrishrt }}}{5}}
\@writefile{lot}{\contentsline {table}{\numberline {3}{\ignorespaces \IeC {\CYRR }\IeC {\cyra }\IeC {\cyrs }\IeC {\cyrp }\IeC {\cyrr }\IeC {\cyre }\IeC {\cyrd }\IeC {\cyre }\IeC {\cyrl }\IeC {\cyre }\IeC {\cyrn }\IeC {\cyri }\IeC {\cyre } \IeC {\cyro }\IeC {\cyrt }\IeC {\cyrk }\IeC {\cyra }\IeC {\cyrz }\IeC {\cyro }\IeC {\cyrv } \IeC {\cyrp }\IeC {\cyro } \IeC {\cyri }\IeC {\cyrn }\IeC {\cyrt }\IeC {\cyre }\IeC {\cyrr }\IeC {\cyrv }\IeC {\cyra }\IeC {\cyrl }\IeC {\cyra }\IeC {\cyrm } \IeC {\cyrn }\IeC {\cyra }\IeC {\cyrb }\IeC {\cyrl }\IeC {\cyryu }\IeC {\cyrd }\IeC {\cyre }\IeC {\cyrn }\IeC {\cyri }\IeC {\cyrya }}}{5}}
\@writefile{toc}{\contentsline {subsection}{\numberline {3.1}\IeC {\CYRR }\IeC {\cyra }\IeC {\cyrs }\IeC {\cyrch }\IeC {\cyre }\IeC {\cyrt } \IeC {\cyrn }\IeC {\cyra }\IeC {\cyrr }\IeC {\cyra }\IeC {\cyrb }\IeC {\cyro }\IeC {\cyrt }\IeC {\cyrk }\IeC {\cyri } \IeC {\cyrn }\IeC {\cyra } \IeC {\cyro }\IeC {\cyrt }\IeC {\cyrk }\IeC {\cyra }\IeC {\cyrz }}{5}}
\@writefile{toc}{\contentsline {subsubsection}{\numberline {3.1.1}\IeC {\CYRP }\IeC {\cyra }\IeC {\cyrr }\IeC {\cyra }\IeC {\cyrm }\IeC {\cyre }\IeC {\cyrt }\IeC {\cyrr }\IeC {\cyri }\IeC {\cyrch }\IeC {\cyre }\IeC {\cyrs }\IeC {\cyrk }\IeC {\cyri }\IeC {\cyrishrt } \IeC {\cyrm }\IeC {\cyre }\IeC {\cyrt }\IeC {\cyro }\IeC {\cyrd } \IeC {\cyrd }\IeC {\cyrl }\IeC {\cyrya } \IeC {\cyrerev }\IeC {\cyrk }\IeC {\cyrs }\IeC {\cyrp }\IeC {\cyro }\IeC {\cyrn }\IeC {\cyre }\IeC {\cyrn }\IeC {\cyrc }\IeC {\cyri }\IeC {\cyra }\IeC {\cyrl }\IeC {\cyrsftsn }\IeC {\cyrn }\IeC {\cyro }\IeC {\cyrg }\IeC {\cyro } \IeC {\cyrr }\IeC {\cyra }\IeC {\cyrs }\IeC {\cyrp }\IeC {\cyrr }\IeC {\cyre }\IeC {\cyrd }\IeC {\cyre }\IeC {\cyrl }\IeC {\cyre }\IeC {\cyrn }\IeC {\cyri }\IeC {\cyrya }}{5}}
\@writefile{toc}{\contentsline {subsubsection}{\numberline {3.1.2}\IeC {\CYRP }\IeC {\cyra }\IeC {\cyrr }\IeC {\cyra }\IeC {\cyrm }\IeC {\cyre }\IeC {\cyrt }\IeC {\cyrr }\IeC {\cyri }\IeC {\cyrch }\IeC {\cyre }\IeC {\cyrs }\IeC {\cyrk }\IeC {\cyri }\IeC {\cyrishrt } \IeC {\cyrm }\IeC {\cyre }\IeC {\cyrt }\IeC {\cyro }\IeC {\cyrd } \IeC {\cyrd }\IeC {\cyrl }\IeC {\cyrya } \IeC {\cyrr }\IeC {\cyra }\IeC {\cyrs }\IeC {\cyrp }\IeC {\cyrr }\IeC {\cyre }\IeC {\cyrd }\IeC {\cyre }\IeC {\cyrl }\IeC {\cyre }\IeC {\cyrn }\IeC {\cyri }\IeC {\cyrya } \IeC {\CYRV }\IeC {\cyre }\IeC {\cyrishrt }\IeC {\cyrb }\IeC {\cyru }\IeC {\cyrl }\IeC {\cyra }}{6}}
\@writefile{toc}{\contentsline {subsection}{\numberline {3.2}\IeC {\CYRR }\IeC {\cyra }\IeC {\cyrs }\IeC {\cyrch }\IeC {\cyryo }\IeC {\cyrt } \IeC {\cyrn }\IeC {\cyra }\IeC {\cyrr }\IeC {\cyra }\IeC {\cyrb }\IeC {\cyro }\IeC {\cyrt }\IeC {\cyrk }\IeC {\cyri } \IeC {\cyrn }\IeC {\cyra } \IeC {\cyro }\IeC {\cyrt }\IeC {\cyrk }\IeC {\cyra }\IeC {\cyrz } \IeC {\cyrm }\IeC {\cyre }\IeC {\cyrt }\IeC {\cyro }\IeC {\cyrd }\IeC {\cyro }\IeC {\cyrm } \IeC {\cyro }\IeC {\cyrb }\IeC {\cyrr }\IeC {\cyra }\IeC {\cyrt }\IeC {\cyrn }\IeC {\cyrery }\IeC {\cyrh } \IeC {\cyrr }\IeC {\cyra }\IeC {\cyrn }\IeC {\cyrg }\IeC {\cyro }\IeC {\cyrv }}{7}}
\@writefile{toc}{\contentsline {subsection}{\numberline {3.3}\IeC {\CYRR }\IeC {\cyra }\IeC {\cyrs }\IeC {\cyrch }\IeC {\cyryo }\IeC {\cyrt } \IeC {\cyrv }\IeC {\cyre }\IeC {\cyrr }\IeC {\cyro }\IeC {\cyrya }\IeC {\cyrt }\IeC {\cyrn }\IeC {\cyro }\IeC {\cyrs }\IeC {\cyrt }\IeC {\cyri } \IeC {\cyrs }\IeC {\cyro }\IeC {\cyrb }\IeC {\cyrery }\IeC {\cyrt }\IeC {\cyri }\IeC {\cyrya }, \IeC {\cyrk }\IeC {\cyro }\IeC {\cyrt }\IeC {\cyro }\IeC {\cyrr }\IeC {\cyro }\IeC {\cyre } \IeC {\cyrp }\IeC {\cyrr }\IeC {\cyro }\IeC {\cyri }\IeC {\cyrz }\IeC {\cyro }\IeC {\cyrsh }\IeC {\cyrl }\IeC {\cyro } \IeC {\cyrv } \IeC {\cyrr }\IeC {\cyre }\IeC {\cyrz }\IeC {\cyru }\IeC {\cyrl }\IeC {\cyrsftsn }\IeC {\cyrt }\IeC {\cyra }\IeC {\cyrt }\IeC {\cyre } \IeC {\cyri }\IeC {\cyrs }\IeC {\cyrp }\IeC {\cyrery }\IeC {\cyrt }\IeC {\cyra }\IeC {\cyrn }\IeC {\cyri }\IeC {\cyrishrt }}{8}}
\@writefile{toc}{\contentsline {subsection}{\numberline {3.4}\IeC {\CYRR }\IeC {\cyra }\IeC {\cyrs }\IeC {\cyrch }\IeC {\cyryo }\IeC {\cyrt } \IeC {\cyrv }\IeC {\cyre }\IeC {\cyrr }\IeC {\cyro }\IeC {\cyrya }\IeC {\cyrt }\IeC {\cyrn }\IeC {\cyro }\IeC {\cyrs }\IeC {\cyrt }\IeC {\cyri } $P(t_0)$ \IeC {\cyri } \IeC {\cyrd }\IeC {\cyro }\IeC {\cyrv }\IeC {\cyre }\IeC {\cyrr }\IeC {\cyri }\IeC {\cyrt }\IeC {\cyre }\IeC {\cyrl }\IeC {\cyrsftsn }\IeC {\cyrn }\IeC {\cyrery }\IeC {\cyrh } \IeC {\cyrg }\IeC {\cyrr }\IeC {\cyra }\IeC {\cyrn }\IeC {\cyri }\IeC {\cyrc }}{8}}
