\relax 
\catcode`"\active
\select@language{russian}
\@writefile{toc}{\select@language{russian}}
\@writefile{lof}{\select@language{russian}}
\@writefile{lot}{\select@language{russian}}
\@writefile{toc}{\contentsline {section}{\numberline {1}\IeC {\CYRT }\IeC {\cyre }\IeC {\cyro }\IeC {\cyrr }\IeC {\cyre }\IeC {\cyrt }\IeC {\cyri }\IeC {\cyrch }\IeC {\cyre }\IeC {\cyrs }\IeC {\cyrk }\IeC {\cyri }\IeC {\cyre } \IeC {\cyro }\IeC {\cyrs }\IeC {\cyrn }\IeC {\cyro }\IeC {\cyrv }\IeC {\cyrery } \IeC {\cyri }\IeC {\cyrz }\IeC {\cyrm }\IeC {\cyre }\IeC {\cyrr }\IeC {\cyri }\IeC {\cyrt }\IeC {\cyre }\IeC {\cyrl }\IeC {\cyrsftsn }\IeC {\cyrn }\IeC {\cyro }\IeC {\cyrishrt } \IeC {\cyrt }\IeC {\cyre }\IeC {\cyrh }\IeC {\cyrn }\IeC {\cyri }\IeC {\cyrk }\IeC {\cyri }\IeC {\cyri } \IeC {\cyrp }\IeC {\cyrr }\IeC {\cyro }\IeC {\cyrv }\IeC {\cyre }\IeC {\cyrd }\IeC {\cyre }\IeC {\cyrn }\IeC {\cyri }\IeC {\cyrya } \IeC {\cyrn }\IeC {\cyra }\IeC {\cyru }\IeC {\cyrch }\IeC {\cyrn }\IeC {\cyrery }\IeC {\cyrh } \IeC {\cyrerev }\IeC {\cyrk }\IeC {\cyrs }\IeC {\cyrp }\IeC {\cyre }\IeC {\cyrr }\IeC {\cyri }\IeC {\cyrm }\IeC {\cyre }\IeC {\cyrn }\IeC {\cyrt }\IeC {\cyra }\IeC {\cyrl }\IeC {\cyrsftsn }\IeC {\cyrn }\IeC {\cyrery }\IeC {\cyrh } \IeC {\cyri }\IeC {\cyrs }\IeC {\cyrs }\IeC {\cyrl }\IeC {\cyre }\IeC {\cyrd }\IeC {\cyro }\IeC {\cyrv }\IeC {\cyra }\IeC {\cyrn }\IeC {\cyri }\IeC {\cyrishrt }}{3}}
\@writefile{toc}{\contentsline {subsection}{\numberline {1.1} \IeC {\CYRO }\IeC {\cyrs }\IeC {\cyrn }\IeC {\cyro }\IeC {\cyrv }\IeC {\cyrn }\IeC {\cyrery }\IeC {\cyre } \IeC {\cyrp }\IeC {\cyro }\IeC {\cyrn }\IeC {\cyrya }\IeC {\cyrt }\IeC {\cyri }\IeC {\cyrya } \IeC {\cyri } \IeC {\cyro }\IeC {\cyrp }\IeC {\cyrr }\IeC {\cyre }\IeC {\cyrd }\IeC {\cyre }\IeC {\cyrl }\IeC {\cyre }\IeC {\cyrn }\IeC {\cyri }\IeC {\cyrya }}{3}}
\@writefile{toc}{\contentsline {subsection}{\numberline {1.2} \IeC {\CYRO }\IeC {\cyrs }\IeC {\cyrn }\IeC {\cyro }\IeC {\cyrv }\IeC {\cyrn }\IeC {\cyrery }\IeC {\cyre } \IeC {\cyrf }\IeC {\cyri }\IeC {\cyrz }\IeC {\cyri }\IeC {\cyrch }\IeC {\cyre }\IeC {\cyrs }\IeC {\cyrk }\IeC {\cyri }\IeC {\cyre } \IeC {\cyrv }\IeC {\cyre }\IeC {\cyrl }\IeC {\cyri }\IeC {\cyrch }\IeC {\cyri }\IeC {\cyrn }\IeC {\cyrery } \IeC {\cyri } \IeC {\cyri }\IeC {\cyrh } \IeC {\cyrh }\IeC {\cyra }\IeC {\cyrr }\IeC {\cyra }\IeC {\cyrk }\IeC {\cyrt }\IeC {\cyre }\IeC {\cyrr }\IeC {\cyri }\IeC {\cyrs }\IeC {\cyrt }\IeC {\cyri }\IeC {\cyrk }\IeC {\cyri }}{5}}
\@writefile{toc}{\contentsline {subsection}{\numberline {1.3}\IeC {\CYRI }\IeC {\cyrz }\IeC {\cyrm }\IeC {\cyre }\IeC {\cyrr }\IeC {\cyri }\IeC {\cyrt }\IeC {\cyre }\IeC {\cyrl }\IeC {\cyrsftsn }\IeC {\cyrn }\IeC {\cyra }\IeC {\cyrya } \IeC {\cyrt }\IeC {\cyre }\IeC {\cyrh }\IeC {\cyrn }\IeC {\cyri }\IeC {\cyrk }\IeC {\cyra } \IeC {\cyrv } \IeC {\cyrs }\IeC {\cyri }\IeC {\cyrs }\IeC {\cyrt }\IeC {\cyre }\IeC {\cyrm }\IeC {\cyra }\IeC {\cyrh } \IeC {\cyru }\IeC {\cyrp }\IeC {\cyrr }\IeC {\cyra }\IeC {\cyrv }\IeC {\cyrl }\IeC {\cyre }\IeC {\cyrn }\IeC {\cyri }\IeC {\cyrya }}{6}}
\@writefile{toc}{\contentsline {subsection}{\numberline {1.4}\IeC {\CYRV }\IeC {\cyri }\IeC {\cyrd }\IeC {\cyrery } \IeC {\cyri }\IeC {\cyrz }\IeC {\cyrm }\IeC {\cyre }\IeC {\cyrr }\IeC {\cyre }\IeC {\cyrn }\IeC {\cyri }\IeC {\cyrishrt }}{7}}
\@writefile{toc}{\contentsline {subsection}{\numberline {1.5}\IeC {\CYRM }\IeC {\cyre }\IeC {\cyrt }\IeC {\cyro }\IeC {\cyrd }\IeC {\cyrery } \IeC {\cyri }\IeC {\cyrz }\IeC {\cyrm }\IeC {\cyre }\IeC {\cyrr }\IeC {\cyre }\IeC {\cyrn }\IeC {\cyri }\IeC {\cyrishrt }}{9}}
\@writefile{toc}{\contentsline {subsection}{\numberline {1.6}\IeC {\CYRK }\IeC {\cyrl }\IeC {\cyra }\IeC {\cyrs }\IeC {\cyrs }\IeC {\cyri }\IeC {\cyrf }\IeC {\cyri }\IeC {\cyrk }\IeC {\cyra }\IeC {\cyrc }\IeC {\cyri }\IeC {\cyrya } \IeC {\cyrs }\IeC {\cyrr }\IeC {\cyre }\IeC {\cyrd }\IeC {\cyrs }\IeC {\cyrt }\IeC {\cyrv } \IeC {\cyri }\IeC {\cyrz }\IeC {\cyrm }\IeC {\cyre }\IeC {\cyrr }\IeC {\cyre }\IeC {\cyrn }\IeC {\cyri }\IeC {\cyrya }}{11}}
\@writefile{toc}{\contentsline {subsection}{\numberline {1.7}\IeC {\CYRO }\IeC {\cyrs }\IeC {\cyrn }\IeC {\cyro }\IeC {\cyrv }\IeC {\cyrn }\IeC {\cyrery }\IeC {\cyre } \IeC {\cyrh }\IeC {\cyra }\IeC {\cyrr }\IeC {\cyra }\IeC {\cyrk }\IeC {\cyrt }\IeC {\cyre }\IeC {\cyrr }\IeC {\cyri }\IeC {\cyrs }\IeC {\cyrt }\IeC {\cyri }\IeC {\cyrk }\IeC {\cyri } \IeC {\cyrs }\IeC {\cyrr }\IeC {\cyre }\IeC {\cyrd }\IeC {\cyrs }\IeC {\cyrt }\IeC {\cyrv } \IeC {\cyri }\IeC {\cyrz }\IeC {\cyrm }\IeC {\cyre }\IeC {\cyrr }\IeC {\cyre }\IeC {\cyrn }\IeC {\cyri }\IeC {\cyrya }}{12}}
\@writefile{toc}{\contentsline {subsection}{\numberline {1.8}\IeC {\CYRP }\IeC {\cyro }\IeC {\cyrg }\IeC {\cyrr }\IeC {\cyre }\IeC {\cyrsh }\IeC {\cyrn }\IeC {\cyro }\IeC {\cyrs }\IeC {\cyrt }\IeC {\cyri } \IeC {\cyri }\IeC {\cyrz }\IeC {\cyrm }\IeC {\cyre }\IeC {\cyrr }\IeC {\cyre }\IeC {\cyrn }\IeC {\cyri }\IeC {\cyrishrt }}{14}}
\@writefile{toc}{\contentsline {paragraph}{\IeC {\CYRK }\IeC {\cyrl }\IeC {\cyra }\IeC {\cyrs }\IeC {\cyrs }\IeC {\cyri }\IeC {\cyrf }\IeC {\cyri }\IeC {\cyrk }\IeC {\cyra }\IeC {\cyrc }\IeC {\cyri }\IeC {\cyrya } \IeC {\cyrp }\IeC {\cyro }\IeC {\cyrg }\IeC {\cyrr }\IeC {\cyre }\IeC {\cyrsh }\IeC {\cyrn }\IeC {\cyro }\IeC {\cyrs }\IeC {\cyrt }\IeC {\cyre }\IeC {\cyrishrt }}{14}}
\@writefile{toc}{\contentsline {subsection}{\numberline {1.9}\IeC {\CYRO }\IeC {\cyrc }\IeC {\cyre }\IeC {\cyrn }\IeC {\cyrk }\IeC {\cyra } \IeC {\cyrs }\IeC {\cyrl }\IeC {\cyru }\IeC {\cyrch }\IeC {\cyra }\IeC {\cyrishrt }\IeC {\cyrn }\IeC {\cyrery }\IeC {\cyrh } \IeC {\cyrp }\IeC {\cyro }\IeC {\cyrg }\IeC {\cyrr }\IeC {\cyre }\IeC {\cyrsh }\IeC {\cyrn }\IeC {\cyro }\IeC {\cyrs }\IeC {\cyrt }\IeC {\cyre }\IeC {\cyrishrt }}{14}}
\@writefile{toc}{\contentsline {subsection}{\numberline {1.10}\IeC {\CYRS }\IeC {\cyri }\IeC {\cyrs }\IeC {\cyrt }\IeC {\cyre }\IeC {\cyrm }\IeC {\cyra }\IeC {\cyrt }\IeC {\cyri }\IeC {\cyrch }\IeC {\cyre }\IeC {\cyrs }\IeC {\cyrk }\IeC {\cyra }\IeC {\cyrya } \IeC {\cyrp }\IeC {\cyro }\IeC {\cyrg }\IeC {\cyrr }\IeC {\cyre }\IeC {\cyrsh }\IeC {\cyrn }\IeC {\cyro }\IeC {\cyrs }\IeC {\cyrt }\IeC {\cyrsftsn }}{15}}
\@writefile{toc}{\contentsline {subsection}{\numberline {1.11}\IeC {\CYRM }\IeC {\cyre }\IeC {\cyrt }\IeC {\cyro }\IeC {\cyrd }\IeC {\cyri }\IeC {\cyrk }\IeC {\cyri } \IeC {\cyro }\IeC {\cyrc }\IeC {\cyre }\IeC {\cyrn }\IeC {\cyrk }\IeC {\cyri } \IeC {\cyrr }\IeC {\cyre }\IeC {\cyrz }\IeC {\cyru }\IeC {\cyrl }\IeC {\cyrsftsn }\IeC {\cyrt }\IeC {\cyra }\IeC {\cyrt }\IeC {\cyro }\IeC {\cyrv } \IeC {\cyrp }\IeC {\cyrr }\IeC {\cyri } \IeC {\cyrr }\IeC {\cyra }\IeC {\cyrz }\IeC {\cyrl }\IeC {\cyri }\IeC {\cyrch }\IeC {\cyrn }\IeC {\cyrery }\IeC {\cyrh } \IeC {\cyrm }\IeC {\cyre }\IeC {\cyrt }\IeC {\cyro }\IeC {\cyrd }\IeC {\cyra }\IeC {\cyrh } \IeC {\cyri }\IeC {\cyrz }\IeC {\cyrm }\IeC {\cyre }\IeC {\cyrr }\IeC {\cyre }\IeC {\cyrn }\IeC {\cyri }\IeC {\cyrishrt }}{17}}
\@writefile{toc}{\contentsline {subsection}{\numberline {1.12}\IeC {\CYRP }\IeC {\cyro }\IeC {\cyrd }\IeC {\cyrh }\IeC {\cyro }\IeC {\cyrd }\IeC {\cyrery } \IeC {\cyrk } \IeC {\cyrr }\IeC {\cyre }\IeC {\cyra }\IeC {\cyrl }\IeC {\cyri }\IeC {\cyrz }\IeC {\cyra }\IeC {\cyrc }\IeC {\cyri }\IeC {\cyri } \IeC {\cyrm }\IeC {\cyrn }\IeC {\cyro }\IeC {\cyrg }\IeC {\cyro }\IeC {\cyrk }\IeC {\cyrr }\IeC {\cyra }\IeC {\cyrt }\IeC {\cyrn }\IeC {\cyrery }\IeC {\cyrh } \IeC {\cyri }\IeC {\cyrz }\IeC {\cyrm }\IeC {\cyre }\IeC {\cyrr }\IeC {\cyre }\IeC {\cyrn }\IeC {\cyri }\IeC {\cyrishrt }}{19}}
\@writefile{toc}{\contentsline {subsection}{\numberline {1.13}\IeC {\CYRM }\IeC {\cyre }\IeC {\cyrt }\IeC {\cyro }\IeC {\cyrd }\IeC {\cyri }\IeC {\cyrk }\IeC {\cyri } \IeC {\cyro }\IeC {\cyrc }\IeC {\cyre }\IeC {\cyrn }\IeC {\cyrk }\IeC {\cyri } \IeC {\cyrp }\IeC {\cyro }\IeC {\cyrg }\IeC {\cyrr }\IeC {\cyre }\IeC {\cyrsh }\IeC {\cyrn }\IeC {\cyro }\IeC {\cyrs }\IeC {\cyrt }\IeC {\cyre }\IeC {\cyrishrt } \IeC {\cyrp }\IeC {\cyrr }\IeC {\cyri } \IeC {\cyrp }\IeC {\cyrr }\IeC {\cyro }\IeC {\cyrv }\IeC {\cyre }\IeC {\cyrd }\IeC {\cyre }\IeC {\cyrn }\IeC {\cyri }\IeC {\cyri } \IeC {\cyrk }\IeC {\cyro }\IeC {\cyrs }\IeC {\cyrv }\IeC {\cyre }\IeC {\cyrn }\IeC {\cyrn }\IeC {\cyrery }\IeC {\cyrh } \IeC {\cyri }\IeC {\cyrz }\IeC {\cyrm }\IeC {\cyre }\IeC {\cyrr }\IeC {\cyre }\IeC {\cyrn }\IeC {\cyri }\IeC {\cyrishrt }}{19}}
\@writefile{toc}{\contentsline {subsection}{\numberline {1.14}\IeC {\CYRM }\IeC {\cyre }\IeC {\cyrt }\IeC {\cyro }\IeC {\cyrd }\IeC {\cyri }\IeC {\cyrk }\IeC {\cyra } \IeC {\cyro }\IeC {\cyrc }\IeC {\cyre }\IeC {\cyrn }\IeC {\cyrk }\IeC {\cyri } \IeC {\cyrr }\IeC {\cyre }\IeC {\cyrz }\IeC {\cyru }\IeC {\cyrl }\IeC {\cyrsftsn }\IeC {\cyrt }\IeC {\cyra }\IeC {\cyrt }\IeC {\cyro }\IeC {\cyrv } \IeC {\cyrd }\IeC {\cyrl }\IeC {\cyrya } \IeC {\cyrs }\IeC {\cyro }\IeC {\cyrv }\IeC {\cyro }\IeC {\cyrk }\IeC {\cyru }\IeC {\cyrp }\IeC {\cyrn }\IeC {\cyrery }\IeC {\cyrh } \IeC {\cyri } \IeC {\cyrs }\IeC {\cyro }\IeC {\cyrv }\IeC {\cyrm }\IeC {\cyre }\IeC {\cyrs }\IeC {\cyrt }\IeC {\cyrn }\IeC {\cyrery }\IeC {\cyrh } \IeC {\cyri }\IeC {\cyrz }\IeC {\cyrm }\IeC {\cyre }\IeC {\cyrr }\IeC {\cyre }\IeC {\cyrn }\IeC {\cyri }\IeC {\cyrishrt }}{21}}
\@writefile{toc}{\contentsline {subsection}{\numberline {1.15}\IeC {\CYRS }\IeC {\cyru }\IeC {\cyrm }\IeC {\cyrm }\IeC {\cyri }\IeC {\cyrr }\IeC {\cyro }\IeC {\cyrv }\IeC {\cyra }\IeC {\cyrn }\IeC {\cyri }\IeC {\cyre } \IeC {\cyrr }\IeC {\cyre }\IeC {\cyrz }\IeC {\cyru }\IeC {\cyrl }\IeC {\cyrsftsn }\IeC {\cyrt }\IeC {\cyra }\IeC {\cyrt }\IeC {\cyro }\IeC {\cyrv } \IeC {\cyri }\IeC {\cyrz }\IeC {\cyrm }\IeC {\cyre }\IeC {\cyrr }\IeC {\cyre }\IeC {\cyrn }\IeC {\cyri }\IeC {\cyrishrt }}{22}}
\@writefile{toc}{\contentsline {subsection}{\numberline {1.16}\IeC {\CYRM }\IeC {\cyre }\IeC {\cyrt }\IeC {\cyrr }\IeC {\cyro }\IeC {\cyrl }\IeC {\cyro }\IeC {\cyrg }\IeC {\cyri }\IeC {\cyrch }\IeC {\cyre }\IeC {\cyrs }\IeC {\cyrk }\IeC {\cyri }\IeC {\cyre } \IeC {\cyrk }\IeC {\cyrl }\IeC {\cyra }\IeC {\cyrs }\IeC {\cyrs }\IeC {\cyrery } \IeC {\cyrt }\IeC {\cyro }\IeC {\cyrch }\IeC {\cyrn }\IeC {\cyro }\IeC {\cyrs }\IeC {\cyrt }\IeC {\cyri }}{23}}
\@writefile{toc}{\contentsline {section}{\numberline {2}\IeC {\CYRC }\IeC {\cyri }\IeC {\cyrf }\IeC {\cyrr }\IeC {\cyro }\IeC {\cyrv }\IeC {\cyra }\IeC {\cyrya } \IeC {\cyrf }\IeC {\cyri }\IeC {\cyrl }\IeC {\cyrsftsn }\IeC {\cyrt }\IeC {\cyrr }\IeC {\cyra }\IeC {\cyrc }\IeC {\cyri }\IeC {\cyrya } \IeC {\cyrs }\IeC {\cyrl }\IeC {\cyru }\IeC {\cyrch }\IeC {\cyra }\IeC {\cyrishrt }\IeC {\cyrn }\IeC {\cyrery }\IeC {\cyrh } \IeC {\cyrs }\IeC {\cyri }\IeC {\cyrg }\IeC {\cyrn }\IeC {\cyra }\IeC {\cyrl }\IeC {\cyro }\IeC {\cyrv }}{24}}
\@writefile{toc}{\contentsline {subsection}{\numberline {2.1}\IeC {\CYRO }\IeC {\cyrb }\IeC {\cyrshch }\IeC {\cyri }\IeC {\cyre } \IeC {\cyrp }\IeC {\cyro }\IeC {\cyrn }\IeC {\cyrya }\IeC {\cyrt }\IeC {\cyri }\IeC {\cyrya } \IeC {\cyri } \IeC {\cyro }\IeC {\cyrs }\IeC {\cyrn }\IeC {\cyro }\IeC {\cyrv }\IeC {\cyrn }\IeC {\cyrery }\IeC {\cyre } \IeC {\cyrp }\IeC {\cyra }\IeC {\cyrr }\IeC {\cyra }\IeC {\cyrm }\IeC {\cyre }\IeC {\cyrt }\IeC {\cyrr }\IeC {\cyrery } \IeC {\cyrc }\IeC {\cyri }\IeC {\cyrf }\IeC {\cyrr }\IeC {\cyro }\IeC {\cyrv }\IeC {\cyrery }\IeC {\cyrh } \IeC {\cyrs }\IeC {\cyri }\IeC {\cyrg }\IeC {\cyrn }\IeC {\cyra }\IeC {\cyrl }\IeC {\cyro }\IeC {\cyrv }}{24}}
\@writefile{toc}{\contentsline {subsubsection}{\numberline {2.1.1}\IeC {\CYRP }\IeC {\cyre }\IeC {\cyrr }\IeC {\cyre }\IeC {\cyrd }\IeC {\cyra }\IeC {\cyrt }\IeC {\cyro }\IeC {\cyrch }\IeC {\cyrn }\IeC {\cyra }\IeC {\cyrya } \IeC {\cyrf }\IeC {\cyru }\IeC {\cyrn }\IeC {\cyrk }\IeC {\cyrc }\IeC {\cyri }\IeC {\cyrya }}{24}}
\@writefile{toc}{\contentsline {subsubsection}{\numberline {2.1.2}\IeC {\CYRK }\IeC {\cyro }\IeC {\cyrerev }\IeC {\cyrf }\IeC {\cyrf }\IeC {\cyri }\IeC {\cyrc }\IeC {\cyri }\IeC {\cyre }\IeC {\cyrn }\IeC {\cyrt } \IeC {\cyrp }\IeC {\cyru }\IeC {\cyrl }\IeC {\cyrsftsn }\IeC {\cyrs }\IeC {\cyra }\IeC {\cyrc }\IeC {\cyri }\IeC {\cyri }}{26}}
\@writefile{toc}{\contentsline {subsubsection}{\numberline {2.1.3}\IeC {\CYRP }\IeC {\cyro }\IeC {\cyrr }\IeC {\cyrya }\IeC {\cyrd }\IeC {\cyro }\IeC {\cyrk } \IeC {\cyrf }\IeC {\cyri }\IeC {\cyrl }\IeC {\cyrsftsn }\IeC {\cyrt }\IeC {\cyrr }\IeC {\cyra }}{27}}
\@writefile{toc}{\contentsline {subsection}{\numberline {2.2}\IeC {\CYRN }\IeC {\cyre }\IeC {\cyrr }\IeC {\cyre }\IeC {\cyrk }\IeC {\cyru }\IeC {\cyrr }\IeC {\cyrs }\IeC {\cyri }\IeC {\cyrv }\IeC {\cyrn }\IeC {\cyrery }\IeC {\cyre } \IeC {\cyrc }\IeC {\cyri }\IeC {\cyrf }\IeC {\cyrr }\IeC {\cyro }\IeC {\cyrv }\IeC {\cyrery }\IeC {\cyre } \IeC {\cyrf }\IeC {\cyri }\IeC {\cyrl }\IeC {\cyrsftsn }\IeC {\cyrt }\IeC {\cyrr }\IeC {\cyrery }}{27}}
\@writefile{toc}{\contentsline {subsubsection}{\numberline {2.2.1}\IeC {\CYRP }\IeC {\cyre }\IeC {\cyrr }\IeC {\cyre }\IeC {\cyrd }\IeC {\cyra }\IeC {\cyrt }\IeC {\cyro }\IeC {\cyrch }\IeC {\cyrn }\IeC {\cyra }\IeC {\cyrya } \IeC {\cyrh }\IeC {\cyra }\IeC {\cyrr }\IeC {\cyra }\IeC {\cyrk }\IeC {\cyrt }\IeC {\cyre }\IeC {\cyrr }\IeC {\cyri }\IeC {\cyrs }\IeC {\cyrt }\IeC {\cyri }\IeC {\cyrk }\IeC {\cyra } \IeC {\cyrn }\IeC {\cyre }\IeC {\cyrr }\IeC {\cyre }\IeC {\cyrk }\IeC {\cyru }\IeC {\cyrr }\IeC {\cyrs }\IeC {\cyri }\IeC {\cyrv }\IeC {\cyrn }\IeC {\cyro }\IeC {\cyrg }\IeC {\cyro } \IeC {\cyrf }\IeC {\cyri }\IeC {\cyrl }\IeC {\cyrsftsn }\IeC {\cyrt }\IeC {\cyrr }\IeC {\cyra }}{29}}
\@writefile{toc}{\contentsline {subsection}{\numberline {2.3}\IeC {\CYRS }\IeC {\cyri }\IeC {\cyrs }\IeC {\cyrt }\IeC {\cyro }\IeC {\cyrl }\IeC {\cyri }\IeC {\cyrch }\IeC {\cyre }\IeC {\cyrs }\IeC {\cyrk }\IeC {\cyri }\IeC {\cyrishrt } \IeC {\cyrp }\IeC {\cyrr }\IeC {\cyro }\IeC {\cyrc }\IeC {\cyre }\IeC {\cyrs }\IeC {\cyrs }\IeC {\cyro }\IeC {\cyrr } \IeC {\cyrd }\IeC {\cyrl }\IeC {\cyrya } \IeC {\cyrr }\IeC {\cyre }\IeC {\cyra }\IeC {\cyrl }\IeC {\cyri }\IeC {\cyrz }\IeC {\cyra }\IeC {\cyrc }\IeC {\cyri }\IeC {\cyri } \IeC {\CYRN }\IeC {\CYRC }\IeC {\CYRF }}{30}}
\@writefile{toc}{\contentsline {subsection}{\numberline {2.4}\IeC {\CYRR }\IeC {\cyre }\IeC {\cyrk }\IeC {\cyru }\IeC {\cyrr }\IeC {\cyrs }\IeC {\cyri }\IeC {\cyrv }\IeC {\cyrn }\IeC {\cyrery }\IeC {\cyre } \IeC {\cyrc }\IeC {\cyri }\IeC {\cyrf }\IeC {\cyrr }\IeC {\cyro }\IeC {\cyrv }\IeC {\cyrery }\IeC {\cyre } \IeC {\cyrf }\IeC {\cyri }\IeC {\cyrl }\IeC {\cyrsftsn }\IeC {\cyrt }\IeC {\cyrr }\IeC {\cyrery }}{30}}
\@writefile{toc}{\contentsline {subsection}{\numberline {2.5}\IeC {\CYRS }\IeC {\cyri }\IeC {\cyrs }\IeC {\cyrt }\IeC {\cyro }\IeC {\cyrl }\IeC {\cyri }\IeC {\cyrch }\IeC {\cyre }\IeC {\cyrs }\IeC {\cyrk }\IeC {\cyri }\IeC {\cyrishrt } \IeC {\cyrp }\IeC {\cyrr }\IeC {\cyro }\IeC {\cyrc }\IeC {\cyre }\IeC {\cyrs }\IeC {\cyro }\IeC {\cyrr } \IeC {\cyrd }\IeC {\cyrl }\IeC {\cyrya } \IeC {\cyrr }\IeC {\cyre }\IeC {\cyra }\IeC {\cyrl }\IeC {\cyri }\IeC {\cyrz }\IeC {\cyra }\IeC {\cyrc }\IeC {\cyri } \IeC {\CYRR }\IeC {\CYRC }\IeC {\CYRF }}{32}}
\@writefile{toc}{\contentsline {subsection}{\numberline {2.6}\IeC {\CYRM }\IeC {\cyre }\IeC {\cyrt }\IeC {\cyro }\IeC {\cyrd }\IeC {\cyri }\IeC {\cyrk }\IeC {\cyra } \IeC {\cyrr }\IeC {\cyra }\IeC {\cyrs }\IeC {\cyrch }\IeC {\cyre }\IeC {\cyrt }\IeC {\cyra } \IeC {\cyrr }\IeC {\cyre }\IeC {\cyrk }\IeC {\cyru }\IeC {\cyrr }\IeC {\cyrs }\IeC {\cyri }\IeC {\cyrv }\IeC {\cyrn }\IeC {\cyro }\IeC {\cyrg }\IeC {\cyro } \IeC {\cyrc }\IeC {\cyri }\IeC {\cyrf }\IeC {\cyrr }\IeC {\cyro }\IeC {\cyrv }\IeC {\cyro }\IeC {\cyrg }\IeC {\cyro } \IeC {\cyrf }\IeC {\cyri }\IeC {\cyrl }\IeC {\cyrsftsn }\IeC {\cyrt }\IeC {\cyrr }\IeC {\cyra }}{32}}
\@writefile{toc}{\contentsline {paragraph}{\IeC {\CYRA }\IeC {\cyrl }\IeC {\cyrg }\IeC {\cyro }\IeC {\cyrr }\IeC {\cyri }\IeC {\cyrt }\IeC {\cyrm } \IeC {\cyrr }\IeC {\cyra }\IeC {\cyrs }\IeC {\cyrch }\IeC {\cyryo }\IeC {\cyrt }\IeC {\cyra } \IeC {\CYRR }\IeC {\CYRC }\IeC {\CYRF }}{33}}
\newlabel{eq1}{{1}{33}}
\newlabel{eq2}{{2}{33}}
\newlabel{eq3}{{3}{33}}
\@writefile{toc}{\contentsline {subsection}{\numberline {2.7}\IeC {\CYRI }\IeC {\cyrn }\IeC {\cyrt }\IeC {\cyre }\IeC {\cyrg }\IeC {\cyrr }\IeC {\cyri }\IeC {\cyrr }\IeC {\cyru }\IeC {\cyryu }\IeC {\cyrshch }\IeC {\cyri }\IeC {\cyre } \IeC {\cyrc }\IeC {\cyri }\IeC {\cyrf }\IeC {\cyrr }\IeC {\cyro }\IeC {\cyrv }\IeC {\cyrery }\IeC {\cyre } \IeC {\cyrf }\IeC {\cyri }\IeC {\cyrl }\IeC {\cyrsftsn }\IeC {\cyrt }\IeC {\cyrr }\IeC {\cyrery }}{34}}
\@writefile{toc}{\contentsline {section}{\numberline {3}\IeC {\CYRR }\IeC {\cyra }\IeC {\cyrs }\IeC {\cyrp }\IeC {\cyro }\IeC {\cyrz }\IeC {\cyrn }\IeC {\cyra }\IeC {\cyryu }\IeC {\cyrshch }\IeC {\cyri }\IeC {\cyre } \IeC {\cyri }\IeC {\cyrz }\IeC {\cyrm }\IeC {\cyre }\IeC {\cyrr }\IeC {\cyri }\IeC {\cyrt }\IeC {\cyre }\IeC {\cyrl }\IeC {\cyrsftsn }\IeC {\cyrn }\IeC {\cyrery }\IeC {\cyre } \IeC {\cyrs }\IeC {\cyri }\IeC {\cyrs }\IeC {\cyrt }\IeC {\cyre }\IeC {\cyrm }\IeC {\cyrery }}{36}}
\@writefile{toc}{\contentsline {subsection}{\numberline {3.1}\IeC {\CYRP }\IeC {\cyro }\IeC {\cyrn }\IeC {\cyrya }\IeC {\cyrt }\IeC {\cyri }\IeC {\cyrya } \IeC {\cyri } \IeC {\cyro }\IeC {\cyrp }\IeC {\cyrr }\IeC {\cyre }\IeC {\cyrd }\IeC {\cyre }\IeC {\cyrl }\IeC {\cyre }\IeC {\cyrn }\IeC {\cyri }\IeC {\cyrya }}{36}}
\@writefile{toc}{\contentsline {subsection}{\numberline {3.2}\IeC {\CYREREV }\IeC {\cyrt }\IeC {\cyra }\IeC {\cyrp }\IeC {\cyrery } \IeC {\cyrp }\IeC {\cyrr }\IeC {\cyro }\IeC {\cyre }\IeC {\cyrk }\IeC {\cyrt }\IeC {\cyri }\IeC {\cyrr }\IeC {\cyro }\IeC {\cyrv }\IeC {\cyra }\IeC {\cyrn }\IeC {\cyri }\IeC {\cyrya } \IeC {\CYRR }\IeC {\CYRI }\IeC {\CYRS }}{37}}
\@writefile{toc}{\contentsline {subsection}{\numberline {3.3}\IeC {\CYRK }\IeC {\cyrl }\IeC {\cyra }\IeC {\cyrs }\IeC {\cyrs }\IeC {\cyri }\IeC {\cyrf }\IeC {\cyri }\IeC {\cyrk }\IeC {\cyra }\IeC {\cyrc }\IeC {\cyri }\IeC {\cyrya } \IeC {\CYRR }\IeC {\CYRI }\IeC {\CYRS }. \IeC {\CYRS }\IeC {\cyrt }\IeC {\cyrr }\IeC {\cyru }\IeC {\cyrk }\IeC {\cyrt }\IeC {\cyru }\IeC {\cyrr }\IeC {\cyrn }\IeC {\cyrery }\IeC {\cyre } \IeC {\cyrs }\IeC {\cyrh }\IeC {\cyre }\IeC {\cyrm }\IeC {\cyrery }}{38}}
\@writefile{lof}{\contentsline {figure}{\numberline {1}{\ignorespaces \IeC {\CYRO }\IeC {\cyrb }\IeC {\cyro }\IeC {\cyrb }\IeC {\cyrshch }\IeC {\cyryo }\IeC {\cyrn }\IeC {\cyrn }\IeC {\cyra }\IeC {\cyrya } \IeC {\cyrs }\IeC {\cyrt }\IeC {\cyrr }\IeC {\cyru }\IeC {\cyrk }\IeC {\cyrt }\IeC {\cyru }\IeC {\cyrr }\IeC {\cyrn }\IeC {\cyra }\IeC {\cyrya } \IeC {\cyrs }\IeC {\cyrh }\IeC {\cyre }\IeC {\cyrm }\IeC {\cyra } \IeC {\cyrs }\IeC {\cyrl }\IeC {\cyro }\IeC {\cyrzh }\IeC {\cyrn }\IeC {\cyro }\IeC {\cyrishrt } \IeC {\CYRR }\IeC {\CYRI }\IeC {\CYRS }}}{38}}
\@writefile{lof}{\contentsline {figure}{\numberline {2}{\ignorespaces \IeC {\CYRS }\IeC {\cyrt }\IeC {\cyrr }\IeC {\cyru }\IeC {\cyrk }\IeC {\cyrt }\IeC {\cyru }\IeC {\cyrr }\IeC {\cyrn }\IeC {\cyra }\IeC {\cyrya } \IeC {\cyrs }\IeC {\cyrh }\IeC {\cyre }\IeC {\cyrm }\IeC {\cyra } \IeC {\CYRR }\IeC {\CYRI }\IeC {\CYRS } \IeC {\cyrs } \IeC {\cyrs }\IeC {\cyra }\IeC {\cyrm }\IeC {\cyro }\IeC {\cyro }\IeC {\cyrb }\IeC {\cyru }\IeC {\cyrch }\IeC {\cyre }\IeC {\cyrn }\IeC {\cyri }\IeC {\cyre }\IeC {\cyrm }}}{39}}
\ttl@finishall
