\relax 
\catcode`"\active
\select@language{ukrainian}
\@writefile{toc}{\select@language{ukrainian}}
\@writefile{lof}{\select@language{ukrainian}}
\@writefile{lot}{\select@language{ukrainian}}
\@writefile{toc}{\contentsline {section}{\numberline {1}\IeC {\CYRT }\IeC {\cyre }\IeC {\cyrh }\IeC {\cyrn }\IeC {\cyrii }\IeC {\cyrch }\IeC {\cyrn }\IeC {\cyre } \IeC {\cyrz }\IeC {\cyra }\IeC {\cyrv }\IeC {\cyrd }\IeC {\cyra }\IeC {\cyrn }\IeC {\cyrn }\IeC {\cyrya }}{2}}
\@writefile{toc}{\contentsline {section}{\numberline {2}\IeC {\CYRO }\IeC {\cyrp }\IeC {\cyri }\IeC {\cyrs } \IeC {\cyrp }\IeC {\cyrr }\IeC {\cyro }\IeC {\cyrg }\IeC {\cyrr }\IeC {\cyra }\IeC {\cyrm }\IeC {\cyri }}{2}}
\@writefile{toc}{\contentsline {subsection}{\numberline {2.1}\IeC {\CYRF }\IeC {\cyru }\IeC {\cyrn }\IeC {\cyrk }\IeC {\cyrc }\IeC {\cyrii }\IeC {\cyro }\IeC {\cyrn }\IeC {\cyra }\IeC {\cyrl }\IeC {\cyrsftsn }\IeC {\cyrn }\IeC {\cyri }\IeC {\cyrishrt } \IeC {\cyro }\IeC {\cyrp }\IeC {\cyri }\IeC {\cyrs }}{2}}
\@writefile{toc}{\contentsline {subsection}{\numberline {2.2}\IeC {\CYRO }\IeC {\cyrp }\IeC {\cyri }\IeC {\cyrs } \IeC {\cyrr }\IeC {\cyre }\IeC {\cyra }\IeC {\cyrl }\IeC {\cyrii }\IeC {\cyrz }\IeC {\cyra }\IeC {\cyrc }\IeC {\cyrii }\IeC {\cyryi }}{2}}
\@writefile{toc}{\contentsline {subsubsection}{\numberline {2.2.1}\IeC {\CYRG }\IeC {\cyro }\IeC {\cyrl }\IeC {\cyro }\IeC {\cyrv }\IeC {\cyrn }\IeC {\cyre } \IeC {\cyrv }\IeC {\cyrii }\IeC {\cyrk }\IeC {\cyrn }\IeC {\cyro }}{2}}
\@writefile{toc}{\contentsline {subsubsection}{\numberline {2.2.2}\IeC {\CYRII }\IeC {\cyrg }\IeC {\cyrr }\IeC {\cyro }\IeC {\cyrv }\IeC {\cyre } \IeC {\cyrp }\IeC {\cyro }\IeC {\cyrl }\IeC {\cyre }}{3}}
\@writefile{toc}{\contentsline {subsubsection}{\numberline {2.2.3}\IeC {\CYRP }\IeC {\cyrr }\IeC {\cyri }\IeC {\cyrc }\IeC {\cyrii }\IeC {\cyrl }}{3}}
\@writefile{toc}{\contentsline {subsubsection}{\numberline {2.2.4}\IeC {\CYRC }\IeC {\cyrii }\IeC {\cyrl }\IeC {\cyrii }}{3}}
\@writefile{toc}{\contentsline {subsection}{\numberline {2.3}\IeC {\CYRD }\IeC {\cyrii }\IeC {\cyra }\IeC {\cyrg }\IeC {\cyrr }\IeC {\cyra }\IeC {\cyrm }\IeC {\cyra } \IeC {\cyrk }\IeC {\cyrl }\IeC {\cyra }\IeC {\cyrs }\IeC {\cyrii }\IeC {\cyrv }}{4}}
\@writefile{toc}{\contentsline {section}{\numberline {3}\IeC {\CYRK }\IeC {\cyro }\IeC {\cyrd }}{4}}
\@writefile{lol}{\contentsline {lstlisting}{\numberline {1}main.cpp}{4}}
\@writefile{lol}{\contentsline {lstlisting}{\numberline {2}MainWindow.h}{5}}
\@writefile{lol}{\contentsline {lstlisting}{\numberline {3}MainWindow.cpp}{6}}
\@writefile{lol}{\contentsline {lstlisting}{\numberline {4}ship.h}{7}}
\@writefile{lol}{\contentsline {lstlisting}{\numberline {5}ship.cpp}{7}}
\@writefile{lol}{\contentsline {lstlisting}{\numberline {6}target.h}{10}}
\@writefile{lol}{\contentsline {lstlisting}{\numberline {7}target.cpp}{11}}
\ttl@finishall
