\relax 
\catcode`"\active
\select@language{ukrainian}
\@writefile{toc}{\select@language{ukrainian}}
\@writefile{lof}{\select@language{ukrainian}}
\@writefile{lot}{\select@language{ukrainian}}
\@writefile{toc}{\contentsline {section}{\numberline {1}\IeC {\CYRZ }\IeC {\cyra }\IeC {\cyrv }\IeC {\cyrd }\IeC {\cyra }\IeC {\cyrn }\IeC {\cyrn }\IeC {\cyrya }}{2}}
\@writefile{toc}{\contentsline {section}{\numberline {2}\IeC {\CYRK }\IeC {\cyro }\IeC {\cyrd }}{2}}
\@writefile{lol}{\contentsline {lstlisting}{\numberline {1}FileTreeModel.java}{2}}
\@writefile{lol}{\contentsline {lstlisting}{\numberline {2}AccessController.java}{3}}
\@writefile{lol}{\contentsline {lstlisting}{\numberline {3}MainWindowFactory.java}{4}}
\@writefile{lol}{\contentsline {lstlisting}{\numberline {4}UserWindow.java}{4}}
\@writefile{lol}{\contentsline {lstlisting}{\numberline {5}AdminWindow.java}{6}}
\@writefile{lol}{\contentsline {lstlisting}{\numberline {6}AccountsTableModel.java}{8}}
\ttl@finishall
