\relax 
\catcode`"\active
\select@language{ukrainian}
\@writefile{toc}{\select@language{ukrainian}}
\@writefile{lof}{\select@language{ukrainian}}
\@writefile{lot}{\select@language{ukrainian}}
\@writefile{toc}{\contentsline {section}{\numberline {1}\IeC {\CYRZ }\IeC {\cyra }\IeC {\cyrd }\IeC {\cyra }\IeC {\cyrn }\IeC {\cyri }\IeC {\cyre }}{2}}
\@writefile{toc}{\contentsline {section}{\numberline {2}\IeC {\CYRV }\IeC {\cyra }\IeC {\cyrr }\IeC {\cyri }\IeC {\cyra }\IeC {\cyrn }\IeC {\cyrt }}{2}}
\@writefile{toc}{\contentsline {section}{\numberline {3}\IeC {\CYRV }\IeC {\cyre }\IeC {\cyrr }\IeC {\cyro }\IeC {\cyrya }\IeC {\cyrt }\IeC {\cyrn }\IeC {\cyro }\IeC {\cyrs }\IeC {\cyrt }\IeC {\cyrsftsn } \IeC {\cyrb }\IeC {\cyre }\IeC {\cyrz }\IeC {\cyro }\IeC {\cyrt }\IeC {\cyrk }\IeC {\cyra }\IeC {\cyrz }\IeC {\cyrn }\IeC {\cyro }\IeC {\cyrishrt } \IeC {\cyrr }\IeC {\cyra }\IeC {\cyrb }\IeC {\cyro }\IeC {\cyrt }\IeC {\cyrery }}{2}}
\@writefile{lot}{\contentsline {table}{\numberline {1}{\ignorespaces \IeC {\CYRV }\IeC {\cyre }\IeC {\cyrr }\IeC {\cyro }\IeC {\cyrya }\IeC {\cyrt }\IeC {\cyrn }\IeC {\cyro }\IeC {\cyrs }\IeC {\cyrt }\IeC {\cyrsftsn } \IeC {\cyrb }\IeC {\cyre }\IeC {\cyrz }\IeC {\cyro }\IeC {\cyrt }\IeC {\cyrk }\IeC {\cyra }\IeC {\cyrz }\IeC {\cyrn }\IeC {\cyro }\IeC {\cyrishrt } \IeC {\cyrr }\IeC {\cyra }\IeC {\cyrb }\IeC {\cyro }\IeC {\cyrt }\IeC {\cyrery } \IeC {\cyrz }\IeC {\cyra } \IeC {\cyrv }\IeC {\cyrr }\IeC {\cyre }\IeC {\cyrm }\IeC {\cyrya } T}}{3}}
\@writefile{toc}{\contentsline {section}{\numberline {4}\IeC {\CYRV }\IeC {\cyre }\IeC {\cyrr }\IeC {\cyro }\IeC {\cyrya }\IeC {\cyrt }\IeC {\cyrn }\IeC {\cyro }\IeC {\cyrs }\IeC {\cyrt }\IeC {\cyrsftsn } \IeC {\cyrb }\IeC {\cyre }\IeC {\cyrz }\IeC {\cyrs }\IeC {\cyrb }\IeC {\cyro }\IeC {\cyrishrt }\IeC {\cyrn }\IeC {\cyro }\IeC {\cyrishrt } \IeC {\cyrr }\IeC {\cyra }\IeC {\cyrb }\IeC {\cyro }\IeC {\cyrt }\IeC {\cyrery }}{3}}
\@writefile{lot}{\contentsline {table}{\numberline {2}{\ignorespaces \IeC {\CYRV }\IeC {\cyre }\IeC {\cyrr }\IeC {\cyro }\IeC {\cyrya }\IeC {\cyrt }\IeC {\cyrn }\IeC {\cyro }\IeC {\cyrs }\IeC {\cyrt }\IeC {\cyrsftsn } \IeC {\cyrb }\IeC {\cyre }\IeC {\cyrz }\IeC {\cyrs }\IeC {\cyrb }\IeC {\cyro }\IeC {\cyrishrt }\IeC {\cyrn }\IeC {\cyro }\IeC {\cyrishrt } \IeC {\cyrr }\IeC {\cyra }\IeC {\cyrb }\IeC {\cyro }\IeC {\cyrt }\IeC {\cyrery } \IeC {\cyrz }\IeC {\cyra } \IeC {\cyrv }\IeC {\cyrr }\IeC {\cyre }\IeC {\cyrm }\IeC {\cyrya } T}}{3}}
\@writefile{toc}{\contentsline {section}{\numberline {5}\IeC {\CYRN }\IeC {\cyra }\IeC {\cyrr }\IeC {\cyra }\IeC {\cyrb }\IeC {\cyro }\IeC {\cyrt }\IeC {\cyrk }\IeC {\cyra } \IeC {\cyrn }\IeC {\cyra } \IeC {\cyro }\IeC {\cyrt }\IeC {\cyrk }\IeC {\cyra }\IeC {\cyrz }}{3}}
\@writefile{lot}{\contentsline {table}{\numberline {3}{\ignorespaces \IeC {\CYRN }\IeC {\cyra }\IeC {\cyrr }\IeC {\cyra }\IeC {\cyrb }\IeC {\cyro }\IeC {\cyrt }\IeC {\cyrk }\IeC {\cyra } \IeC {\cyrn }\IeC {\cyra } \IeC {\cyro }\IeC {\cyrt }\IeC {\cyrk }\IeC {\cyra }\IeC {\cyrz }}}{4}}
\@writefile{toc}{\contentsline {section}{\numberline {6}\IeC {\CYRN }\IeC {\cyra }\IeC {\cyrr }\IeC {\cyra }\IeC {\cyrb }\IeC {\cyro }\IeC {\cyrt }\IeC {\cyrk }\IeC {\cyra } \IeC {\cyrn }\IeC {\cyra } \IeC {\cyrs }\IeC {\cyrb }\IeC {\cyro }\IeC {\cyrishrt }}{4}}
\@writefile{lot}{\contentsline {table}{\numberline {4}{\ignorespaces \IeC {\CYRN }\IeC {\cyra }\IeC {\cyrr }\IeC {\cyra }\IeC {\cyrb }\IeC {\cyro }\IeC {\cyrt }\IeC {\cyrk }\IeC {\cyra } \IeC {\cyrn }\IeC {\cyra } \IeC {\cyrs }\IeC {\cyrb }\IeC {\cyro }\IeC {\cyrishrt }}}{4}}
\@writefile{toc}{\contentsline {section}{\numberline {7}\IeC {\CYRO }\IeC {\cyrp }\IeC {\cyrr }\IeC {\cyre }\IeC {\cyrd }\IeC {\cyre }\IeC {\cyrl }\IeC {\cyre }\IeC {\cyrn }\IeC {\cyri }\IeC {\cyre } \IeC {\cyrerev }\IeC {\cyrk }\IeC {\cyro }\IeC {\cyrn }\IeC {\cyro }\IeC {\cyrm }\IeC {\cyri }\IeC {\cyrch }\IeC {\cyre }\IeC {\cyrs }\IeC {\cyrk }\IeC {\cyro }\IeC {\cyrishrt } \IeC {\cyrc }\IeC {\cyre }\IeC {\cyrl }\IeC {\cyre }\IeC {\cyrs }\IeC {\cyro }\IeC {\cyro }\IeC {\cyrb }\IeC {\cyrr }\IeC {\cyra }\IeC {\cyrz }\IeC {\cyrn }\IeC {\cyro }\IeC {\cyrs }\IeC {\cyrt }\IeC {\cyri } \IeC {\cyrp }\IeC {\cyrr }\IeC {\cyri }\IeC {\cyrm }\IeC {\cyre }\IeC {\cyrn }\IeC {\cyre }\IeC {\cyrn }\IeC {\cyri }\IeC {\cyrya } \IeC {\CYRK }\IeC {\CYRK }}{4}}
\@writefile{toc}{\contentsline {section}{\numberline {8}\IeC {\CYRI }\IeC {\cyrs }\IeC {\cyrs }\IeC {\cyrl }\IeC {\cyre }\IeC {\cyrd }\IeC {\cyro }\IeC {\cyrv }\IeC {\cyra }\IeC {\cyrn }\IeC {\cyri }\IeC {\cyrya } \IeC {\cyrp }\IeC {\cyra }\IeC {\cyrr }\IeC {\cyra }\IeC {\cyrm }\IeC {\cyre }\IeC {\cyrt }\IeC {\cyrr }\IeC {\cyro }\IeC {\cyrv } \IeC {\cyrerev }\IeC {\cyrk }\IeC {\cyro }\IeC {\cyrn }\IeC {\cyro }\IeC {\cyrm }\IeC {\cyri }\IeC {\cyrch }\IeC {\cyre }\IeC {\cyrs }\IeC {\cyrk }\IeC {\cyro }\IeC {\cyrishrt } \IeC {\cyrc }\IeC {\cyre }\IeC {\cyrl }\IeC {\cyre }\IeC {\cyrs }\IeC {\cyro }\IeC {\cyro }\IeC {\cyrb }\IeC {\cyrr }\IeC {\cyra }\IeC {\cyrz }\IeC {\cyrn }\IeC {\cyro }\IeC {\cyrs }\IeC {\cyrt }\IeC {\cyri }}{5}}
\@writefile{lof}{\contentsline {figure}{\numberline {1}{\ignorespaces \IeC {\CYRG }\IeC {\cyrr }\IeC {\cyra }\IeC {\cyrf }\IeC {\cyri }\IeC {\cyrk } \IeC {\cyrz }\IeC {\cyra }\IeC {\cyrv }\IeC {\cyri }\IeC {\cyrs }\IeC {\cyri }\IeC {\cyrm }\IeC {\cyro }\IeC {\cyrs }\IeC {\cyrt }\IeC {\cyri } \IeC {\cyrr }\IeC {\cyra }\IeC {\cyrz }\IeC {\cyrn }\IeC {\cyro }\IeC {\cyrs }\IeC {\cyrt }\IeC {\cyri } \IeC {\cyrs }\IeC {\cyrt }\IeC {\cyro }\IeC {\cyri }\IeC {\cyrm }\IeC {\cyro }\IeC {\cyrs }\IeC {\cyrt }\IeC {\cyri } \IeC {\cyro }\IeC {\cyrb }\IeC {\cyrery }\IeC {\cyrch }\IeC {\cyrn }\IeC {\cyro }\IeC {\cyrg }\IeC {\cyro } \IeC {\CYRZ }\IeC {\CYRU } \IeC {\cyri } \IeC {\CYRZ }\IeC {\CYRU } \IeC {\cyrs } \IeC {\CYRK }\IeC {\CYRK } \IeC {\cyro }\IeC {\cyrt } $T_c$ \IeC {\cyri } $\delta $}}{5}}
\ttl@finishall
